0;20;0;19980
21;20;0;19959
34;23;2;19941
47;29;6;19918
60;40;9;19891
75;50;17;19858
88;68;23;19821
114;93;29;19764
166;112;41;19681
228;145;55;19572
277;203;73;19447
374;252;98;19276
487;315;136;19062
619;418;176;18787
806;509;242;18443
989;686;305;18020
1263;852;404;17481
1535;1106;511;16848
1826;1433;656;16085
2346;1738;865;15051
2791;2178;1097;13934
3283;2675;1392;12650
3726;3243;1735;11296
4149;3864;2136;9851
4452;4513;2663;8372
4560;5247;3204;6989
4636;5830;3877;5657
4454;6397;4653;4496
4183;6751;5564;3502
3768;7030;6446;2756
3345;7213;7364;2078
2902;7184;8302;1612
2428;7061;9251;1260
2036;6792;10174;998
1666;6548;10988;798
1316;6188;11825;671
1080;5706;12648;566
908;5214;13393;485
728;4760;14077;435
572;4360;14647;421
487;3922;15191;400
377;3529;15693;401
291;3192;16106;411
236;2879;16457;428
193;2575;16798;434
170;2281;17087;462
145;2024;17339;492
130;1803;17539;528
123;1596;17731;550
113;1431;17855;601
109;1252;18007;632
104;1115;18108;673
107;998;18193;702
101;879;18295;725
86;793;18340;781
74;715;18381;830
65;631;18434;870
58;563;18469;910
55;506;18463;976
61;435;18487;1017
56;384;18489;1071
56;343;18471;1130
48;316;18453;1183
52;290;18431;1227
45;272;18404;1279
39;240;18378;1343
48;216;18331;1405
49;189;18307;1455
43;176;18256;1525
40;159;18232;1569
32;145;18199;1624
30;136;18155;1679
31;131;18106;1732
33;120;18051;1796
31;117;17997;1855
34;109;17962;1895
36;93;17923;1948
25;93;17875;2007
20;97;17834;2049
21;78;17810;2091
23;60;17773;2144
23;59;17721;2197
19;52;17675;2254
16;49;17630;2305
17;47;17570;2366
18;44;17527;2411
15;48;17473;2464
15;49;17421;2515
14;45;17373;2568
17;40;17312;2631
16;35;17268;2681
13;32;17222;2733
15;26;17174;2785
13;24;17129;2834
8;29;17079;2884
9;30;17030;2931
8;27;16983;2982
10;28;16929;3033
10;27;16877;3086
10;26;16826;3138
9;23;16777;3191
5;26;16728;3241
6;26;16687;3281
5;27;16645;3323
5;28;16595;3372
6;26;16549;3419
8;23;16495;3474
9;20;16455;3516
9;18;16420;3553
12;19;16381;3588
11;22;16340;3627
13;19;16291;3677
12;21;16248;3719
9;24;16192;3775
11;22;16140;3827
14;23;16105;3858
14;23;16064;3899
12;25;16013;3950
12;24;15969;3995
13;26;15923;4038
11;27;15879;4083
10;25;15839;4126
11;26;15786;4177
12;26;15740;4222
12;28;15701;4259
16;26;15628;4330
18;27;15596;4359
16;33;15552;4399
21;36;15501;4442
23;35;15447;4495
22;40;15401;4537
18;41;15368;4573
20;40;15330;4610
24;39;15284;4653
28;41;15246;4685
28;43;15218;4711
28;47;15165;4760
32;46;15130;4792
36;49;15095;4820
36;49;15058;4857
40;52;15004;4904
39;60;14965;4936
38;65;14942;4955
45;70;14897;4988
48;76;14862;5014
50;72;14828;5050
54;74;14788;5084
52;82;14756;5110
54;85;14718;5143
54;83;14693;5170
61;88;14659;5192
60;89;14627;5224
57;96;14587;5260
85;90;14568;5257
80;107;14537;5276
82;119;14512;5287
75;126;14487;5312
80;131;14473;5316
85;137;14435;5343
88;138;14412;5362
94;140;14383;5383
90;147;14369;5394
84;146;14354;5416
94;150;14327;5429
94;154;14314;5438
103;167;14290;5440
113;177;14259;5451
116;184;14250;5450
118;198;14239;5445
119;209;14217;5455
125;220;14211;5444
126;229;14193;5452
136;245;14174;5445
151;252;14168;5429
147;273;14158;5422
155;284;14153;5408
184;274;14160;5382
164;290;14183;5363
177;292;14182;5349
178;297;14190;5335
171;319;14174;5336
183;327;14169;5321
205;323;14162;5310
205;348;14158;5289
199;383;14160;5258
247;378;14156;5219
238;402;14160;5200
263;410;14183;5144
255;426;14201;5118
281;439;14195;5085
300;465;14197;5038
311;485;14190;5014
344;517;14203;4936
344;549;14219;4888
342;580;14233;4845
356;618;14252;4774
361;631;14289;4719
347;660;14318;4675
350;660;14354;4636
359;668;14397;4576
377;687;14440;4496
402;692;14488;4418
392;731;14518;4359
375;776;14555;4294
400;799;14602;4199
420;778;14674;4128
415;806;14711;4068
421;830;14746;4003
431;824;14822;3923
409;829;14872;3890
411;854;14909;3826
421;865;14968;3746
413;862;15044;3681
405;869;15111;3615
413;866;15170;3551
405;871;15213;3511
383;851;15284;3482
401;852;15321;3426
395;857;15364;3384
380;845;15415;3360
376;820;15480;3324
384;799;15528;3289
351;801;15570;3278
359;790;15598;3253
333;790;15653;3224
323;772;15700;3205
342;759;15722;3177
347;753;15742;3158
352;732;15791;3125
337;724;15836;3103
305;714;15874;3107
297;706;15894;3103
296;695;15917;3092
287;675;15929;3109
276;650;15940;3134
301;627;15950;3122
292;632;15947;3129
292;631;15959;3118
284;613;15981;3122
276;620;15992;3112
262;617;15984;3137
265;623;15979;3133
263;606;15994;3137
267;612;15955;3166
280;597;15949;3174
268;587;15963;3182
266;579;15971;3184
252;586;15954;3208
241;564;15960;3235
244;559;15955;3242
261;535;15960;3244
257;526;15974;3243
256;510;15977;3257
243;517;15959;3281
212;532;15962;3294
201;510;15966;3323
211;510;15938;3341
214;506;15928;3352
207;500;15893;3400
218;478;15888;3416
201;495;15862;3442
198;481;15857;3464
212;465;15833;3490
219;459;15807;3515
222;440;15781;3557
227;440;15750;3583
216;465;15709;3610
200;483;15696;3621
207;479;15659;3655
221;468;15637;3674
236;471;15589;3704
238;475;15562;3725
234;482;15539;3745
228;477;15534;3761
211;472;15529;3788
251;469;15497;3783
254;482;15467;3797
250;475;15474;3801
230;497;15466;3807
231;487;15447;3835
256;475;15452;3817
236;484;15434;3846
237;475;15431;3857
260;471;15412;3857
264;483;15373;3880
253;499;15344;3904
245;519;15333;3903
243;525;15318;3914
262;534;15299;3905
255;538;15293;3914
264;558;15273;3905
267;565;15259;3909
282;561;15254;3903
311;568;15236;3885
309;575;15244;3872
298;584;15245;3873
305;584;15251;3860
304;585;15236;3875
306;593;15218;3883
329;598;15211;3862
339;594;15194;3873
327;608;15173;3892
310;620;15180;3890
304;630;15178;3888
322;635;15163;3880
310;661;15154;3875
339;646;15150;3865
324;659;15165;3852
327;672;15150;3851
325;664;15160;3851
344;670;15137;3849
346;673;15127;3854
332;676;15139;3853
331;657;15182;3830
333;669;15180;3818
337;672;15165;3826
351;674;15156;3819
349;689;15150;3812
357;709;15146;3788
357;724;15149;3770
347;735;15155;3763
358;748;15173;3721
383;740;15184;3693
370;774;15169;3687
345;786;15186;3683
375;765;15177;3683
384;768;15191;3657
395;759;15218;3628
381;755;15252;3612
388;749;15248;3615
374;779;15249;3598
378;774;15277;3571
367;767;15294;3572
359;788;15283;3570
353;792;15321;3534
379;763;15357;3501
371;779;15366;3484
371;780;15358;3491
382;761;15369;3488
371;778;15362;3489
368;784;15367;3481
387;778;15369;3466
386;770;15369;3475
395;759;15384;3462
407;758;15398;3437
392;759;15439;3410
391;750;15463;3396
378;761;15483;3378
374;764;15475;3387
369;773;15489;3369
362;774;15521;3343
351;771;15540;3338
358;762;15533;3347
339;780;15548;3333
342;769;15567;3322
342;761;15590;3307
341;766;15590;3303
328;743;15622;3307
337;721;15606;3336
336;700;15582;3382
329;703;15583;3385
318;703;15597;3382
302;695;15604;3399
311;680;15612;3397
293;668;15619;3420
299;670;15594;3437
340;667;15573;3420
325;678;15557;3440
313;688;15548;3451
312;675;15555;3458
296;677;15563;3464
308;672;15548;3472
290;694;15532;3484
303;674;15526;3497
299;672;15510;3519
297;658;15509;3536
307;655;15497;3541
311;647;15496;3546
313;656;15475;3556
321;644;15457;3578
336;652;15436;3576
311;668;15416;3605
312;676;15423;3589
320;664;15432;3584
313;692;15401;3594
308;697;15390;3605
338;677;15390;3595
307;696;15376;3621
298;700;15387;3615
337;663;15394;3606
319;668;15394;3619
340;661;15409;3590
346;668;15425;3561
349;657;15413;3581
337;668;15403;3592
333;664;15391;3612
330;674;15381;3615
343;687;15363;3607
316;709;15363;3612
325;707;15368;3600
330;721;15365;3584
352;698;15395;3555
349;690;15407;3554
352;706;15397;3545
350;723;15404;3523
315;712;15428;3545
317;700;15432;3551
328;683;15429;3560
327;678;15435;3560
319;672;15440;3569
313;663;15451;3573
321;656;15433;3590
333;662;15411;3594
327;665;15400;3608
319;660;15399;3622
340;643;15396;3621
322;633;15409;3636
334;635;15400;3631
316;662;15384;3638
315;671;15349;3665
313;677;15339;3671
312;676;15338;3674
322;654;15344;3680
321;655;15350;3674
347;663;15320;3670
328;676;15330;3666
316;680;15342;3662
316;678;15357;3649
315;682;15358;3645
304;683;15359;3654
283;698;15355;3664
309;672;15347;3672
331;671;15338;3660
334;670;15334;3662
343;665;15331;3661
346;668;15341;3645
330;689;15320;3661
325;683;15343;3649
294;703;15343;3660
306;690;15360;3644
346;671;15367;3616
335;691;15332;3642
321;695;15347;3637
310;680;15351;3659
320;666;15339;3675
325;677;15323;3675
341;660;15329;3670
328;650;15341;3681
336;637;15331;3696
336;661;15309;3694
358;671;15304;3667
358;692;15291;3659
356;695;15289;3660
389;690;15291;3630
374;694;15303;3629
366;703;15307;3624
369;688;15333;3610
351;699;15318;3632
339;689;15343;3629
341;681;15334;3644
320;687;15322;3671
316;684;15313;3687
321;689;15304;3686
323;693;15296;3688
329;700;15301;3670
336;696;15319;3649
338;704;15298;3660
359;716;15287;3638
338;729;15297;3636
344;734;15286;3636
349;733;15287;3631
344;737;15312;3607
351;733;15331;3585
336;738;15346;3580
342;743;15340;3575
335;742;15346;3577
341;731;15359;3569
343;707;15380;3570
342;725;15385;3548
331;744;15374;3551
351;724;15377;3548
348;704;15391;3557
359;700;15385;3556
359;693;15405;3543
339;724;15380;3557
342;717;15385;3556
341;723;15375;3561
339;708;15374;3579
338;701;15393;3568
318;707;15383;3592
328;719;15363;3590
362;722;15343;3573
344;753;15330;3573
344;745;15360;3551
379;743;15362;3516
371;742;15394;3493
368;761;15391;3480
369;761;15398;3472
351;765;15408;3476
335;751;15421;3493
334;756;15409;3501
329;752;15418;3501
325;753;15421;3501
318;775;15419;3488
341;755;15429;3475
342;740;15438;3480
329;749;15443;3479
338;761;15431;3470
346;759;15440;3455
320;748;15465;3467
329;746;15452;3473
320;746;15453;3481
314;734;15460;3492
311;724;15491;3474
326;714;15496;3464
333;707;15491;3469
336;728;15476;3460
333;730;15484;3453
331;719;15506;3444
321;724;15486;3469
335;706;15499;3460
343;705;15481;3471
331;718;15469;3482
344;711;15467;3478
337;730;15451;3482
332;719;15488;3461
337;721;15482;3460
339;719;15488;3454
345;715;15507;3433
336;708;15506;3450
340;698;15527;3435
330;706;15512;3452
344;708;15503;3445
363;691;15497;3449
361;697;15490;3452
351;712;15484;3453
361;689;15482;3468
350;706;15494;3450
347;721;15481;3451
355;720;15475;3450
358;711;15476;3455
349;710;15471;3470
338;715;15442;3505
352;702;15439;3507
354;711;15418;3517
334;717;15420;3529
344;707;15416;3533
346;696;15415;3543
333;717;15390;3560
327;683;15420;3570
318;692;15411;3579
342;683;15405;3570
321;693;15401;3585
308;716;15403;3573
343;682;15408;3567
336;709;15387;3568
333;717;15369;3581
323;703;15386;3588
324;701;15394;3581
304;720;15367;3609
319;713;15348;3620
323;717;15339;3621
326;708;15328;3638
330;703;15322;3645
337;693;15345;3625
352;688;15335;3625
357;685;15336;3622
342;703;15332;3623
344;700;15334;3622
349;715;15298;3638
355;707;15296;3642
352;710;15292;3646
352;707;15281;3660
341;724;15250;3685
361;720;15239;3680
348;699;15232;3721
352;717;15220;3711
347;734;15207;3712
357;728;15181;3734
355;719;15187;3739
364;715;15193;3728
364;729;15192;3715
353;730;15221;3696
341;741;15211;3707
346;752;15205;3697
354;739;15213;3694
353;739;15218;3690
358;749;15216;3677
359;757;15210;3674
383;760;15209;3648
381;774;15213;3632
375;787;15225;3613
382;786;15229;3603
392;772;15246;3590
376;792;15265;3567
361;797;15280;3562
386;780;15296;3538
382;773;15318;3527
387;779;15324;3510
365;790;15327;3518
363;779;15327;3531
370;793;15332;3505
356;768;15347;3529
365;770;15342;3523
348;754;15337;3561
348;762;15329;3561
348;759;15356;3537
353;758;15351;3538
368;756;15358;3518
376;764;15374;3486
385;764;15387;3464
392;765;15388;3455
356;774;15397;3473
342;758;15406;3494
333;735;15423;3509
349;704;15430;3517
346;717;15417;3520
328;719;15391;3562
331;715;15392;3562
306;707;15413;3574
322;691;15388;3599
337;686;15398;3579
344;686;15380;3590
350;673;15396;3581
328;691;15392;3589
347;674;15389;3590
347;690;15373;3590
326;694;15387;3593
325;685;15399;3591
323;696;15393;3588
320;702;15391;3587
317;695;15386;3602
313;683;15390;3614
291;688;15396;3625
295;694;15370;3641
288;686;15374;3652
268;709;15351;3672
286;669;15376;3669
306;663;15371;3660
306;662;15361;3671
309;650;15351;3690
303;664;15326;3707
317;646;15320;3717
309;641;15295;3755
321;653;15273;3753
319;641;15288;3752
315;650;15289;3746
317;644;15287;3752
312;644;15264;3780
328;630;15257;3785
317;651;15239;3793
336;658;15228;3778
333;656;15208;3803
332;643;15232;3793
319;657;15198;3826
329;692;15162;3817
337;698;15169;3796
350;690;15161;3799
352;702;15168;3778
365;699;15151;3785
360;721;15146;3773
343;700;15167;3790
341;692;15188;3779
314;732;15181;3773
314;707;15202;3777
347;692;15196;3765
358;695;15188;3759
367;696;15186;3751
366;719;15180;3735
353;748;15175;3724
365;740;15207;3688
361;760;15215;3664
372;750;15206;3672
368;761;15220;3651
366;750;15249;3635
362;759;15242;3637
375;728;15256;3641
348;752;15247;3653
337;761;15263;3639
336;749;15243;3672
336;730;15275;3659
350;716;15287;3647
341;718;15278;3663
354;711;15260;3675
379;715;15270;3636
345;732;15277;3646
334;722;15288;3656
333;737;15268;3662
322;747;15274;3657
341;742;15266;3651
353;757;15244;3646
342;764;15255;3639
354;752;15267;3627
366;752;15265;3617
383;744;15307;3566
355;763;15309;3573
371;770;15311;3548
346;786;15329;3539
355;784;15339;3522
348;748;15381;3523
363;749;15377;3511
373;732;15386;3509
384;736;15378;3502
357;759;15374;3510
347;771;15404;3478
347;762;15432;3459
339;751;15436;3474
371;737;15427;3465
369;744;15435;3452
357;749;15433;3461
355;746;15438;3461
347;743;15439;3471
344;734;15428;3494
330;742;15430;3498
321;731;15433;3515
310;710;15466;3514
332;702;15445;3521
343;701;15447;3509
330;714;15429;3527
315;717;15414;3554
312;729;15399;3560
310;704;15410;3576
312;708;15393;3587
340;705;15395;3560
343;692;15402;3563
343;703;15379;3575
361;682;15381;3576
343;729;15361;3567
357;730;15370;3543
377;737;15356;3530
