0;20;0;19980
25;20;0;19955
35;27;0;19938
44;38;3;19915
59;50;8;19883
76;55;19;19850
108;68;21;19803
147;84;30;19739
167;110;36;19687
214;143;49;19594
262;182;69;19487
353;232;91;19324
446;315;120;19119
619;410;151;18820
789;561;199;18451
1035;698;278;17989
1292;886;373;17449
1584;1156;483;16777
1985;1394;640;15981
2384;1764;832;15020
2834;2162;1079;13925
3264;2677;1354;12705
3743;3257;1685;11315
4133;3834;2130;9903
4442;4494;2659;8405
4561;5171;3267;7001
4560;5771;3951;5718
4387;6429;4659;4525
4165;6804;5487;3544
3771;7033;6437;2759
3362;7147;7376;2115
2895;7187;8267;1651
2441;7041;9216;1302
2034;6817;10111;1038
1697;6436;11046;821
1367;6062;11898;673
1067;5683;12673;577
842;5243;13383;532
683;4799;14023;495
566;4262;14697;475
471;3843;15226;460
390;3451;15706;453
309;3085;16133;473
274;2776;16454;496
241;2461;16797;501
213;2187;17076;524
193;1902;17372;533
173;1708;17564;555
143;1541;17733;583
118;1362;17884;636
100;1207;18023;670
92;1087;18102;719
95;967;18163;775
95;852;18224;829
89;765;18272;874
83;689;18304;924
69;612;18346;973
60;560;18356;1024
54;495;18382;1069
61;441;18388;1110
51;414;18380;1155
54;368;18378;1200
54;336;18357;1253
52;317;18323;1308
70;277;18312;1341
68;240;18315;1377
58;227;18283;1432
53;210;18248;1489
44;195;18204;1557
40;180;18148;1632
43;161;18119;1677
35;150;18078;1737
29;139;18032;1800
33;125;17995;1847
36;111;17950;1903
37;102;17919;1942
41;92;17877;1990
34;94;17833;2039
23;87;17788;2102
27;82;17736;2155
28;75;17683;2214
28;73;17642;2257
26;62;17601;2311
24;57;17565;2354
22;56;17517;2405
21;49;17465;2465
19;43;17416;2522
21;38;17376;2565
16;30;17337;2617
7;35;17288;2670
7;36;17238;2719
7;32;17190;2771
12;28;17134;2826
11;24;17099;2866
9;25;17035;2931
12;26;16989;2973
14;25;16937;3024
12;29;16896;3063
13;26;16847;3114
9;27;16809;3155
14;26;16757;3203
9;26;16709;3256
9;26;16671;3294
9;29;16617;3345
11;27;16570;3392
8;30;16521;3441
9;30;16483;3478
12;28;16446;3514
9;30;16398;3563
10;27;16353;3610
15;27;16294;3664
15;26;16262;3697
14;30;16221;3735
19;28;16178;3775
13;30;16126;3831
9;31;16085;3875
9;31;16042;3918
11;31;15996;3962
17;27;15950;4006
15;31;15904;4050
17;31;15865;4087
15;34;15822;4129
12;32;15775;4181
14;33;15735;4218
15;30;15704;4251
13;36;15646;4305
16;36;15602;4346
15;34;15556;4395
14;35;15514;4437
10;36;15472;4482
16;36;15422;4526
12;36;15374;4578
10;37;15333;4620
14;34;15285;4667
13;34;15257;4696
17;34;15204;4745
19;30;15160;4791
21;33;15116;4830
27;36;15073;4864
31;34;15030;4905
28;34;14990;4948
29;40;14957;4974
23;39;14930;5008
24;38;14892;5046
26;38;14851;5085
23;42;14813;5122
29;39;14778;5154
31;50;14727;5192
31;53;14693;5223
32;56;14652;5260
35;60;14622;5283
41;64;14590;5305
41;75;14550;5334
40;80;14507;5373
38;84;14474;5404
38;79;14447;5436
43;82;14417;5458
46;79;14397;5478
58;76;14368;5498
63;78;14344;5515
69;85;14318;5528
72;91;14282;5555
74;101;14248;5577
68;101;14217;5614
77;107;14179;5637
85;106;14159;5650
82;125;14133;5660
91;131;14089;5689
96;148;14066;5690
89;166;14040;5705
108;168;14021;5703
121;166;14007;5706
124;176;13999;5701
140;179;13963;5718
156;184;13944;5716
137;209;13921;5733
142;208;13922;5728
152;233;13906;5709
158;252;13890;5700
161;265;13892;5682
167;271;13899;5663
172;290;13890;5648
200;296;13868;5636
213;308;13857;5622
208;333;13858;5601
221;337;13860;5582
248;352;13854;5546
245;381;13857;5517
246;401;13852;5501
255;421;13864;5460
264;429;13886;5421
288;447;13893;5372
310;462;13903;5325
314;476;13925;5285
317;502;13937;5244
337;534;13968;5161
344;548;14004;5104
357;570;14040;5033
365;592;14060;4983
382;621;14082;4915
396;667;14102;4835
373;700;14134;4793
390;722;14174;4714
398;737;14211;4654
377;769;14269;4585
415;768;14307;4510
419;800;14349;4432
411;841;14386;4362
451;833;14456;4260
440;847;14520;4193
460;868;14565;4107
447;887;14624;4042
454;886;14702;3958
475;887;14753;3885
491;888;14813;3808
461;922;14875;3742
489;912;14949;3650
469;934;15009;3588
470;953;15072;3505
459;968;15137;3436
450;983;15189;3378
441;960;15263;3336
444;955;15337;3264
455;943;15413;3189
434;938;15472;3156
422;910;15542;3126
404;918;15584;3094
372;900;15646;3082
363;906;15697;3034
359;868;15753;3020
359;833;15786;3022
336;832;15818;3014
315;812;15866;3007
333;779;15901;2987
299;773;15947;2981
319;745;15969;2967
316;728;15992;2964
313;696;16042;2949
317;691;16061;2931
304;688;16085;2923
283;683;16124;2910
281;649;16156;2914
247;639;16155;2959
276;611;16158;2955
267;608;16154;2971
258;600;16164;2978
236;592;16150;3022
233;602;16144;3021
240;587;16123;3050
236;567;16127;3070
243;567;16103;3087
252;551;16095;3102
248;521;16107;3124
239;519;16102;3140
253;506;16111;3130
220;536;16090;3154
215;531;16073;3181
213;513;16078;3196
222;492;16072;3214
230;501;16052;3217
218;522;16024;3236
240;509;16005;3246
219;521;16003;3257
205;514;15981;3300
216;507;15957;3320
224;496;15934;3346
221;493;15903;3383
212;481;15895;3412
230;464;15869;3437
207;465;15844;3484
215;448;15820;3517
211;443;15800;3546
199;440;15774;3587
221;414;15750;3615
213;421;15726;3640
203;428;15692;3677
204;425;15670;3701
215;427;15649;3709
204;419;15640;3737
201;424;15613;3762
202;426;15583;3789
184;430;15542;3844
180;408;15544;3868
199;393;15504;3904
205;390;15490;3915
228;398;15444;3930
217;414;15397;3972
225;408;15377;3990
230;421;15332;4017
219;430;15314;4037
220;436;15295;4049
239;452;15271;4038
228;449;15250;4073
224;465;15224;4087
240;463;15191;4106
255;454;15167;4124
238;468;15158;4136
234;473;15117;4176
252;479;15099;4170
246;507;15079;4168
251;518;15057;4174
269;518;15053;4160
280;518;15040;4162
275;514;15059;4152
253;534;15038;4175
281;527;15029;4163
301;531;15022;4146
299;537;15010;4154
300;540;15005;4155
288;544;14993;4175
296;550;14964;4190
309;552;14965;4174
305;554;14967;4174
302;558;14965;4175
312;554;14955;4179
302;560;14944;4194
323;565;14934;4178
339;592;14910;4159
342;609;14870;4179
368;627;14857;4148
365;643;14868;4124
354;643;14902;4101
346;654;14914;4086
351;687;14886;4076
355;681;14904;4060
374;694;14907;4025
411;691;14925;3973
373;738;14911;3978
381;746;14907;3966
367;757;14911;3965
376;727;14946;3951
362;732;14967;3939
373;747;14981;3899
406;721;15019;3854
407;732;15029;3832
402;755;15038;3805
387;764;15056;3793
370;786;15039;3805
378;808;15023;3791
367;800;15045;3788
359;806;15069;3766
379;803;15085;3733
380;787;15135;3698
371;811;15148;3670
381;813;15166;3640
391;807;15192;3610
402;794;15217;3587
391;832;15224;3553
379;822;15249;3550
389;816;15267;3528
401;799;15284;3516
406;800;15306;3488
378;820;15322;3480
375;843;15314;3468
359;817;15357;3467
370;797;15375;3458
367;789;15393;3451
375;801;15396;3428
349;815;15412;3424
384;800;15416;3400
378;784;15443;3395
382;767;15463;3388
361;761;15476;3402
364;751;15495;3390
349;757;15476;3418
344;748;15490;3418
338;744;15507;3411
327;744;15491;3438
338;730;15479;3453
337;730;15491;3442
324;715;15481;3480
325;721;15477;3477
339;703;15485;3473
325;717;15456;3502
338;716;15434;3512
323;712;15459;3506
342;712;15445;3501
335;712;15428;3525
340;724;15424;3512
327;730;15411;3532
320;730;15408;3542
324;734;15407;3535
334;713;15410;3543
368;696;15416;3520
369;700;15398;3533
366;711;15400;3523
357;736;15396;3511
322;710;15424;3544
321;710;15421;3548
308;718;15409;3565
305;692;15427;3576
320;697;15409;3574
302;696;15407;3595
303;700;15403;3594
325;697;15384;3594
314;711;15372;3603
326;704;15377;3593
321;699;15381;3599
326;687;15391;3596
347;675;15414;3564
339;672;15410;3579
336;674;15400;3590
324;657;15406;3613
329;655;15393;3623
318;654;15385;3643
326;629;15397;3648
339;635;15395;3631
323;640;15370;3667
328;629;15370;3673
310;661;15362;3667
322;661;15374;3643
319;680;15354;3647
333;668;15353;3646
313;661;15346;3680
302;658;15353;3687
290;660;15352;3698
295;632;15349;3724
292;646;15326;3736
303;648;15303;3746
323;618;15305;3754
303;628;15305;3764
327;632;15297;3744
329;631;15304;3736
321;651;15280;3748
321;637;15276;3766
325;625;15272;3778
327;621;15257;3795
337;623;15230;3810
325;645;15221;3809
339;644;15216;3801
336;632;15216;3816
324;645;15214;3817
326;618;15232;3824
296;639;15218;3847
302;629;15199;3870
325;619;15181;3875
343;618;15170;3869
327;639;15169;3865
323;631;15160;3886
299;644;15150;3907
320;633;15155;3892
317;636;15141;3906
312;650;15120;3918
325;670;15094;3911
346;659;15084;3911
361;661;15063;3915
374;678;15053;3895
387;681;15043;3889
375;704;15029;3892
361;712;15019;3908
347;719;15025;3909
346;714;15042;3898
359;707;15043;3891
400;727;15046;3827
385;746;15061;3808
381;748;15065;3806
376;738;15112;3774
379;736;15137;3748
370;751;15135;3744
371;760;15140;3729
366;758;15146;3730
368;784;15143;3705
373;787;15153;3687
375;783;15167;3675
396;779;15176;3649
371;777;15202;3650
362;790;15226;3622
350;790;15238;3622
369;769;15242;3620
353;764;15261;3622
358;770;15264;3608
337;785;15279;3599
345;772;15294;3589
358;776;15315;3551
399;769;15311;3521
381;774;15315;3530
376;762;15328;3534
369;777;15322;3532
383;769;15336;3512
370;778;15369;3483
377;782;15356;3485
377;788;15374;3461
353;810;15387;3450
365;797;15404;3434
335;786;15432;3447
333;780;15448;3439
318;791;15456;3435
352;772;15472;3404
367;753;15489;3391
364;728;15489;3419
363;737;15488;3412
320;768;15487;3425
321;759;15507;3413
341;743;15500;3416
331;745;15492;3432
348;712;15527;3413
342;725;15515;3418
332;722;15518;3428
344;706;15530;3420
340;707;15533;3420
350;715;15529;3406
333;728;15521;3418
331;700;15538;3431
338;700;15528;3434
348;687;15543;3422
323;695;15546;3436
300;715;15533;3452
269;708;15530;3493
281;690;15510;3519
288;678;15499;3535
289;657;15520;3534
308;650;15495;3547
320;645;15487;3548
294;661;15478;3567
312;637;15482;3569
294;641;15468;3597
293;632;15462;3613
300;608;15485;3607
282;611;15469;3638
309;590;15456;3645
296;593;15462;3649
283;603;15432;3682
299;612;15424;3665
302;607;15430;3661
319;604;15405;3672
298;609;15379;3714
308;599;15378;3715
310;616;15348;3726
302;630;15311;3757
308;610;15322;3760
341;618;15316;3725
339;639;15294;3728
331;665;15276;3728
322;682;15267;3729
345;671;15276;3708
346;671;15270;3713
316;686;15261;3737
350;679;15251;3720
337;687;15252;3724
335;697;15259;3709
345;678;15258;3719
345;697;15239;3719
337;710;15242;3711
368;717;15232;3683
345;723;15249;3683
325;742;15244;3689
318;747;15248;3687
327;740;15259;3674
347;744;15261;3648
373;735;15245;3647
369;727;15265;3639
367;735;15257;3641
337;746;15244;3673
333;739;15240;3688
341;732;15263;3664
343;730;15269;3658
342;726;15266;3666
340;717;15274;3669
371;708;15256;3665
366;721;15245;3668
356;730;15239;3675
357;727;15227;3689
339;718;15221;3722
355;707;15216;3722
349;716;15223;3712
337;720;15230;3713
351;727;15221;3701
341;723;15232;3704
349;721;15226;3704
348;724;15234;3694
358;712;15248;3682
352;720;15240;3688
365;709;15235;3691
363;699;15255;3683
333;697;15279;3691
344;690;15272;3694
324;690;15276;3710
319;676;15274;3731
316;677;15261;3746
295;684;15259;3762
315;668;15228;3789
338;651;15221;3790
317;668;15224;3791
319;664;15222;3795
328;674;15184;3814
340;678;15168;3814
338;679;15140;3843
341;686;15139;3834
350;691;15119;3840
337;700;15114;3849
351;680;15127;3842
345;681;15125;3849
347;698;15099;3856
346;677;15115;3862
356;692;15120;3832
344;683;15137;3836
355;687;15143;3815
358;681;15156;3805
354;691;15140;3815
349;705;15132;3814
337;673;15164;3826
321;680;15154;3845
323;692;15142;3843
331;685;15134;3850
309;688;15144;3859
326;675;15132;3867
336;683;15115;3866
341;678;15096;3885
341;677;15118;3864
353;662;15120;3865
369;651;15111;3869
349;681;15098;3872
350;696;15086;3868
346;681;15104;3869
358;697;15082;3863
358;717;15082;3843
347;733;15074;3846
345;770;15068;3817
375;757;15088;3780
379;760;15104;3757
374;772;15117;3737
358;771;15115;3756
359;764;15125;3752
355;771;15141;3733
330;778;15151;3741
330;757;15160;3753
354;720;15192;3734
360;726;15188;3726
384;724;15177;3715
372;749;15159;3720
371;741;15151;3737
380;734;15175;3711
376;741;15167;3716
359;763;15171;3707
367;762;15179;3692
352;785;15189;3674
354;765;15200;3681
350;759;15200;3691
345;781;15177;3697
365;767;15186;3682
364;767;15189;3680
365;754;15201;3680
374;742;15222;3662
363;755;15232;3650
353;770;15212;3665
355;764;15216;3665
374;757;15211;3658
375;744;15219;3662
351;753;15186;3710
371;747;15189;3693
376;758;15188;3678
378;740;15213;3669
353;746;15228;3673
354;725;15243;3678
341;728;15232;3699
350;714;15245;3691
355;713;15251;3681
349;740;15234;3677
349;738;15210;3703
342;726;15213;3719
348;735;15207;3710
356;738;15196;3710
349;760;15192;3699
346;748;15210;3696
344;737;15217;3702
354;732;15233;3681
349;720;15239;3692
353;713;15232;3702
331;726;15247;3696
318;720;15249;3713
326;711;15253;3710
333;699;15273;3695
342;700;15258;3700
346;708;15255;3691
351;714;15253;3682
390;698;15262;3650
378;703;15255;3664
376;708;15256;3660
367;704;15258;3671
367;703;15258;3672
372;709;15261;3658
393;700;15257;3650
379;701;15269;3651
380;718;15274;3628
371;702;15295;3632
358;720;15298;3624
353;726;15306;3615
333;724;15333;3610
359;709;15328;3604
327;700;15357;3616
328;708;15335;3629
325;727;15324;3624
341;713;15343;3603
361;706;15325;3608
342;722;15312;3624
361;712;15325;3602
356;693;15340;3611
341;712;15327;3620
346;726;15312;3616
328;739;15320;3613
341;732;15318;3609
323;729;15334;3614
322;728;15341;3609
336;723;15317;3624
358;710;15328;3604
376;725;15305;3594
381;756;15303;3560
363;753;15325;3559
363;759;15349;3529
358;763;15343;3536
355;781;15333;3531
367;750;15360;3523
378;754;15360;3508
363;755;15368;3514
327;790;15363;3520
333;796;15364;3507
323;768;15383;3526
347;756;15395;3502
380;733;15414;3473
354;770;15425;3451
339;748;15458;3455
335;744;15440;3481
323;746;15447;3484
327;732;15453;3488
320;726;15431;3523
317;717;15431;3535
327;703;15427;3543
342;711;15409;3538
346;707;15423;3524
336;712;15433;3519
