0;20;0;19980
9;20;0;19971
23;17;4;19956
26;21;8;19945
38;20;13;19929
38;27;18;19917
51;33;22;19894
66;41;28;19865
90;53;34;19823
116;70;45;19769
148;89;56;19707
180;122;66;19632
239;159;85;19517
337;202;108;19353
425;268;135;19172
551;372;162;18915
691;477;211;18621
871;599;275;18255
1124;766;359;17751
1391;1023;444;17142
1739;1236;581;16444
2079;1581;753;15587
2561;1951;947;14541
3052;2407;1196;13345
3499;2942;1540;12019
3962;3546;1891;10601
4360;4173;2378;9089
4546;4843;2930;7681
4714;5485;3529;6272
4559;6109;4244;5088
4361;6585;5029;4025
4053;6960;5845;3142
3617;7183;6769;2431
3160;7238;7708;1894
2713;7164;8638;1485
2311;6972;9565;1152
1926;6668;10469;937
1574;6360;11300;766
1279;5997;12074;650
1070;5551;12841;538
864;5150;13515;471
658;4758;14145;439
545;4319;14724;412
441;3895;15254;410
365;3469;15746;420
322;3096;16148;434
275;2806;16479;440
228;2510;16804;458
188;2240;17098;474
178;1998;17335;489
141;1786;17548;525
123;1597;17730;550
111;1378;17918;593
110;1218;18048;624
106;1078;18151;665
88;957;18244;711
82;840;18323;755
82;758;18346;814
81;677;18381;861
80;622;18392;906
75;565;18412;948
75;491;18440;994
74;438;18460;1028
74;399;18441;1086
71;358;18449;1122
64;325;18437;1174
60;283;18417;1240
51;264;18373;1312
48;240;18345;1367
47;218;18313;1422
44;215;18270;1471
39;206;18234;1521
47;176;18221;1556
44;168;18191;1597
38;153;18146;1663
39;145;18108;1708
41;132;18069;1758
35;130;18018;1817
40;106;17984;1870
37;105;17940;1918
34;103;17896;1967
28;100;17849;2023
32;86;17823;2059
31;76;17776;2117
23;81;17717;2179
23;71;17672;2234
16;73;17617;2294
13;66;17566;2355
11;61;17526;2402
9;53;17474;2464
8;48;17414;2530
10;45;17355;2590
16;38;17305;2641
17;33;17259;2691
19;35;17210;2736
18;33;17167;2782
13;31;17128;2828
12;31;17081;2876
12;29;17031;2928
20;24;16989;2967
14;28;16943;3015
12;30;16898;3060
10;30;16854;3106
11;23;16804;3162
8;25;16752;3215
10;23;16699;3268
9;23;16649;3319
6;26;16600;3368
9;27;16556;3408
11;24;16510;3455
8;24;16470;3498
11;21;16415;3553
14;18;16366;3602
11;19;16307;3663
11;21;16250;3718
14;19;16197;3770
15;21;16144;3820
11;22;16114;3853
14;23;16073;3890
19;22;16021;3938
18;25;15973;3984
21;23;15924;4032
26;24;15886;4064
23;24;15844;4109
25;29;15801;4145
24;31;15762;4183
20;38;15731;4211
19;39;15682;4260
20;38;15643;4299
18;43;15592;4347
22;43;15560;4375
20;41;15529;4410
16;37;15492;4455
21;36;15442;4501
14;38;15407;4541
21;37;15371;4571
17;41;15334;4608
22;36;15291;4651
19;39;15265;4677
18;38;15241;4703
16;41;15197;4746
20;36;15157;4787
20;37;15119;4824
21;43;15066;4870
17;47;15028;4908
21;44;14993;4942
23;42;14951;4984
23;46;14914;5017
27;41;14878;5054
25;46;14845;5084
22;46;14816;5116
24;46;14769;5161
29;39;14727;5205
28;44;14679;5249
27;46;14633;5294
32;47;14596;5325
33;52;14565;5350
34;55;14533;5378
35;59;14490;5416
45;60;14458;5437
49;67;14425;5459
43;74;14402;5481
52;81;14356;5511
55;90;14316;5539
51;95;14276;5578
58;89;14256;5597
65;87;14235;5613
66;90;14184;5660
69;98;14142;5691
62;111;14109;5718
61;118;14087;5734
74;120;14060;5746
96;116;14032;5756
95;120;14004;5781
98;121;13981;5800
116;122;13969;5793
113;144;13942;5801
106;159;13926;5809
114;163;13918;5805
120;169;13908;5803
126;183;13888;5803
122;185;13877;5816
121;200;13873;5806
128;207;13852;5813
159;205;13824;5812
160;203;13817;5820
147;223;13803;5827
138;243;13793;5826
161;242;13797;5800
177;265;13795;5763
193;276;13796;5735
197;291;13800;5712
212;325;13783;5680
221;342;13786;5651
221;348;13804;5627
208;376;13820;5596
241;386;13830;5543
273;397;13833;5497
288;415;13835;5462
307;429;13848;5416
308;463;13859;5370
326;472;13887;5315
337;497;13910;5256
362;517;13937;5184
344;553;13966;5137
352;580;14001;5067
373;603;14041;4983
394;613;14082;4911
409;650;14112;4829
414;676;14126;4784
408;709;14164;4719
449;721;14208;4622
475;752;14252;4521
462;792;14289;4457
480;818;14331;4371
492;835;14392;4281
469;868;14457;4206
477;897;14505;4121
505;889;14579;4027
497;896;14654;3953
483;900;14708;3909
463;935;14777;3825
475;933;14830;3762
472;930;14920;3678
479;931;14985;3605
470;938;15043;3549
467;963;15081;3489
475;949;15157;3419
470;961;15217;3352
467;961;15276;3296
467;985;15349;3199
453;987;15410;3150
454;996;15462;3088
441;1006;15515;3038
460;982;15550;3008
414;966;15633;2987
408;958;15678;2956
411;965;15725;2899
395;978;15761;2866
396;950;15825;2829
370;926;15910;2794
357;905;15951;2787
322;880;16009;2789
323;858;16050;2769
303;835;16094;2768
293;816;16133;2758
323;809;16141;2727
322;796;16169;2713
300;786;16193;2721
294;768;16198;2740
294;738;16225;2743
288;722;16248;2742
269;721;16274;2736
280;698;16290;2732
277;680;16312;2731
249;694;16301;2756
249;666;16319;2766
243;628;16318;2811
241;591;16342;2826
251;591;16303;2855
259;556;16320;2865
244;556;16307;2893
251;552;16293;2904
231;555;16278;2936
229;534;16273;2964
221;533;16254;2992
224;510;16238;3028
222;486;16246;3046
210;488;16232;3070
206;488;16191;3115
213;478;16166;3143
224;465;16147;3164
204;465;16142;3189
202;442;16114;3242
199;437;16059;3305
201;437;16019;3343
212;422;16002;3364
202;442;15964;3392
205;437;15931;3427
223;427;15900;3450
226;431;15883;3460
204;438;15858;3500
204;440;15815;3541
196;438;15793;3573
215;430;15771;3584
216;439;15741;3604
216;436;15699;3649
218;450;15698;3634
215;447;15673;3665
214;440;15650;3696
218;439;15619;3724
230;439;15592;3739
230;434;15558;3778
218;453;15515;3814
231;437;15501;3831
247;428;15484;3841
252;432;15436;3880
251;434;15408;3907
248;433;15397;3922
250;446;15364;3940
265;449;15343;3943
260;449;15324;3967
250;456;15312;3982
232;462;15289;4017
229;466;15269;4036
229;465;15249;4057
243;470;15225;4062
233;469;15203;4095
246;475;15175;4104
255;470;15166;4109
281;470;15165;4084
305;484;15120;4091
295;513;15105;4087
308;526;15086;4080
311;532;15069;4088
289;547;15064;4100
278;554;15038;4130
303;555;15020;4122
309;560;15001;4130
305;593;14993;4109
320;591;14998;4091
353;606;14962;4079
329;629;14955;4087
310;659;14941;4090
360;644;14940;4056
365;661;14941;4033
366;665;14952;4017
369;669;14952;4010
368;679;14946;4007
363;706;14915;4016
367;746;14901;3986
384;757;14913;3946
399;756;14930;3915
410;762;14951;3877
407;785;14977;3831
406;797;14982;3815
419;787;15011;3783
406;797;15019;3778
400;813;15050;3737
397;827;15056;3720
418;835;15087;3660
417;820;15118;3645
434;812;15149;3605
417;791;15181;3611
424;796;15187;3593
397;818;15172;3613
396;831;15178;3595
408;832;15195;3565
388;842;15207;3563
410;821;15227;3542
401;803;15276;3520
359;809;15308;3524
356;812;15312;3520
336;798;15335;3531
350;785;15334;3531
356;773;15348;3523
368;778;15339;3515
376;758;15344;3522
392;748;15336;3524
392;745;15360;3503
387;753;15365;3495
382;770;15347;3501
381;755;15357;3507
349;763;15383;3505
363;754;15382;3501
352;753;15398;3497
350;750;15420;3480
328;745;15436;3491
347;738;15437;3478
357;736;15457;3450
366;721;15468;3445
366;712;15464;3458
364;731;15462;3443
360;745;15477;3418
366;732;15484;3418
359;722;15500;3419
354;738;15462;3446
347;738;15469;3446
345;739;15486;3430
342;741;15510;3407
354;728;15509;3409
340;728;15523;3409
352;710;15520;3418
358;692;15522;3428
338;717;15502;3443
347;722;15482;3449
341;717;15482;3460
337;703;15504;3456
335;691;15511;3463
331;685;15500;3484
324;697;15463;3516
311;702;15460;3527
325;687;15481;3507
346;683;15485;3486
313;713;15455;3519
325;685;15458;3532
325;687;15452;3536
332;683;15448;3537
336;673;15459;3532
328;666;15449;3557
324;670;15462;3544
315;675;15448;3562
314;686;15423;3577
335;667;15428;3570
327;676;15420;3577
320;685;15431;3564
331;685;15391;3593
336;684;15388;3592
316;693;15359;3632
313;679;15366;3642
322;681;15353;3644
324;672;15365;3639
314;674;15353;3659
347;664;15337;3652
365;647;15345;3643
336;688;15315;3661
352;688;15302;3658
346;696;15330;3628
337;701;15327;3635
375;685;15321;3619
351;700;15319;3630
347;701;15305;3647
386;676;15307;3631
385;665;15333;3617
366;698;15332;3604
359;705;15346;3590
353;705;15345;3597
348;695;15349;3608
345;707;15337;3611
329;719;15327;3625
321;730;15321;3628
336;716;15308;3640
319;717;15298;3666
299;728;15291;3682
319;725;15288;3668
325;720;15256;3699
333;731;15239;3697
334;704;15263;3699
367;706;15256;3671
363;718;15244;3675
360;712;15250;3678
344;710;15250;3696
337;714;15226;3723
353;699;15239;3709
345;707;15234;3714
340;720;15230;3710
354;708;15248;3690
347;732;15224;3697
364;710;15260;3666
362;713;15267;3658
342;722;15277;3659
348;725;15276;3651
345;723;15298;3634
391;728;15283;3598
391;738;15288;3583
371;763;15278;3588
386;736;15297;3581
373;736;15316;3575
389;718;15331;3562
377;716;15351;3556
378;742;15353;3527
369;749;15376;3506
373;750;15383;3494
373;748;15389;3490
366;757;15366;3511
368;767;15381;3484
376;752;15399;3473
385;747;15411;3457
363;761;15427;3449
365;764;15418;3453
358;757;15442;3443
349;768;15468;3415
364;743;15489;3404
353;754;15505;3388
345;735;15515;3405
368;727;15513;3392
356;710;15532;3402
355;713;15521;3411
348;724;15535;3393
351;744;15511;3394
356;736;15514;3394
364;737;15530;3369
361;739;15531;3369
376;725;15551;3348
358;726;15582;3334
362;732;15584;3322
363;721;15596;3320
351;740;15595;3314
326;737;15614;3323
330;741;15607;3322
314;719;15638;3329
314;701;15635;3350
303;715;15627;3355
313;704;15630;3353
333;688;15629;3350
313;703;15636;3348
292;706;15622;3380
313;702;15614;3371
321;686;15628;3365
328;677;15620;3375
322;647;15641;3390
306;645;15626;3423
305;654;15600;3441
291;655;15573;3481
301;643;15564;3492
300;636;15565;3499
305;646;15532;3517
309;619;15544;3528
303;622;15541;3534
295;632;15522;3551
290;627;15524;3559
296;608;15538;3558
278;619;15526;3577
280;615;15505;3600
290;620;15496;3594
279;611;15476;3634
296;611;15458;3635
283;611;15453;3653
276;613;15437;3674
287;608;15425;3680
299;609;15419;3673
285;610;15409;3696
294;603;15405;3698
309;594;15410;3687
321;609;15375;3695
327;607;15354;3712
316;605;15343;3736
312;607;15323;3758
310;617;15294;3779
327;630;15248;3795
332;642;15223;3803
326;650;15201;3823
313;661;15196;3830
324;642;15201;3833
334;642;15189;3835
335;647;15181;3837
338;643;15145;3874
337;651;15130;3882
350;655;15132;3863
365;654;15120;3861
355;684;15112;3849
363;692;15116;3829
376;687;15113;3824
362;701;15132;3805
359;707;15134;3800
360;717;15138;3785
357;722;15148;3773
362;724;15145;3769
363;739;15148;3750
355;730;15174;3741
357;695;15204;3744
365;688;15208;3739
367;683;15202;3748
352;684;15205;3759
349;674;15224;3753
334;676;15225;3765
375;671;15217;3737
377;678;15216;3729
369;677;15219;3735
350;689;15216;3745
352;669;15238;3741
333;679;15246;3742
332;697;15225;3746
343;686;15233;3738
328;697;15241;3734
355;691;15238;3716
339;722;15221;3718
330;729;15229;3712
331;701;15255;3713
316;696;15272;3716
300;709;15252;3739
315;726;15222;3737
338;704;15229;3729
323;717;15230;3730
329;698;15247;3726
353;685;15220;3742
361;711;15213;3715
364;715;15208;3713
372;697;15210;3721
380;699;15210;3711
373;712;15204;3711
364;729;15191;3716
348;739;15177;3736
379;733;15185;3703
381;747;15179;3693
391;747;15184;3678
377;769;15174;3680
391;762;15191;3656
386;778;15184;3652
397;783;15185;3635
386;791;15207;3616
377;811;15190;3622
403;794;15183;3620
410;796;15188;3606
392;825;15188;3595
372;827;15215;3586
399;806;15235;3560
405;826;15218;3551
396;832;15221;3551
389;832;15237;3542
389;820;15280;3511
393;824;15295;3488
390;817;15305;3488
387;813;15320;3480
393;806;15320;3481
384;796;15353;3467
384;789;15348;3479
387;773;15351;3489
366;781;15356;3497
378;746;15352;3524
404;740;15341;3515
404;755;15330;3511
371;782;15316;3531
371;796;15294;3539
395;767;15322;3516
389;773;15327;3511
376;786;15332;3506
368;791;15339;3502
373;785;15331;3511
387;773;15350;3490
397;783;15342;3478
396;773;15360;3471
368;788;15364;3480
386;784;15351;3479
388;772;15357;3483
390;784;15386;3440
393;777;15398;3432
386;762;15416;3436
358;764;15409;3469
357;751;15429;3463
356;768;15426;3450
362;769;15405;3464
344;761;15412;3483
332;760;15426;3482
342;754;15441;3463
339;745;15436;3480
343;753;15439;3465
336;709;15465;3490
316;712;15463;3509
311;707;15467;3515
323;718;15436;3523
320;711;15424;3545
319;697;15450;3534
323;675;15454;3548
317;675;15429;3579
347;675;15417;3561
341;688;15398;3573
343;673;15387;3597
340;677;15394;3589
317;675;15396;3612
341;655;15389;3615
345;666;15352;3637
331;659;15363;3647
331;668;15343;3658
331;663;15340;3666
332;661;15321;3686
328;658;15312;3702
308;680;15270;3742
330;673;15275;3722
326;651;15289;3734
320;645;15295;3740
317;638;15286;3759
331;617;15278;3774
318;625;15282;3775
327;619;15265;3789
333;626;15243;3798
315;652;15235;3798
322;656;15229;3793
336;649;15223;3792
334;643;15216;3807
319;648;15213;3820
322;649;15203;3826
327;643;15211;3819
330;636;15195;3839
325;657;15179;3839
328;658;15160;3854
311;648;15171;3870
324;673;15150;3853
322;661;15162;3855
329;655;15158;3858
337;663;15154;3846
326;665;15146;3863
332;653;15153;3862
343;653;15148;3856
337;670;15131;3862
337;692;15115;3856
325;712;15108;3855
336;729;15095;3840
346;724;15091;3839
360;736;15102;3802
373;732;15099;3796
372;735;15096;3797
349;741;15106;3804
337;768;15098;3797
341;749;15120;3790
349;719;15149;3783
344;724;15144;3788
326;730;15159;3785
342;731;15159;3768
344;759;15134;3763
339;766;15146;3749
351;755;15164;3730
378;738;15178;3706
380;739;15202;3679
364;763;15178;3695
339;798;15182;3681
355;797;15190;3658
362;797;15190;3651
350;788;15215;3647
342;775;15239;3644
345;765;15247;3643
354;779;15239;3628
372;758;15238;3632
368;756;15249;3627
376;751;15258;3615
369;772;15259;3600
363;793;15256;3588
376;768;15284;3572
376;770;15303;3551
375;764;15312;3549
368;757;15325;3550
358;763;15334;3545
352;756;15361;3531
342;763;15376;3519
336;756;15377;3531
332;746;15390;3532
337;726;15383;3554
313;747;15366;3574
340;726;15359;3575
335;727;15355;3583
