0;20;0;19980
16;20;0;19964
31;21;5;19943
43;28;6;19923
56;33;9;19902
76;39;14;19871
98;55;20;19827
138;81;24;19757
166;108;34;19692
209;135;52;19604
283;170;70;19477
351;216;94;19339
432;283;127;19158
559;393;156;18892
766;515;200;18519
934;671;268;18127
1202;865;349;17584
1559;1082;461;16898
1942;1333;619;16106
2355;1714;779;15152
2753;2163;993;14091
3286;2644;1284;12786
3694;3246;1593;11467
4011;3876;2019;10094
4396;4468;2558;8578
4669;5075;3167;7089
4700;5664;3838;5798
4578;6230;4557;4635
4311;6707;5386;3596
3835;7063;6280;2822
3403;7189;7232;2176
2931;7130;8237;1702
2502;6915;9268;1315
2076;6699;10190;1035
1781;6341;11044;834
1447;5989;11863;701
1175;5616;12610;599
957;5221;13311;511
778;4810;13951;461
617;4401;14552;430
475;4002;15099;424
378;3620;15573;429
319;3222;16020;439
284;2910;16371;435
239;2588;16729;444
215;2294;17040;451
178;2044;17299;479
161;1830;17521;488
137;1637;17712;514
121;1463;17876;540
112;1294;18029;565
105;1161;18131;603
103;1024;18245;628
83;933;18312;672
76;823;18370;731
80;728;18426;766
79;656;18457;808
86;579;18484;851
77;510;18517;896
67;464;18514;955
65;416;18507;1012
64;378;18501;1057
59;349;18497;1095
54;308;18491;1147
53;283;18466;1198
49;257;18443;1251
50;232;18417;1301
46;217;18393;1344
49;190;18356;1405
47;174;18313;1466
37;164;18280;1519
39;134;18254;1573
42;126;18201;1631
40;116;18163;1681
41;111;18111;1737
33;109;18060;1798
25;105;18027;1843
26;96;17994;1884
25;91;17943;1941
21;84;17893;2002
16;80;17857;2047
19;71;17797;2113
17;64;17756;2163
13;62;17707;2218
14;58;17659;2269
19;53;17613;2315
21;50;17553;2376
20;47;17500;2433
16;47;17446;2491
15;43;17390;2552
10;43;17353;2594
9;42;17301;2648
8;38;17258;2696
9;31;17201;2759
9;33;17153;2805
10;31;17098;2861
13;26;17042;2919
13;26;16982;2979
12;26;16930;3032
12;27;16889;3072
14;26;16834;3126
18;25;16788;3169
15;31;16729;3225
20;28;16683;3269
15;31;16645;3309
18;27;16601;3354
19;24;16554;3403
14;29;16507;3450
15;32;16465;3488
15;29;16422;3534
14;28;16382;3576
17;24;16326;3633
15;26;16288;3671
17;28;16242;3713
15;29;16199;3757
14;29;16154;3803
11;30;16108;3851
10;31;16059;3900
11;33;16002;3954
13;35;15957;3995
16;31;15923;4030
10;34;15891;4065
11;32;15852;4105
8;35;15810;4147
11;33;15782;4174
10;35;15743;4212
13;35;15697;4255
13;32;15652;4303
14;33;15612;4341
15;36;15573;4376
18;33;15529;4420
16;34;15490;4460
16;38;15446;4500
28;40;15396;4536
32;45;15350;4573
34;46;15313;4607
29;50;15278;4643
24;56;15245;4675
23;52;15214;4711
29;46;15180;4745
24;57;15135;4784
29;55;15102;4814
30;53;15073;4844
28;55;15038;4879
29;53;14993;4925
33;52;14957;4958
30;55;14911;5004
35;61;14872;5032
34;60;14814;5092
41;61;14776;5122
41;65;14740;5154
47;68;14690;5195
58;70;14662;5210
63;68;14642;5227
61;75;14606;5258
56;86;14583;5275
58;88;14571;5283
52;97;14528;5323
68;99;14504;5329
78;92;14493;5337
85;100;14460;5355
77;113;14439;5371
86;115;14412;5387
85;122;14392;5401
88;131;14359;5422
99;131;14351;5419
98;147;14334;5421
102;148;14330;5420
104;159;14305;5432
112;161;14295;5432
101;175;14281;5443
115;175;14265;5445
106;187;14258;5449
127;189;14241;5443
143;198;14226;5433
157;207;14212;5424
177;212;14200;5411
180;235;14184;5401
178;254;14181;5387
185;270;14171;5374
176;293;14165;5366
186;306;14159;5349
201;324;14153;5322
224;343;14146;5287
239;340;14159;5262
260;352;14169;5219
273;384;14153;5190
260;406;14149;5185
267;422;14150;5161
270;437;14188;5105
285;467;14191;5057
289;479;14223;5009
320;482;14252;4946
334;497;14284;4885
330;524;14312;4834
353;547;14330;4770
387;562;14350;4701
404;591;14384;4621
405;643;14391;4561
423;667;14426;4484
400;705;14454;4441
397;712;14489;4402
392;715;14527;4366
407;724;14576;4293
419;748;14611;4222
394;795;14644;4167
402;807;14702;4089
422;813;14765;4000
449;799;14842;3910
417;822;14905;3856
432;814;14971;3783
429;820;15039;3712
409;827;15088;3676
407;829;15155;3609
423;829;15212;3536
409;830;15266;3495
424;827;15299;3450
412;818;15356;3414
365;810;15430;3395
368;790;15478;3364
374;769;15538;3319
361;774;15569;3296
353;802;15593;3252
353;800;15613;3234
356;792;15632;3220
341;778;15674;3207
318;770;15724;3188
312;759;15744;3185
316;750;15758;3176
299;741;15769;3191
319;720;15799;3162
309;712;15819;3160
308;712;15836;3144
286;726;15840;3148
288;728;15878;3106
284;721;15894;3101
291;701;15919;3089
309;663;15948;3080
287;665;15960;3088
311;636;15980;3073
286;629;15996;3089
274;645;15987;3094
270;625;16002;3103
280;614;16018;3088
272;608;16014;3106
281;577;16030;3112
272;566;16044;3118
262;564;16040;3134
269;548;16042;3141
250;552;16040;3158
235;525;16054;3186
237;520;16027;3216
253;507;16014;3226
237;501;16010;3252
217;488;16004;3291
216;488;15983;3313
218;475;15962;3345
240;446;15939;3375
217;459;15912;3412
209;453;15895;3443
215;452;15885;3448
205;446;15876;3473
197;445;15858;3500
198;452;15824;3526
193;459;15784;3564
196;462;15767;3575
183;450;15768;3599
199;442;15740;3619
188;429;15726;3657
192;420;15707;3681
198;411;15673;3718
190;417;15626;3767
207;416;15606;3771
203;403;15599;3795
207;398;15564;3831
208;399;15537;3856
215;413;15494;3878
207;419;15455;3919
216;417;15429;3938
238;407;15412;3943
230;408;15382;3980
232;398;15357;4013
215;410;15336;4039
231;410;15305;4054
220;425;15258;4097
222;442;15217;4119
220;464;15198;4118
239;439;15181;4141
235;454;15142;4169
224;460;15136;4180
235;443;15120;4202
234;449;15110;4207
260;453;15084;4203
277;447;15065;4211
281;454;15039;4226
286;484;15023;4207
275;490;14996;4239
271;497;14998;4234
254;500;14983;4263
262;508;14958;4272
269;499;14954;4278
268;517;14935;4280
291;523;14938;4248
303;528;14937;4232
318;504;14959;4219
311;534;14903;4252
315;551;14884;4250
286;584;14852;4278
313;572;14876;4239
314;584;14875;4227
291;601;14874;4234
294;607;14881;4218
303;595;14883;4219
311;606;14871;4212
328;610;14882;4180
351;630;14867;4152
340;643;14866;4151
335;650;14856;4159
349;654;14864;4133
345;667;14871;4117
347;663;14882;4108
345;684;14905;4066
371;687;14916;4026
390;715;14903;3992
395;713;14910;3982
386;734;14918;3962
369;754;14920;3957
348;756;14947;3949
355;777;14940;3928
377;767;14938;3918
387;788;14958;3867
380;798;14977;3845
398;767;15010;3825
392;781;15036;3791
414;768;15064;3754
407;791;15087;3715
407;792;15127;3674
384;810;15141;3665
400;812;15165;3623
392;826;15177;3605
380;833;15198;3589
381;842;15219;3558
375;838;15245;3542
397;838;15249;3516
382;819;15309;3490
379;811;15337;3473
370;787;15374;3469
373;776;15392;3459
357;777;15425;3441
374;749;15456;3421
345;743;15472;3440
361;720;15507;3412
365;728;15490;3417
360;716;15494;3430
364;716;15478;3442
342;715;15475;3468
336;708;15489;3467
314;716;15508;3462
320;705;15522;3453
330;703;15532;3435
348;715;15533;3404
345;731;15507;3417
347;708;15521;3424
346;715;15522;3417
343;719;15518;3420
329;736;15523;3412
320;736;15533;3411
332;735;15533;3400
325;739;15527;3409
342;723;15520;3415
343;720;15527;3410
356;712;15532;3400
364;714;15537;3385
350;716;15545;3389
350;717;15559;3374
357;706;15572;3365
360;707;15568;3365
348;685;15594;3373
361;680;15587;3372
339;704;15597;3360
341;693;15589;3377
335;689;15584;3392
342;681;15598;3379
342;686;15596;3376
325;691;15589;3395
312;697;15568;3423
304;684;15584;3428
313;676;15572;3439
298;682;15575;3445
300;663;15560;3477
298;644;15572;3486
311;632;15558;3499
309;619;15569;3503
311;631;15545;3513
297;633;15520;3550
324;633;15519;3524
298;647;15498;3557
334;650;15463;3553
323;662;15470;3545
344;660;15464;3532
335;671;15443;3551
363;654;15452;3531
352;639;15466;3543
347;636;15456;3561
323;652;15466;3559
337;678;15441;3544
345;674;15428;3553
322;680;15435;3563
342;670;15410;3578
342;673;15402;3583
327;691;15406;3576
346;662;15424;3568
331;671;15422;3576
313;682;15410;3595
313;678;15430;3579
275;686;15444;3595
295;677;15447;3581
306;659;15446;3589
306;660;15441;3593
321;643;15450;3586
295;658;15452;3595
287;667;15442;3604
292;675;15412;3621
295;667;15393;3645
297;655;15393;3655
292;655;15390;3663
288;635;15398;3679
287;635;15389;3689
295;609;15388;3708
288;620;15370;3722
303;615;15355;3727
313;601;15389;3697
334;592;15380;3694
331;592;15373;3704
318;603;15364;3715
299;621;15343;3737
298;620;15345;3737
281;621;15329;3769
294;606;15330;3770
302;601;15304;3793
281;607;15302;3810
273;592;15295;3840
268;602;15281;3849
287;597;15278;3838
301;590;15265;3844
317;578;15276;3829
317;590;15247;3846
319;595;15235;3851
307;604;15218;3871
310;603;15209;3878
325;607;15204;3864
279;640;15202;3879
301;633;15187;3879
308;623;15195;3874
301;617;15197;3885
306;623;15180;3891
290;631;15175;3904
308;629;15161;3902
294;644;15160;3902
309;638;15167;3886
312;617;15184;3887
320;608;15209;3863
321;617;15197;3865
321;645;15174;3860
325;633;15175;3867
337;639;15159;3865
343;645;15130;3882
320;674;15105;3901
335;660;15104;3901
353;666;15081;3900
361;663;15067;3909
379;648;15073;3900
389;671;15038;3902
381;691;15046;3882
377;696;15061;3866
370;708;15046;3876
385;697;15064;3854
373;726;15057;3844
377;743;15059;3821
375;749;15071;3805
396;732;15081;3791
393;749;15100;3758
387;761;15120;3732
350;797;15132;3721
367;758;15171;3704
371;726;15205;3698
351;752;15206;3691
359;765;15194;3682
371;747;15222;3660
365;757;15240;3638
342;767;15276;3615
353;757;15267;3623
353;753;15262;3632
381;747;15264;3608
380;734;15292;3594
359;731;15316;3594
358;731;15317;3594
367;723;15320;3590
381;725;15335;3559
378;748;15347;3527
368;765;15324;3543
385;747;15324;3544
376;738;15360;3526
382;730;15386;3502
384;715;15413;3488
384;721;15409;3486
377;715;15448;3460
374;712;15439;3475
341;724;15453;3482
342;732;15456;3470
337;711;15485;3467
346;718;15490;3446
355;704;15508;3433
346;713;15492;3449
354;698;15507;3441
328;700;15518;3454
335;690;15525;3450
329;674;15523;3474
323;666;15528;3483
319;666;15494;3521
338;673;15481;3508
314;681;15480;3525
317;682;15468;3533
318;671;15473;3538
321;675;15463;3541
312;660;15465;3563
324;642;15475;3559
318;659;15467;3556
325;656;15465;3554
323;678;15445;3554
331;668;15447;3554
331;694;15420;3555
357;699;15426;3518
319;734;15394;3553
335;728;15379;3558
334;726;15379;3561
321;729;15385;3565
334;718;15381;3567
350;703;15397;3550
365;699;15396;3540
367;697;15401;3535
397;672;15416;3515
361;702;15413;3524
342;722;15410;3526
341;731;15387;3541
307;748;15400;3545
320;719;15414;3547
307;710;15408;3575
326;699;15388;3587
342;691;15390;3577
352;705;15365;3578
351;708;15357;3584
343;701;15375;3581
349;711;15370;3570
348;719;15344;3589
352;728;15353;3567
324;733;15376;3567
318;736;15370;3576
332;743;15364;3561
345;735;15368;3552
325;728;15385;3562
315;712;15381;3592
351;692;15392;3565
354;711;15386;3549
362;713;15395;3530
361;712;15393;3534
377;699;15387;3537
364;699;15404;3533
354;713;15410;3523
346;694;15418;3542
324;716;15402;3558
338;696;15402;3564
341;681;15425;3553
349;657;15437;3557
339;664;15436;3561
343;660;15433;3564
301;664;15445;3590
334;651;15421;3594
337;643;15419;3601
325;665;15419;3591
326;674;15402;3598
322;667;15406;3605
318;686;15392;3604
301;688;15392;3619
284;680;15400;3636
306;670;15388;3636
326;677;15368;3629
331;681;15362;3626
320;693;15375;3612
342;681;15356;3621
360;656;15340;3644
350;668;15339;3643
355;688;15333;3624
356;712;15309;3623
358;720;15312;3610
332;732;15330;3606
342;741;15329;3588
340;749;15331;3580
350;750;15324;3576
347;737;15335;3581
347;728;15353;3572
348;747;15341;3564
345;759;15316;3580
374;736;15341;3549
358;712;15353;3577
353;703;15355;3589
361;689;15358;3592
339;702;15367;3592
333;689;15398;3580
332;695;15404;3569
335;691;15391;3583
334;706;15376;3584
331;691;15362;3616
309;696;15361;3634
317;691;15367;3625
340;668;15364;3628
346;675;15361;3618
330;695;15344;3631
313;694;15347;3646
316;675;15341;3668
311;657;15362;3670
322;661;15343;3674
351;651;15316;3682
316;675;15316;3693
346;666;15322;3666
336;684;15284;3696
346;681;15291;3682
364;686;15278;3672
387;675;15270;3668
388;680;15256;3676
351;684;15271;3694
346;679;15296;3679
357;670;15290;3683
348;666;15288;3698
356;670;15293;3681
342;668;15299;3691
347;674;15288;3691
345;675;15298;3682
321;691;15287;3701
319;684;15289;3708
311;678;15280;3731
341;676;15286;3697
349;678;15287;3686
325;681;15294;3700
336;679;15279;3706
345;690;15256;3709
337;694;15260;3709
361;707;15240;3692
378;715;15254;3653
377;710;15283;3630
363;697;15290;3650
365;696;15285;3654
371;678;15277;3674
374;683;15298;3645
360;668;15305;3667
345;679;15294;3682
317;697;15283;3703
318;689;15297;3696
330;669;15292;3709
306;673;15304;3717
316;665;15316;3703
310;690;15295;3705
320;698;15301;3681
319;698;15294;3689
309;709;15282;3700
318;695;15281;3706
332;689;15265;3714
334;694;15253;3719
354;693;15241;3712
348;710;15217;3725
332;732;15211;3725
356;706;15242;3696
342;718;15243;3697
332;716;15252;3700
355;699;15267;3679
346;698;15266;3690
338;716;15249;3697
338;724;15251;3687
346;717;15265;3672
348;713;15274;3665
323;735;15276;3666
362;713;15289;3636
365;721;15281;3633
387;710;15299;3604
371;728;15300;3601
380;732;15301;3587
359;751;15299;3591
362;732;15304;3602
360;748;15303;3589
387;735;15316;3562
387;741;15343;3529
382;747;15351;3520
368;748;15347;3537
354;724;15386;3536
357;732;15369;3542
341;742;15362;3555
359;733;15369;3539
356;727;15375;3542
339;734;15384;3543
354;720;15389;3537
347;729;15379;3545
368;712;15392;3528
365;704;15405;3526
347;712;15398;3543
351;693;15405;3551
364;685;15391;3560
362;674;15402;3562
349;678;15396;3577
353;693;15372;3582
337;703;15348;3612
342;708;15336;3614
345;698;15344;3613
342;688;15353;3617
331;698;15345;3626
338;693;15345;3624
349;702;15350;3599
340;704;15359;3597
309;726;15355;3610
330;714;15346;3610
334;709;15351;3606
355;700;15363;3582
339;709;15363;3589
337;691;15372;3600
332;695;15349;3624
319;678;15365;3638
329;672;15379;3620
327;652;15379;3642
328;644;15387;3641
333;643;15396;3628
310;644;15379;3667
