0;20;0;19980
12;20;0;19968
25;23;1;19951
31;24;7;19938
39;31;8;19922
46;37;13;19904
57;45;18;19880
83;58;23;19836
122;75;31;19772
167;103;39;19691
212;137;46;19605
275;183;64;19478
361;244;80;19315
474;311;111;19104
616;388;160;18836
736;517;215;18532
914;689;270;18127
1162;887;344;17607
1490;1109;473;16928
1845;1366;645;16144
2267;1708;815;15210
2696;2153;1033;14118
3187;2657;1306;12850
3656;3163;1673;11508
4105;3780;2063;10052
4400;4459;2529;8612
4514;5146;3119;7221
4563;5739;3811;5887
4476;6330;4549;4645
4209;6776;5356;3659
3820;7016;6277;2887
3385;7173;7198;2244
2963;7234;8093;1710
2498;7137;9001;1364
2105;6973;9849;1073
1768;6662;10713;857
1423;6283;11600;694
1148;5823;12437;592
933;5337;13210;520
740;4899;13893;468
622;4450;14490;438
487;4045;15035;433
398;3648;15529;425
340;3256;15967;437
293;2945;16322;440
258;2671;16634;437
216;2364;16974;446
182;2083;17264;471
166;1869;17476;489
155;1690;17618;537
146;1495;17790;569
129;1338;17918;615
113;1193;18024;670
110;1047;18140;703
107;933;18201;759
97;834;18255;814
93;730;18327;850
89;653;18351;907
82;584;18386;948
79;515;18405;1001
81;457;18429;1033
76;404;18436;1084
62;375;18418;1145
50;331;18422;1197
51;303;18391;1255
55;272;18374;1299
52;243;18335;1370
46;221;18311;1422
46;205;18263;1486
40;191;18211;1558
38;171;18181;1610
37;156;18143;1664
34;139;18095;1732
33;136;18053;1778
35;131;18001;1833
29;126;17951;1894
33;116;17909;1942
35;112;17865;1988
38;114;17814;2034
33;107;17767;2093
30;106;17713;2151
30;92;17675;2203
27;91;17620;2262
27;79;17583;2311
26;77;17533;2364
24;78;17480;2418
24;78;17439;2459
27;73;17389;2511
29;61;17339;2571
26;64;17307;2603
31;60;17243;2666
27;58;17198;2717
26;56;17141;2777
29;54;17100;2817
26;56;17065;2853
20;62;17007;2911
24;57;16972;2947
32;56;16919;2993
29;51;16866;3054
23;56;16817;3104
24;56;16765;3155
26;56;16711;3207
25;59;16660;3256
17;59;16624;3300
23;56;16579;3342
22;54;16534;3390
19;53;16491;3437
20;54;16453;3473
18;54;16393;3535
22;45;16360;3573
19;47;16312;3622
17;49;16271;3663
19;48;16227;3706
23;40;16203;3734
21;41;16168;3770
20;46;16119;3815
24;45;16071;3860
24;51;16011;3914
27;48;15967;3958
25;55;15941;3979
26;55;15897;4022
28;52;15852;4068
32;55;15816;4097
38;56;15769;4137
39;58;15739;4164
32;66;15694;4208
26;67;15657;4250
32;62;15631;4275
37;58;15595;4310
37;69;15562;4332
36;71;15522;4371
36;76;15485;4403
38;75;15462;4425
38;73;15420;4469
40;79;15382;4499
42;74;15349;4535
43;74;15310;4573
53;86;15268;4593
54;92;15224;4630
55;95;15188;4662
50;97;15161;4692
53;102;15128;4717
63;106;15076;4755
68;112;15031;4789
73;116;14997;4814
65;127;14966;4842
69;132;14934;4865
79;125;14911;4885
83;127;14895;4895
85;137;14864;4914
94;145;14829;4932
103;163;14792;4942
113;180;14769;4938
122;190;14746;4942
115;210;14715;4960
123;213;14690;4974
134;221;14667;4978
134;234;14649;4983
140;239;14638;4983
145;242;14629;4984
150;249;14622;4979
135;280;14604;4981
151;277;14590;4982
171;278;14586;4965
177;280;14581;4962
181;299;14588;4932
186;312;14576;4926
198;331;14568;4903
223;345;14564;4868
206;375;14565;4854
219;384;14582;4815
208;400;14588;4804
192;427;14577;4804
214;420;14583;4783
234;433;14594;4739
229;434;14612;4725
254;442;14612;4692
254;464;14621;4661
274;483;14628;4615
253;510;14627;4610
266;498;14641;4595
286;499;14660;4555
290;499;14669;4542
306;510;14684;4500
280;525;14709;4486
283;520;14729;4468
304;533;14745;4418
301;539;14766;4394
320;543;14793;4344
330;549;14827;4294
341;560;14848;4251
341;572;14876;4211
340;571;14914;4175
335;602;14932;4131
348;633;14947;4072
344;654;14958;4044
329;674;14986;4011
332;692;14992;3984
338;696;15025;3941
350;688;15067;3895
348;708;15089;3855
355;715;15134;3796
336;726;15164;3774
351;730;15200;3719
340;761;15227;3672
330;758;15270;3642
359;725;15310;3606
357;721;15350;3572
335;741;15369;3555
350;731;15392;3527
341;745;15412;3502
359;736;15434;3471
380;736;15456;3428
364;748;15474;3414
354;743;15527;3376
351;720;15564;3365
330;727;15590;3353
345;725;15603;3327
340;730;15620;3310
348;719;15649;3284
321;708;15684;3287
326;728;15695;3251
318;731;15725;3226
320;726;15748;3206
292;751;15749;3208
286;744;15775;3195
282;727;15786;3205
298;699;15816;3187
287;683;15852;3178
289;668;15869;3174
285;657;15860;3198
265;650;15857;3228
261;643;15878;3218
262;637;15888;3213
280;623;15891;3206
280;615;15902;3203
289;596;15913;3202
266;611;15907;3216
257;596;15904;3243
256;601;15889;3254
242;615;15873;3270
264;594;15880;3262
256;608;15857;3279
272;585;15872;3271
274;582;15857;3287
268;583;15851;3298
258;573;15838;3331
253;557;15849;3341
268;548;15830;3354
272;543;15822;3363
259;538;15828;3375
243;552;15793;3412
239;559;15781;3421
253;548;15779;3420
245;535;15760;3460
259;522;15748;3471
252;516;15720;3512
248;534;15690;3528
241;536;15672;3551
241;539;15644;3576
248;528;15617;3607
251;526;15603;3620
239;533;15569;3659
226;526;15561;3687
230;522;15543;3705
225;517;15527;3731
239;515;15496;3750
237;518;15472;3773
240;523;15460;3777
245;527;15440;3788
229;526;15438;3807
254;516;15425;3805
240;526;15406;3828
252;518;15407;3823
254;503;15407;3836
262;492;15379;3867
271;479;15358;3892
280;488;15334;3898
274;518;15285;3923
276;542;15238;3944
277;539;15229;3955
265;540;15233;3962
269;536;15226;3969
276;549;15207;3968
276;559;15194;3971
295;551;15204;3950
290;561;15178;3971
285;551;15166;3998
305;551;15147;3997
312;547;15167;3974
314;553;15140;3993
284;568;15146;4002
282;564;15126;4028
290;567;15089;4054
294;591;15086;4029
277;616;15075;4032
324;599;15055;4022
326;613;15051;4010
319;632;15048;4001
344;632;15033;3991
325;624;15057;3994
311;640;15061;3988
325;631;15064;3980
317;646;15067;3970
330;646;15061;3963
343;635;15071;3951
309;666;15059;3966
318;690;15028;3964
331;683;15026;3960
342;683;15033;3942
342;673;15041;3944
341;683;15042;3934
318;688;15028;3966
359;671;15027;3943
358;700;15030;3912
335;719;15043;3903
352;735;15035;3878
366;739;15049;3846
383;747;15084;3786
381;765;15096;3758
371;779;15117;3733
389;786;15126;3699
418;808;15135;3639
415;816;15155;3614
384;844;15175;3597
383;837;15207;3573
418;824;15222;3536
418;828;15237;3517
433;846;15241;3480
431;841;15268;3460
389;844;15308;3459
386;855;15307;3452
391;847;15314;3448
379;864;15348;3409
391;852;15365;3392
379;840;15407;3374
395;831;15416;3358
397;818;15427;3358
376;809;15448;3367
406;790;15438;3366
401;806;15451;3342
391;807;15459;3343
388;789;15488;3335
376;776;15501;3347
379;770;15519;3332
358;771;15521;3350
351;781;15515;3353
353;784;15493;3370
342;765;15527;3366
329;761;15531;3379
336;755;15526;3383
332;751;15511;3406
335;738;15527;3400
336;719;15525;3420
332;704;15533;3431
332;698;15531;3439
339;658;15554;3449
321;684;15538;3457
309;674;15533;3484
323;661;15531;3485
315;656;15531;3498
316;647;15526;3511
300;664;15536;3500
298;666;15525;3511
315;659;15526;3500
315;664;15501;3520
337;649;15511;3503
314;662;15504;3520
317;659;15505;3519
308;655;15500;3537
291;660;15486;3563
298;649;15493;3560
296;643;15497;3564
288;648;15461;3603
298;631;15468;3603
298;637;15464;3601
289;647;15435;3629
313;627;15435;3625
325;624;15425;3626
298;656;15391;3655
290;653;15393;3664
288;652;15368;3692
317;650;15341;3692
335;639;15336;3690
319;630;15348;3703
297;661;15322;3720
294;666;15323;3717
289;663;15309;3739
262;664;15310;3764
290;651;15282;3777
298;665;15274;3763
308;645;15300;3747
312;620;15294;3774
331;622;15254;3793
297;650;15238;3815
292;648;15236;3824
314;631;15237;3818
321;627;15230;3822
316;634;15231;3819
322;678;15194;3806
321;671;15188;3820
327;669;15199;3805
335;669;15190;3806
338;657;15188;3817
327;655;15194;3824
317;656;15199;3828
318;653;15199;3830
322;651;15178;3849
338;644;15172;3846
353;657;15149;3841
356;649;15148;3847
335;666;15145;3854
336;671;15155;3838
345;676;15164;3815
316;660;15192;3832
328;669;15198;3805
334;672;15198;3796
334;665;15196;3805
312;670;15222;3796
318;674;15221;3787
345;667;15236;3752
359;644;15250;3747
357;646;15236;3761
346;665;15224;3765
339;688;15209;3764
353;693;15208;3746
368;708;15202;3722
350;736;15193;3721
361;725;15188;3726
339;734;15180;3747
327;738;15186;3749
312;738;15207;3743
353;739;15184;3724
376;746;15176;3702
365;756;15196;3683
383;758;15181;3678
416;739;15188;3657
420;750;15179;3651
393;790;15184;3633
393;811;15183;3613
396;801;15197;3606
384;797;15220;3599
382;806;15243;3569
366;831;15239;3564
380;816;15248;3556
362;805;15254;3579
357;793;15261;3589
345;785;15268;3602
352;793;15281;3574
360;765;15273;3602
357;762;15268;3613
370;774;15256;3600
355;792;15261;3592
382;785;15264;3569
360;809;15262;3569
372;796;15286;3546
362;806;15285;3547
349;795;15295;3561
358;798;15300;3544
398;796;15322;3484
419;785;15338;3458
389;795;15353;3463
358;773;15385;3484
351;795;15387;3467
345;787;15406;3462
360;752;15421;3467
365;754;15426;3455
382;737;15428;3453
382;724;15432;3462
352;731;15444;3473
373;735;15444;3448
364;753;15433;3450
360;752;15449;3439
351;753;15474;3422
330;755;15473;3442
330;747;15473;3450
337;744;15480;3439
374;729;15470;3427
341;733;15482;3444
358;730;15488;3424
344;755;15465;3436
317;759;15478;3446
304;752;15483;3461
322;736;15483;3459
326;723;15490;3461
314;723;15480;3483
305;701;15497;3497
288;697;15491;3524
290;692;15475;3543
294;693;15467;3546
333;657;15462;3548
319;668;15459;3554
315;670;15461;3554
305;694;15439;3562
324;672;15417;3587
325;666;15386;3623
335;662;15388;3615
341;670;15374;3615
315;669;15383;3633
317;643;15396;3644
310;648;15392;3650
319;648;15375;3658
314;659;15349;3678
319;664;15323;3694
296;695;15302;3707
317;681;15301;3701
329;688;15288;3695
325;680;15301;3694
315;698;15268;3719
334;705;15262;3699
343;700;15248;3709
330;712;15240;3718
347;707;15248;3698
354;700;15232;3714
364;693;15225;3718
355;706;15235;3704
347;710;15243;3700
361;711;15244;3684
354;708;15236;3702
362;714;15245;3679
345;732;15248;3675
340;740;15267;3653
341;731;15272;3656
347;725;15291;3637
350;733;15300;3617
329;748;15306;3617
347;723;15321;3609
363;724;15311;3602
364;738;15295;3603
346;720;15313;3621
356;704;15322;3618
350;722;15331;3597
344;729;15338;3589
362;744;15340;3554
352;738;15343;3567
343;750;15326;3581
334;733;15348;3585
331;733;15339;3597
367;742;15326;3565
368;747;15304;3581
362;755;15310;3573
355;765;15311;3569
369;754;15311;3566
380;747;15321;3552
372;740;15325;3563
386;738;15335;3541
389;772;15331;3508
368;785;15317;3530
373;780;15309;3538
375;770;15327;3528
373;758;15338;3531
349;769;15320;3562
349;760;15321;3570
345;742;15336;3577
332;755;15317;3596
357;743;15318;3582
362;735;15326;3577
350;740;15326;3584
343;734;15341;3582
329;725;15353;3593
302;717;15352;3629
312;711;15353;3624
312;693;15337;3658
308;698;15306;3688
310;727;15277;3686
316;707;15293;3684
296;707;15291;3706
315;678;15298;3709
330;681;15289;3700
334;669;15276;3721
332;685;15261;3722
336;694;15260;3710
360;692;15243;3705
341;721;15230;3708
341;726;15227;3706
331;751;15230;3688
329;742;15217;3712
338;729;15229;3704
360;730;15199;3711
365;729;15213;3693
346;756;15205;3693
350;748;15215;3687
337;762;15214;3687
351;757;15237;3655
350;749;15230;3671
344;749;15249;3658
366;736;15239;3659
329;753;15233;3685
349;754;15235;3662
360;733;15220;3687
366;759;15191;3684
357;753;15202;3688
346;755;15211;3688
377;747;15208;3668
393;750;15199;3658
375;764;15195;3666
370;750;15212;3668
372;763;15221;3644
383;782;15205;3630
402;778;15236;3584
390;756;15262;3592
370;745;15277;3608
343;749;15292;3616
348;754;15291;3607
324;765;15281;3630
318;778;15265;3639
341;746;15282;3631
344;734;15273;3649
360;727;15268;3645
355;740;15252;3653
351;736;15251;3662
323;771;15251;3655
314;773;15239;3674
342;766;15226;3666
353;740;15234;3673
347;730;15244;3679
357;709;15239;3695
349;723;15225;3703
336;723;15239;3702
347;723;15250;3680
339;718;15250;3693
342;710;15263;3685
342;710;15246;3702
307;728;15248;3717
333;737;15219;3711
344;738;15214;3704
341;732;15251;3676
359;735;15223;3683
346;737;15219;3698
352;766;15194;3688
364;767;15207;3662
377;755;15225;3643
374;759;15213;3654
371;752;15233;3644
380;747;15231;3642
384;762;15221;3633
381;772;15217;3630
365;789;15215;3631
372;784;15233;3611
366;773;15231;3630
371;773;15234;3622
356;765;15263;3616
340;759;15272;3629
351;738;15284;3627
349;729;15291;3631
369;698;15293;3640
349;703;15331;3617
359;709;15327;3605
339;703;15330;3628
351;686;15316;3647
343;689;15297;3671
325;693;15295;3687
321;687;15281;3711
316;674;15277;3733
321;673;15263;3743
307;697;15259;3737
306;674;15271;3749
307;670;15274;3749
323;654;15260;3763
328;672;15233;3767
331;661;15251;3757
356;659;15243;3742
355;685;15230;3730
343;693;15223;3741
336;702;15215;3747
349;716;15205;3730
333;739;15186;3742
343;730;15184;3743
343;734;15193;3730
358;727;15184;3731
372;733;15182;3713
366;725;15207;3702
353;732;15204;3711
365;730;15216;3689
386;724;15216;3674
372;729;15211;3688
370;720;15212;3698
364;741;15208;3687
349;741;15212;3698
367;751;15194;3688
388;733;15202;3677
375;758;15220;3647
380;767;15223;3630
379;771;15240;3610
362;789;15251;3598
369;795;15232;3604
355;799;15227;3619
387;770;15246;3597
373;773;15248;3606
368;777;15239;3616
355;779;15260;3606
350;797;15261;3592
377;798;15258;3567
404;799;15280;3517
380;821;15301;3498
371;797;15329;3503
368;792;15362;3478
346;820;15367;3467
365;818;15368;3449
382;819;15367;3432
387;803;15397;3413
371;802;15420;3407
369;804;15412;3415
332;847;15412;3409
375;806;15432;3387
354;794;15446;3406
368;780;15449;3403
350;780;15470;3400
343;776;15470;3411
347;777;15466;3410
346;761;15462;3431
338;734;15492;3436
310;746;15486;3458
287;743;15499;3471
313;716;15514;3457
338;697;15512;3453
306;707;15488;3499
333;703;15492;3472
322;700;15488;3490
322;680;15485;3513
293;701;15473;3533
315;702;15450;3533
314;696;15457;3533
308;677;15459;3556
296;677;15447;3580
301;635;15468;3596
311;640;15433;3616
306;636;15426;3632
319;630;15386;3665
337;608;15379;3676
