0;20;0;19980
17;20;0;19963
28;23;3;19946
40;23;9;19928
55;30;11;19904
70;38;16;19876
78;49;24;19849
106;63;31;19800
137;77;41;19745
163;113;45;19679
211;139;57;19593
284;185;74;19457
369;239;92;19300
428;334;119;19119
567;416;168;18849
757;531;217;18495
998;660;295;18047
1227;870;380;17523
1565;1118;490;16827
1902;1416;636;16046
2341;1786;812;15061
2808;2234;1042;13916
3330;2708;1352;12610
3745;3283;1701;11271
4099;3896;2154;9851
4398;4560;2666;8376
4615;5195;3267;6923
4625;5833;3917;5625
4494;6402;4649;4455
4142;6867;5487;3504
3771;7114;6403;2712
3323;7244;7337;2096
2825;7264;8283;1628
2409;7055;9260;1276
2005;6800;10167;1028
1670;6429;11077;824
1348;6051;11906;695
1109;5596;12673;622
932;5166;13350;552
787;4696;14019;498
657;4281;14607;455
525;3889;15139;447
429;3497;15633;441
375;3158;16040;427
327;2857;16400;416
268;2566;16754;412
231;2312;17040;417
173;2089;17288;450
133;1832;17563;472
118;1595;17768;519
112;1439;17886;563
100;1285;18017;598
88;1139;18138;635
85;987;18267;661
78;883;18343;696
73;783;18391;753
80;697;18430;793
81;614;18478;827
82;559;18491;868
72;511;18513;904
63;450;18530;957
63;398;18532;1007
55;364;18522;1059
48;331;18505;1116
50;304;18490;1156
54;272;18463;1211
49;249;18442;1260
46;223;18416;1315
36;213;18388;1363
40;190;18356;1414
44;171;18313;1472
36;162;18273;1529
33;144;18240;1583
32;125;18202;1641
27;112;18159;1702
27;106;18110;1757
18;98;18060;1824
13;93;18019;1875
16;83;17969;1932
19;73;17921;1987
19;66;17883;2032
17;58;17844;2081
17;53;17797;2133
18;46;17741;2195
12;49;17703;2236
12;46;17652;2290
13;47;17608;2332
14;50;17549;2387
15;48;17496;2441
12;45;17440;2503
19;42;17391;2548
17;37;17337;2609
18;36;17279;2667
22;26;17243;2709
22;29;17181;2768
18;32;17130;2820
18;31;17083;2868
14;37;17032;2917
10;39;16996;2955
9;40;16943;3008
16;40;16890;3054
15;33;16842;3110
17;33;16783;3167
16;32;16726;3226
13;31;16697;3259
13;32;16645;3310
9;35;16611;3345
10;31;16562;3397
10;27;16516;3447
12;29;16472;3487
14;30;16438;3518
12;26;16393;3569
14;24;16351;3611
9;26;16298;3667
11;27;16249;3713
8;26;16208;3758
5;25;16166;3804
6;19;16118;3857
5;17;16079;3899
6;19;16031;3944
7;15;15991;3987
7;14;15949;4030
11;14;15907;4068
7;17;15875;4101
8;17;15837;4138
5;18;15802;4175
8;16;15762;4214
8;14;15717;4261
11;8;15678;4303
6;13;15634;4347
6;12;15598;4384
7;14;15547;4432
9;14;15506;4471
8;11;15475;4506
9;10;15437;4544
12;10;15389;4589
13;11;15331;4645
15;13;15281;4691
14;17;15234;4735
17;15;15205;4763
17;16;15158;4809
20;18;15127;4835
21;23;15081;4875
18;26;15046;4910
18;28;15003;4951
18;26;14959;4997
10;36;14906;5048
15;34;14863;5088
15;32;14835;5118
14;32;14807;5147
11;27;14776;5186
9;27;14749;5215
8;26;14694;5272
12;25;14658;5305
13;25;14619;5343
11;26;14589;5374
8;26;14547;5419
15;22;14497;5466
12;25;14460;5503
13;26;14432;5529
17;25;14387;5571
12;32;14359;5597
16;30;14316;5638
16;34;14271;5679
19;36;14229;5716
20;33;14189;5758
20;35;14155;5790
18;33;14126;5823
21;31;14094;5854
24;34;14061;5881
22;39;14018;5921
31;37;13978;5954
31;36;13944;5989
28;38;13909;6025
30;45;13870;6055
31;49;13834;6086
35;50;13803;6112
38;57;13761;6144
37;57;13723;6183
40;63;13699;6198
43;69;13662;6226
46;77;13632;6245
50;80;13608;6262
48;92;13579;6281
53;99;13549;6299
72;93;13533;6302
88;93;13502;6317
87;108;13483;6322
91;116;13454;6339
85;136;13419;6360
102;138;13396;6364
106;145;13374;6375
111;150;13357;6382
114;158;13354;6374
120;163;13347;6370
145;162;13330;6363
135;174;13312;6379
139;182;13300;6379
153;195;13275;6377
148;209;13253;6390
167;210;13246;6377
175;232;13230;6363
185;253;13216;6346
188;279;13206;6327
201;287;13208;6304
204;320;13192;6284
219;318;13196;6267
240;340;13195;6225
275;359;13198;6168
264;387;13228;6121
293;420;13224;6063
311;456;13233;6000
327;483;13257;5933
348;505;13297;5850
390;550;13305;5755
414;578;13346;5662
442;624;13387;5547
461;662;13428;5449
484;681;13477;5358
480;749;13526;5245
488;798;13585;5129
520;826;13646;5008
542;867;13724;4867
536;915;13803;4746
578;954;13873;4595
560;988;13981;4471
573;1008;14080;4339
574;1046;14165;4215
568;1057;14284;4091
585;1086;14357;3972
566;1147;14440;3847
529;1183;14526;3762
561;1161;14630;3648
591;1148;14735;3526
617;1133;14856;3394
561;1161;14966;3312
542;1161;15081;3216
533;1174;15152;3141
491;1171;15256;3082
498;1131;15375;2996
457;1122;15462;2959
450;1107;15553;2890
449;1097;15631;2823
448;1103;15691;2758
448;1090;15769;2693
412;1105;15844;2639
403;1049;15943;2605
407;1006;16021;2566
386;979;16085;2550
357;961;16171;2511
345;922;16236;2497
331;868;16299;2502
295;846;16351;2508
281;811;16394;2514
280;774;16428;2518
270;729;16489;2512
270;695;16499;2536
256;676;16526;2542
270;641;16537;2552
262;636;16556;2546
222;631;16586;2561
223;600;16590;2587
224;589;16589;2598
232;551;16587;2630
217;551;16582;2650
208;547;16573;2672
199;539;16570;2692
209;514;16583;2694
200;518;16560;2722
196;500;16552;2752
200;465;16559;2776
200;452;16553;2795
183;454;16507;2856
187;442;16492;2879
181;428;16480;2911
170;413;16454;2963
168;423;16404;3005
182;406;16401;3011
178;403;16373;3046
160;408;16347;3085
173;383;16314;3130
161;374;16291;3174
178;352;16268;3202
174;355;16238;3233
170;359;16184;3287
168;351;16141;3340
163;342;16116;3379
161;331;16072;3436
169;325;16020;3486
174;327;15981;3518
159;326;15937;3578
161;339;15886;3614
162;332;15849;3657
162;340;15796;3702
152;328;15758;3762
157;318;15724;3801
170;306;15701;3823
153;314;15670;3863
163;327;15602;3908
156;327;15580;3937
164;331;15525;3980
190;329;15479;4002
182;348;15442;4028
168;359;15403;4070
178;367;15362;4093
188;362;15330;4120
187;367;15299;4147
191;367;15272;4170
187;387;15222;4204
204;395;15193;4208
233;399;15166;4202
230;393;15154;4223
226;403;15113;4258
239;429;15071;4261
246;452;15052;4250
243;461;15035;4261
236;476;15031;4257
240;480;15014;4266
247;480;15003;4270
258;490;14990;4262
269;491;14977;4263
278;503;14958;4261
277;509;14952;4262
277;536;14936;4251
302;545;14899;4254
314;536;14891;4259
328;545;14870;4257
317;568;14856;4259
295;621;14820;4264
288;598;14849;4265
311;615;14835;4239
324;611;14834;4231
337;625;14825;4213
355;635;14807;4203
337;667;14804;4192
331;688;14800;4181
350;665;14825;4160
360;667;14835;4138
360;673;14841;4126
371;692;14831;4106
387;702;14850;4061
400;703;14872;4025
411;704;14881;4004
404;743;14872;3981
400;749;14882;3969
378;770;14893;3959
372;780;14898;3950
375;797;14905;3923
402;816;14930;3852
400;824;14933;3843
401;820;14968;3811
397;820;14980;3803
386;830;14997;3787
367;831;15055;3747
372;832;15086;3710
404;812;15101;3683
413;807;15137;3643
403;820;15137;3640
395;835;15142;3628
392;846;15142;3620
413;845;15164;3578
427;848;15171;3554
428;863;15188;3521
423;864;15210;3503
394;895;15222;3489
411;873;15262;3454
401;867;15298;3434
394;871;15313;3422
408;855;15328;3409
406;851;15350;3393
406;857;15369;3368
399;843;15393;3365
383;847;15429;3341
390;831;15437;3342
370;852;15455;3323
366;821;15500;3313
365;808;15506;3321
351;823;15502;3324
340;805;15537;3318
338;804;15547;3311
333;796;15565;3306
329;784;15584;3303
332;779;15599;3290
331;776;15596;3297
309;790;15590;3311
344;750;15594;3312
343;758;15579;3320
355;743;15558;3344
352;731;15550;3367
369;711;15565;3355
331;751;15556;3362
351;720;15572;3357
370;690;15587;3353
354;714;15580;3352
374;721;15565;3340
362;741;15546;3351
359;761;15520;3360
359;758;15527;3356
343;776;15530;3351
351;760;15526;3363
356;731;15559;3354
362;709;15566;3363
357;716;15533;3394
358;716;15512;3414
361;727;15513;3399
357;733;15486;3424
347;746;15452;3455
350;751;15463;3436
349;749;15478;3424
340;737;15469;3454
347;749;15462;3442
376;727;15479;3418
360;738;15483;3419
339;762;15472;3427
322;774;15465;3439
319;748;15496;3437
323;731;15492;3454
325;729;15474;3472
330;711;15499;3460
355;706;15469;3470
358;716;15449;3477
366;720;15459;3455
371;730;15446;3453
352;762;15425;3461
345;770;15436;3449
325;788;15434;3453
340;788;15431;3441
342;775;15452;3431
340;754;15464;3442
352;724;15496;3428
331;715;15515;3439
323;717;15521;3439
329;685;15533;3453
321;689;15536;3454
332;683;15533;3452
322;683;15533;3462
297;694;15521;3488
306;668;15521;3505
316;670;15507;3507
322;676;15513;3489
311;685;15500;3504
313;661;15516;3510
304;656;15536;3504
316;659;15524;3501
308;659;15527;3506
306;645;15541;3508
312;636;15514;3538
310;635;15518;3537
312;620;15515;3553
299;620;15518;3563
315;607;15509;3569
312;613;15507;3568
304;622;15519;3555
306;626;15491;3577
289;635;15462;3614
310;625;15459;3606
309;614;15470;3607
299;625;15449;3627
289;649;15431;3631
289;659;15403;3649
280;670;15395;3655
294;649;15383;3674
297;641;15392;3670
292;631;15400;3677
299;629;15387;3685
275;649;15382;3694
283;638;15381;3698
297;629;15380;3694
283;638;15365;3714
286;628;15370;3716
290;634;15366;3710
307;608;15375;3710
290;623;15355;3732
298;594;15359;3749
279;602;15390;3729
290;609;15394;3707
282;620;15384;3714
266;618;15387;3729
282;602;15387;3729
294;589;15357;3760
298;602;15351;3749
311;582;15344;3763
308;587;15311;3794
314;603;15298;3785
316;603;15285;3796
306;615;15282;3797
300;603;15300;3797
314;604;15294;3788
325;586;15314;3775
317;585;15312;3786
334;589;15311;3766
317;580;15329;3774
305;609;15310;3776
290;611;15295;3804
295;617;15292;3796
311;610;15273;3806
326;619;15252;3803
303;637;15226;3834
309;649;15226;3816
320;675;15214;3791
334;673;15222;3771
303;688;15226;3783
304;703;15219;3774
315;705;15207;3773
360;654;15253;3733
345;667;15257;3731
323;680;15268;3729
340;657;15286;3717
333;658;15282;3727
316;673;15279;3732
318;670;15271;3741
333;653;15289;3725
347;665;15292;3696
330;679;15276;3715
331;699;15263;3707
333;704;15286;3677
330;714;15297;3659
319;716;15303;3662
331;705;15323;3641
323;739;15318;3620
319;736;15338;3607
333;718;15335;3614
335;703;15351;3611
336;725;15361;3578
348;697;15380;3575
332;708;15396;3564
327;699;15417;3557
345;675;15436;3544
338;661;15447;3554
316;677;15435;3572
323;659;15440;3578
330;644;15426;3600
322;654;15422;3602
316;660;15423;3601
301;665;15407;3627
294;656;15417;3633
291;650;15436;3623
316;643;15408;3633
307;637;15405;3651
310;614;15414;3662
307;610;15410;3673
285;626;15412;3677
281;632;15409;3678
286;620;15394;3700
280;606;15398;3716
274;606;15387;3733
299;598;15374;3729
290;614;15354;3742
285;616;15342;3757
287;603;15341;3769
294;599;15332;3775
324;591;15326;3759
318;604;15303;3775
313;611;15294;3782
293;614;15292;3801
302;616;15279;3803
313;623;15237;3827
323;628;15241;3808
318;639;15228;3815
322;641;15216;3821
332;642;15217;3809
345;654;15203;3798
354;649;15191;3806
331;650;15210;3809
342;661;15195;3802
349;675;15176;3800
349;680;15171;3800
333;693;15154;3820
352;688;15146;3814
351;704;15139;3806
337;712;15153;3798
335;717;15161;3787
333;722;15177;3768
323;738;15168;3771
326;718;15201;3755
329;707;15206;3758
318;709;15229;3744
309;698;15225;3768
327;697;15193;3783
325;680;15216;3779
289;682;15239;3790
302;676;15236;3786
316;661;15252;3771
328;648;15252;3772
350;649;15228;3773
360;677;15214;3749
326;713;15212;3749
337;720;15207;3736
346;727;15189;3738
359;752;15169;3720
357;747;15196;3700
341;758;15206;3695
347;747;15234;3672
353;744;15226;3677
332;757;15236;3675
332;739;15259;3670
353;730;15254;3663
358;721;15265;3656
358;726;15275;3641
369;732;15275;3624
370;726;15302;3602
372;750;15288;3590
356;750;15273;3621
337;768;15267;3628
331;785;15249;3635
348;747;15278;3627
345;752;15276;3627
340;744;15291;3625
354;737;15282;3627
371;747;15275;3607
386;767;15256;3591
368;795;15266;3571
379;770;15292;3559
420;772;15290;3518
408;772;15292;3528
391;793;15285;3531
375;793;15304;3528
348;803;15315;3534
358;795;15330;3517
357;795;15323;3525
383;778;15332;3507
378;783;15343;3496
372;793;15338;3497
383;779;15339;3499
394;773;15360;3473
366;779;15370;3485
348;771;15387;3494
355;761;15388;3496
356;742;15383;3519
352;751;15378;3519
336;741;15377;3546
347;734;15362;3557
353;750;15334;3563
361;745;15329;3565
336;745;15341;3578
348;744;15341;3567
348;749;15324;3579
354;740;15338;3568
354;742;15337;3567
330;769;15329;3572
345;768;15331;3556
357;751;15357;3535
335;740;15374;3551
341;736;15370;3553
338;736;15364;3562
342;710;15405;3543
357;709;15395;3539
349;710;15399;3542
375;700;15370;3555
349;747;15361;3543
345;747;15364;3544
346;745;15366;3543
344;749;15347;3560
337;735;15372;3556
345;715;15362;3578
334;714;15368;3584
326;707;15366;3601
333;700;15362;3605
345;691;15375;3589
320;717;15382;3581
321;698;15377;3604
307;691;15368;3634
330;683;15374;3613
326;672;15372;3630
326;686;15344;3644
326;684;15340;3650
330;667;15335;3668
342;657;15329;3672
352;654;15341;3653
346;658;15344;3652
348;649;15362;3641
314;658;15377;3651
342;647;15376;3635
340;642;15365;3653
343;669;15331;3657
333;665;15334;3668
323;697;15303;3677
350;689;15287;3674
321;709;15284;3686
301;716;15302;3681
300;699;15303;3698
333;673;15317;3677
342;687;15291;3680
354;669;15278;3699
360;663;15295;3682
348;645;15289;3718
335;660;15273;3732
332;680;15255;3733
348;678;15259;3715
350;693;15237;3720
344;695;15235;3726
358;690;15237;3715
344;684;15223;3749
326;707;15221;3746
346;701;15228;3725
346;707;15237;3710
344;728;15218;3710
342;742;15230;3686
350;748;15233;3669
379;744;15222;3655
399;759;15209;3633
379;801;15191;3629
371;826;15186;3617
377;819;15197;3607
348;822;15205;3625
359;814;15222;3605
359;778;15260;3603
360;765;15283;3592
377;749;15297;3577
386;750;15289;3575
381;773;15279;3567
352;783;15309;3556
364;784;15304;3548
383;756;15334;3527
397;716;15341;3546
381;721;15378;3520
364;728;15391;3517
344;726;15377;3553
340;743;15365;3552
344;728;15384;3544
347;719;15362;3572
340;728;15377;3555
334;720;15390;3556
339;697;15426;3538
344;682;15448;3526
305;701;15431;3563
302;694;15450;3554
294;687;15462;3557
300;674;15477;3549
305;682;15475;3538
