0;20;0;19980
19;20;0;19961
31;29;1;19939
53;32;6;19909
66;43;8;19883
89;60;13;19838
118;71;26;19785
142;103;34;19721
173;134;45;19648
236;163;64;19537
328;214;86;19372
454;279;106;19161
597;379;141;18883
764;496;192;18548
915;623;290;18172
1137;790;363;17710
1452;982;482;17084
1763;1244;616;16377
2119;1567;797;15517
2584;2019;990;14407
3015;2486;1237;13262
3512;2980;1545;11963
3967;3596;1952;10485
4265;4237;2447;9051
4588;4855;2977;7580
4668;5506;3603;6223
4573;6045;4370;5012
4354;6555;5138;3953
3957;6976;5974;3093
3561;7199;6853;2387
3110;7250;7788;1852
2682;7170;8740;1408
2263;6911;9707;1119
1867;6551;10654;928
1536;6216;11505;743
1230;5827;12317;626
1009;5356;13084;551
839;4854;13826;481
688;4399;14456;457
549;4035;14992;424
443;3632;15503;422
383;3279;15912;426
314;2949;16293;444
277;2643;16643;437
234;2374;16943;449
201;2139;17189;471
190;1907;17415;488
177;1679;17636;508
153;1497;17814;536
136;1341;17959;564
110;1152;18113;625
109;1009;18205;677
96;884;18282;738
104;777;18338;781
99;701;18381;819
79;621;18416;884
77;552;18444;927
66;516;18425;993
68;451;18445;1036
63;389;18446;1102
62;344;18432;1162
60;318;18421;1201
51;295;18401;1253
52;279;18373;1296
48;257;18349;1346
40;224;18340;1396
40;211;18304;1445
37;194;18263;1506
36;169;18236;1559
28;148;18200;1624
30;134;18164;1672
30;119;18141;1710
29;109;18088;1774
32;103;18053;1812
29;96;18004;1871
31;84;17966;1919
24;82;17934;1960
21;83;17882;2014
25;74;17811;2090
23;64;17776;2137
17;65;17732;2186
20;64;17678;2238
18;64;17629;2289
22;57;17566;2355
24;51;17510;2415
21;49;17477;2453
18;46;17432;2504
20;42;17382;2556
22;35;17345;2598
18;39;17295;2648
17;40;17238;2705
15;36;17188;2761
13;37;17139;2811
8;38;17090;2864
10;32;17058;2900
13;26;17010;2951
11;28;16959;3002
12;30;16921;3037
7;33;16868;3092
6;30;16817;3147
12;25;16765;3198
14;26;16721;3239
13;30;16665;3292
14;32;16608;3346
13;30;16560;3397
16;27;16503;3454
16;26;16460;3498
14;24;16408;3554
17;25;16361;3597
15;27;16322;3636
15;29;16275;3681
15;26;16242;3717
14;27;16211;3748
13;26;16174;3787
10;26;16129;3835
11;27;16093;3869
11;28;16031;3930
12;27;16000;3961
13;29;15965;3993
13;30;15918;4039
17;27;15871;4085
16;29;15829;4126
20;29;15784;4167
24;33;15739;4204
23;39;15689;4249
20;40;15645;4295
25;36;15600;4339
26;38;15561;4375
26;39;15519;4416
24;41;15475;4460
24;41;15446;4489
30;38;15411;4521
32;40;15369;4559
33;43;15329;4595
35;40;15295;4630
29;50;15258;4663
36;50;15221;4693
43;53;15181;4723
42;57;15146;4755
36;68;15104;4792
38;76;15070;4816
32;84;15031;4853
35;76;14990;4899
43;73;14966;4918
46;77;14925;4952
48;77;14889;4986
51;78;14848;5023
49;78;14827;5046
45;91;14798;5066
46;94;14762;5098
42;104;14733;5121
51;107;14693;5149
59;101;14674;5166
48;108;14658;5186
48;113;14631;5208
61;106;14608;5225
61;105;14587;5247
59;116;14535;5290
55;121;14503;5321
65;121;14474;5340
61;125;14440;5374
68;130;14415;5387
66;127;14395;5412
79;119;14363;5439
73;124;14339;5464
83;128;14297;5492
86;131;14274;5509
87;130;14256;5527
85;142;14228;5545
86;149;14211;5554
86;155;14187;5572
88;166;14160;5586
96;158;14145;5601
108;162;14122;5608
120;171;14096;5613
108;190;14080;5622
123;189;14057;5631
138;203;14039;5620
155;215;14016;5614
156;227;14003;5614
170;246;13971;5613
191;249;13961;5599
196;254;13966;5584
203;272;13957;5568
200;284;13959;5557
208;295;13962;5535
204;330;13953;5513
218;335;13967;5480
215;358;13965;5462
229;380;13975;5416
262;384;13985;5369
287;406;13994;5313
296;416;14023;5265
282;458;14027;5233
282;465;14039;5214
297;502;14050;5151
314;528;14054;5104
328;557;14060;5055
355;558;14096;4991
364;561;14136;4939
361;603;14156;4880
382;625;14189;4804
398;661;14219;4722
429;661;14255;4655
445;669;14303;4583
436;709;14339;4516
423;745;14376;4456
442;747;14427;4384
454;760;14485;4301
445;793;14528;4234
436;813;14593;4158
443;816;14644;4097
431;842;14692;4035
445;833;14748;3974
456;839;14794;3911
452;835;14870;3843
455;843;14925;3777
425;878;14967;3730
428;887;15022;3663
398;879;15068;3655
407;853;15130;3610
421;854;15187;3538
381;881;15225;3513
377;879;15252;3492
372;844;15326;3458
389;853;15364;3394
378;842;15409;3371
392;820;15458;3330
393;807;15495;3305
353;832;15547;3268
345;793;15612;3250
342;784;15653;3221
339;792;15668;3201
339;777;15706;3178
338;751;15757;3154
334;760;15777;3129
338;745;15818;3099
349;736;15836;3079
359;731;15873;3037
322;721;15911;3046
304;734;15938;3024
285;703;15988;3024
291;664;16027;3018
296;641;16052;3011
297;638;16066;2999
281;634;16077;3008
269;649;16068;3014
268;616;16091;3025
262;620;16082;3036
244;618;16100;3038
260;587;16111;3042
254;568;16113;3065
250;585;16089;3076
242;585;16083;3090
252;574;16072;3102
250;569;16037;3144
253;570;16019;3158
249;565;16005;3181
255;552;16006;3187
237;563;15990;3210
243;559;15976;3222
243;540;15979;3238
243;518;15970;3269
240;506;15967;3287
244;496;15961;3299
234;495;15941;3330
224;478;15944;3354
234;482;15909;3375
227;492;15872;3409
209;502;15866;3423
216;500;15845;3439
211;497;15821;3471
237;477;15821;3465
240;476;15807;3477
227;488;15768;3517
218;478;15744;3560
223;476;15728;3573
213;472;15713;3602
226;462;15701;3611
221;455;15695;3629
221;462;15669;3648
206;485;15629;3680
227;483;15601;3689
238;485;15591;3686
240;501;15554;3705
251;493;15550;3706
239;501;15537;3723
238;504;15506;3752
246;512;15472;3770
241;516;15449;3794
252;532;15420;3796
262;528;15400;3810
263;523;15400;3814
256;515;15400;3829
262;508;15376;3854
275;506;15346;3873
272;513;15322;3893
244;530;15307;3919
270;525;15290;3915
290;508;15292;3910
271;525;15269;3935
287;521;15243;3949
293;531;15238;3938
272;558;15223;3947
269;579;15210;3942
297;559;15205;3939
293;565;15187;3955
299;559;15184;3958
304;568;15167;3961
287;574;15159;3980
292;570;15149;3989
290;585;15131;3994
308;584;15121;3987
299;580;15120;4001
324;579;15101;3996
318;593;15094;3995
321;602;15092;3985
313;610;15083;3994
322;630;15056;3992
301;651;15036;4012
325;646;15034;3995
343;638;15036;3983
356;657;15014;3973
353;660;15009;3978
352;653;15010;3985
348;669;15019;3964
350;675;15024;3951
350;671;15031;3948
362;693;15007;3938
361;703;15031;3905
361;699;15057;3883
322;740;15056;3882
329;727;15084;3860
326;732;15083;3859
323;732;15095;3850
323;718;15131;3828
331;723;15123;3823
362;733;15108;3797
361;732;15093;3814
344;759;15098;3799
353;758;15092;3797
386;735;15110;3769
377;731;15122;3770
349;741;15127;3783
361;722;15136;3781
361;724;15126;3789
368;722;15134;3776
361;740;15134;3765
371;737;15130;3762
385;739;15138;3738
380;757;15165;3698
387;783;15178;3652
365;806;15188;3641
391;780;15183;3646
394;788;15187;3631
392;786;15189;3633
382;788;15206;3624
383;774;15213;3630
409;746;15207;3638
424;756;15208;3612
414;782;15204;3600
397;782;15231;3590
419;772;15259;3550
416;786;15282;3516
415;766;15326;3493
401;762;15358;3479
365;789;15371;3475
362;798;15368;3472
352;780;15398;3470
374;773;15411;3442
379;763;15441;3417
358;764;15460;3418
351;773;15463;3413
361;756;15474;3409
340;762;15473;3425
340;758;15479;3423
346;727;15507;3420
335;725;15500;3440
333;706;15521;3440
327;701;15516;3456
321;716;15500;3463
315;700;15522;3463
317;689;15514;3480
322;675;15519;3484
307;676;15522;3495
301;689;15515;3495
312;689;15496;3503
307;691;15495;3507
324;670;15496;3510
305;669;15485;3541
304;672;15472;3552
310;679;15452;3559
314;690;15439;3557
311;672;15450;3567
299;665;15448;3588
314;671;15421;3594
323;671;15409;3597
328;661;15384;3627
338;655;15401;3606
332;640;15394;3634
328;666;15368;3638
334;656;15368;3642
326;662;15355;3657
322;663;15378;3637
341;659;15373;3627
316;666;15387;3631
318;665;15375;3642
337;661;15361;3641
333;663;15386;3618
305;675;15404;3616
312;661;15416;3611
317;655;15418;3610
316;673;15407;3604
316;662;15404;3618
315;665;15402;3618
296;677;15387;3640
301;684;15377;3638
315;685;15364;3636
315;683;15366;3636
326;673;15345;3656
317;689;15336;3658
323;687;15337;3653
334;681;15345;3640
322;694;15346;3638
331;669;15343;3657
328;660;15363;3649
324;651;15356;3669
338;627;15359;3676
332;636;15353;3679
359;627;15355;3659
348;623;15383;3646
345;641;15368;3646
332;643;15367;3658
329;642;15353;3676
308;634;15382;3676
319;638;15383;3660
297;643;15383;3677
293;629;15385;3693
288;614;15370;3728
304;613;15341;3742
301;600;15330;3769
308;586;15332;3774
300;595;15306;3799
315;600;15278;3807
318;586;15291;3805
328;603;15264;3805
323;630;15240;3807
322;627;15242;3809
321;630;15243;3806
310;640;15243;3807
308;630;15264;3798
320;629;15253;3798
323;642;15239;3796
337;654;15233;3776
335;651;15231;3783
347;666;15215;3772
332;664;15236;3768
315;671;15223;3791
320;672;15218;3790
306;682;15200;3812
314;680;15200;3806
314;687;15211;3788
354;685;15208;3753
350;697;15215;3738
349;692;15234;3725
364;686;15243;3707
366;698;15225;3711
363;711;15184;3742
369;708;15177;3746
381;707;15188;3724
375;704;15200;3721
370;701;15206;3723
364;725;15192;3719
367;724;15196;3713
351;738;15193;3718
326;741;15206;3727
338;741;15214;3707
379;731;15208;3682
365;750;15229;3656
353;779;15212;3656
367;754;15218;3661
352;753;15221;3674
361;737;15241;3661
362;715;15264;3659
374;716;15280;3630
362;746;15269;3623
377;745;15267;3611
379;751;15273;3597
373;757;15275;3595
374;761;15275;3590
370;767;15286;3577
377;746;15311;3566
353;778;15304;3565
347;771;15302;3580
347;774;15301;3578
342;772;15322;3564
356;773;15328;3543
361;774;15326;3539
349;786;15349;3516
351;770;15368;3511
357;761;15379;3503
368;733;15368;3531
379;730;15372;3519
376;729;15393;3502
358;757;15396;3489
354;776;15406;3464
354;782;15430;3434
362;784;15449;3405
366;766;15456;3412
366;740;15486;3408
383;740;15487;3390
346;752;15502;3400
346;751;15512;3391
350;749;15527;3374
337;762;15530;3371
321;755;15556;3368
307;763;15545;3385
302;738;15567;3393
320;702;15595;3383
327;703;15569;3401
315;667;15595;3423
300;678;15571;3451
298;663;15586;3453
299;666;15582;3453
316;663;15572;3449
298;674;15565;3463
295;670;15560;3475
281;667;15560;3492
313;656;15550;3481
332;630;15543;3495
335;636;15530;3499
316;655;15506;3523
297;672;15487;3544
298;654;15508;3540
311;644;15499;3546
305;645;15503;3547
325;645;15487;3543
330;638;15468;3564
327;643;15462;3568
333;645;15436;3586
327;645;15430;3598
306;660;15428;3606
300;655;15417;3628
334;613;15442;3611
322;649;15409;3620
327;670;15394;3609
320;679;15379;3622
308;691;15369;3632
342;680;15359;3619
337;703;15337;3623
348;681;15353;3618
355;684;15346;3615
347;691;15322;3640
334;693;15324;3649
354;693;15332;3621
343;700;15328;3629
343;705;15328;3624
342;715;15324;3619
347;730;15293;3630
346;749;15293;3612
377;733;15297;3593
390;719;15309;3582
368;726;15332;3574
366;740;15319;3575
353;731;15338;3578
359;740;15327;3574
353;749;15328;3570
370;725;15342;3563
358;717;15351;3574
334;712;15349;3605
327;723;15336;3614
361;731;15325;3583
349;726;15331;3594
340;734;15336;3590
337;735;15342;3586
335;712;15381;3572
332;702;15385;3581
321;689;15397;3593
340;672;15376;3612
323;683;15362;3632
301;666;15401;3632
312;674;15369;3645
319;676;15351;3654
324;696;15346;3634
351;675;15344;3630
339;661;15362;3638
321;670;15339;3670
319;665;15349;3667
308;654;15362;3676
334;645;15329;3692
331;651;15310;3708
323;662;15290;3725
320;643;15311;3726
325;632;15291;3752
326;646;15282;3746
328;660;15270;3742
324;661;15258;3757
336;676;15228;3760
368;675;15201;3756
335;699;15183;3783
341;700;15182;3777
355;685;15183;3777
321;717;15173;3789
322;717;15164;3797
314;698;15191;3797
323;679;15199;3799
325;663;15178;3834
310;663;15189;3838
303;663;15169;3865
297;677;15156;3870
321;667;15147;3865
326;668;15119;3887
339;658;15111;3892
327;664;15089;3920
331;649;15103;3917
355;654;15078;3913
339;705;15053;3903
375;685;15064;3876
343;712;15057;3888
339;730;15052;3879
339;747;15049;3865
372;737;15033;3858
375;755;15049;3821
375;772;15049;3804
384;759;15068;3789
363;782;15092;3763
380;778;15076;3766
377;785;15102;3736
374;805;15113;3708
377;798;15116;3709
395;813;15118;3674
429;821;15107;3643
412;825;15132;3631
408;828;15149;3615
394;816;15173;3617
409;826;15165;3600
395;843;15175;3587
394;847;15185;3574
384;851;15205;3560
409;840;15230;3521
419;837;15242;3502
403;861;15239;3497
394;857;15255;3494
393;866;15261;3480
403;829;15306;3462
406;829;15334;3431
416;817;15330;3437
429;773;15364;3434
419;789;15355;3437
385;820;15353;3442
375;820;15357;3448
376;822;15361;3441
375;802;15375;3448
400;761;15390;3449
381;767;15404;3448
354;790;15402;3454
361;784;15403;3452
340;779;15421;3460
339;764;15423;3474
343;771;15415;3471
334;769;15395;3502
341;768;15377;3514
338;746;15377;3539
339;741;15396;3524
360;736;15386;3518
346;742;15364;3548
339;738;15353;3570
341;736;15342;3581
340;740;15329;3591
340;736;15324;3600
327;743;15351;3579
338;726;15359;3577
314;724;15378;3584
306;715;15413;3566
337;695;15408;3560
333;695;15415;3557
348;689;15410;3553
329;692;15410;3569
317;674;15423;3586
327;666;15390;3617
319;670;15392;3619
306;665;15393;3636
310;645;15396;3649
319;632;15387;3662
313;648;15359;3680
317;635;15367;3681
313;620;15376;3691
312;612;15348;3728
303;607;15342;3748
297;620;15319;3764
318;591;15313;3778
311;614;15298;3777
318;599;15303;3780
296;614;15295;3795
303;613;15281;3803
323;623;15249;3805
334;636;15246;3784
337;644;15233;3786
360;628;15227;3785
334;676;15210;3780
336;668;15209;3787
340;669;15200;3791
340;665;15193;3802
326;653;15196;3825
341;644;15190;3825
333;659;15184;3824
329;660;15170;3841
343;658;15179;3820
343;664;15178;3815
353;667;15184;3796
347;680;15166;3807
322;701;15154;3823
338;683;15161;3818
336;670;15181;3813
333;686;15173;3808
330;700;15159;3811
334;696;15149;3821
341;716;15153;3790
332;725;15163;3780
329;729;15160;3782
334;731;15143;3792
346;696;15164;3794
329;702;15164;3805
342;694;15154;3810
335;712;15142;3811
321;729;15134;3816
335;738;15133;3794
338;742;15140;3780
342;740;15153;3765
366;722;15173;3739
