0;20;0;19980
14;20;0;19966
25;24;1;19950
43;33;2;19922
65;36;8;19891
77;51;14;19858
106;58;24;19812
121;84;33;19762
175;106;45;19674
226;135;58;19581
277;184;70;19469
390;224;106;19280
479;283;139;19099
567;374;184;18875
707;465;244;18584
918;583;322;18177
1172;768;405;17655
1450;987;507;17056
1828;1254;629;16289
2263;1567;797;15373
2607;1984;1015;14394
3120;2407;1294;13179
3439;3013;1601;11947
3868;3566;2009;10557
4220;4215;2432;9133
4452;4804;2995;7749
4595;5424;3626;6355
4554;6008;4338;5100
4366;6482;5133;4019
4023;6835;5999;3143
3586;7087;6901;2426
3182;7096;7873;1849
2733;6989;8843;1435
2279;6827;9745;1149
1868;6552;10646;934
1536;6218;11487;759
1265;5788;12310;637
989;5391;13053;567
820;4911;13766;503
633;4536;14370;461
504;4114;14930;452
411;3765;15401;423
312;3383;15884;421
274;2996;16304;426
233;2659;16670;438
204;2391;16965;440
178;2116;17240;466
166;1910;17445;479
151;1682;17668;499
137;1506;17822;535
140;1352;17967;541
120;1224;18071;585
94;1116;18157;633
86;981;18263;670
78;863;18330;729
86;756;18391;767
85;674;18439;802
78;604;18466;852
78;541;18481;900
74;497;18478;951
80;438;18498;984
63;408;18483;1046
67;359;18486;1088
61;317;18482;1140
56;282;18478;1184
52;251;18465;1232
43;231;18444;1282
42;208;18430;1320
44;182;18401;1373
41;163;18379;1417
40;147;18328;1485
39;135;18287;1539
37;132;18235;1596
32;123;18201;1644
31;116;18155;1698
27;105;18104;1764
28;85;18080;1807
27;80;18040;1853
25;70;18004;1901
16;72;17949;1963
18;71;17888;2023
15;71;17851;2063
16;63;17818;2103
23;57;17772;2148
26;54;17714;2206
24;49;17678;2249
17;50;17621;2312
16;44;17563;2377
12;47;17499;2442
11;49;17446;2494
14;40;17398;2548
12;34;17350;2604
11;33;17299;2657
11;33;17253;2703
11;32;17216;2741
14;32;17165;2789
14;31;17114;2841
12;30;17068;2890
10;31;17020;2939
15;29;16972;2984
15;27;16933;3025
9;30;16887;3074
6;27;16855;3112
6;22;16816;3156
7;22;16775;3196
10;23;16723;3244
11;22;16665;3302
9;20;16624;3347
7;21;16582;3390
10;20;16519;3451
11;25;16473;3491
15;22;16421;3542
12;25;16392;3571
15;23;16353;3609
12;29;16315;3644
9;31;16269;3691
10;32;16229;3729
14;30;16201;3755
13;30;16159;3798
12;28;16115;3845
12;28;16075;3885
10;30;16022;3938
13;22;15981;3984
12;20;15933;4035
12;21;15877;4090
14;19;15825;4142
7;23;15792;4178
7;23;15756;4214
6;23;15710;4261
6;21;15662;4311
6;20;15621;4353
4;19;15573;4404
5;19;15533;4443
6;15;15492;4487
8;13;15453;4526
8;17;15406;4569
12;19;15374;4595
12;22;15332;4634
9;24;15306;4661
13;22;15271;4694
14;25;15231;4730
11;29;15186;4774
12;28;15144;4816
17;25;15123;4835
19;29;15085;4867
17;32;15050;4901
18;31;15008;4943
16;34;14963;4987
22;33;14919;5026
23;33;14884;5060
22;37;14843;5098
26;35;14798;5141
25;38;14770;5167
28;40;14732;5200
23;48;14692;5237
30;46;14649;5275
30;51;14619;5300
37;49;14592;5322
38;51;14555;5356
38;62;14522;5378
41;67;14494;5398
45;69;14466;5420
51;73;14441;5435
51;79;14411;5459
52;84;14372;5492
52;89;14339;5520
56;95;14313;5536
69;95;14275;5561
84;99;14237;5580
98;105;14201;5596
96;118;14185;5601
95;125;14164;5616
92;133;14146;5629
104;140;14125;5631
107;144;14119;5630
101;146;14087;5666
100;158;14053;5689
108;166;14030;5696
130;171;14019;5680
143;171;14010;5676
132;194;13993;5681
127;221;13955;5697
129;234;13945;5692
146;231;13949;5674
148;236;13937;5679
165;243;13934;5658
166;253;13920;5661
186;265;13905;5644
197;287;13901;5615
203;294;13905;5598
209;309;13899;5583
224;324;13899;5553
239;337;13902;5522
240;350;13910;5500
253;370;13916;5461
257;389;13919;5435
267;393;13942;5398
270;406;13954;5370
293;431;13964;5312
298;440;13966;5296
299;457;13983;5261
296;475;13998;5231
320;484;13992;5204
345;506;14009;5140
355;539;14033;5073
367;556;14059;5018
359;615;14064;4962
354;636;14099;4911
357;647;14136;4860
393;667;14185;4755
393;698;14224;4685
376;739;14255;4630
398;742;14315;4545
405;748;14378;4469
407;760;14426;4407
419;761;14490;4330
424;770;14537;4269
422;792;14580;4206
426;788;14668;4118
410;801;14726;4063
424;813;14786;3977
400;827;14855;3918
409;820;14915;3856
412;833;14969;3786
424;796;15060;3720
419;782;15111;3688
400;774;15161;3665
414;782;15213;3591
384;793;15262;3561
381;769;15330;3520
381;766;15393;3460
387;763;15440;3410
378;761;15484;3377
360;785;15517;3338
359;761;15563;3317
337;764;15588;3311
318;768;15631;3283
317;759;15667;3257
334;726;15714;3226
335;717;15762;3186
335;710;15780;3175
336;686;15826;3152
304;691;15836;3169
307;666;15861;3166
301;674;15875;3150
282;676;15897;3145
291;665;15899;3145
297;673;15925;3105
303;673;15918;3106
303;664;15946;3087
302;651;15976;3071
308;628;15989;3075
296;636;15984;3084
290;615;15991;3104
280;607;16013;3100
284;600;16017;3099
250;608;16032;3110
248;612;16029;3111
252;581;16055;3112
242;578;16061;3119
234;567;16072;3127
247;536;16082;3135
231;540;16057;3172
224;530;16068;3178
223;508;16065;3204
221;510;16042;3227
241;480;16033;3246
238;451;16026;3285
238;459;16003;3300
233;455;15969;3343
212;467;15934;3387
226;449;15916;3409
229;445;15897;3429
218;439;15894;3449
220;444;15878;3458
201;461;15838;3500
195;443;15835;3527
203;424;15820;3553
210;418;15786;3586
231;425;15761;3583
233;416;15745;3606
241;433;15695;3631
233;454;15660;3653
222;470;15634;3674
230;466;15617;3687
220;476;15602;3702
228;470;15568;3734
242;455;15556;3747
246;445;15561;3748
232;449;15550;3769
241;454;15523;3782
238;460;15483;3819
242;443;15466;3849
235;450;15447;3868
250;449;15418;3883
254;456;15397;3893
259;461;15364;3916
246;462;15345;3947
239;478;15308;3975
263;471;15298;3968
256;474;15286;3984
243;482;15255;4020
244;491;15256;4009
241;494;15225;4040
242;495;15212;4051
242;480;15213;4065
257;467;15198;4078
248;475;15198;4079
252;470;15183;4095
253;461;15185;4101
251;473;15146;4130
232;470;15150;4148
246;465;15139;4150
231;472;15116;4181
241;464;15101;4194
249;462;15078;4211
250;459;15074;4217
262;460;15059;4219
279;457;15051;4213
295;462;15022;4221
283;468;15015;4234
277;471;15008;4244
281;475;14993;4251
270;519;14970;4241
275;530;14965;4230
275;534;14958;4233
284;545;14946;4225
296;555;14932;4217
279;574;14907;4240
286;573;14913;4228
316;562;14903;4219
331;563;14913;4193
339;581;14898;4182
334;587;14895;4184
334;595;14886;4185
325;613;14894;4168
318;607;14885;4190
336;615;14887;4162
344;601;14900;4155
338;629;14872;4161
343;641;14880;4136
351;649;14868;4132
338;663;14865;4134
360;662;14878;4100
351;669;14897;4083
330;674;14898;4098
339;659;14898;4104
316;678;14903;4103
330;699;14893;4078
361;706;14877;4056
368;724;14884;4024
378;720;14903;3999
394;729;14921;3956
384;735;14931;3950
373;746;14943;3938
376;754;14939;3931
364;764;14950;3922
383;750;14974;3893
395;744;14993;3868
388;757;14987;3868
398;748;15003;3851
371;766;15021;3842
384;767;15045;3804
370;773;15059;3798
373;768;15093;3766
357;774;15115;3754
336;799;15128;3737
357;784;15143;3716
375;737;15210;3678
376;737;15236;3651
352;755;15239;3654
356;748;15261;3635
350;725;15286;3639
337;728;15288;3647
326;725;15308;3641
330;723;15303;3644
335;723;15312;3630
350;693;15328;3629
340;689;15319;3652
339;680;15328;3653
346;693;15312;3649
329;693;15332;3646
341;686;15339;3634
353;693;15326;3628
354;697;15327;3622
353;702;15318;3627
346;716;15330;3608
342;735;15327;3596
364;733;15330;3573
351;732;15354;3563
334;731;15350;3585
341;727;15354;3578
345;724;15347;3584
355;721;15336;3588
358;708;15361;3573
370;702;15373;3555
361;717;15378;3544
376;718;15383;3523
377;696;15406;3521
361;708;15381;3550
351;721;15377;3551
334;734;15398;3534
344;730;15412;3514
346;728;15409;3517
347;712;15417;3524
337;710;15416;3537
350;721;15385;3544
368;730;15371;3531
358;749;15377;3516
333;757;15396;3514
348;762;15402;3488
351;743;15444;3462
347;737;15459;3457
321;739;15474;3466
334;729;15474;3463
327;710;15500;3463
352;676;15504;3468
333;671;15506;3490
347;659;15511;3483
327;673;15511;3489
330;648;15550;3472
331;652;15538;3479
343;626;15566;3465
341;636;15539;3484
314;641;15531;3514
312;640;15522;3526
303;616;15519;3562
324;589;15533;3554
302;589;15535;3574
311;574;15508;3607
289;590;15498;3623
301;601;15485;3613
303;598;15461;3638
310;597;15455;3638
320;601;15434;3645
331;599;15416;3654
341;593;15405;3661
315;599;15405;3681
300;603;15389;3708
297;597;15373;3733
307;568;15377;3748
310;583;15381;3726
292;603;15363;3742
284;622;15334;3760
290;612;15335;3763
292;599;15326;3783
305;594;15319;3782
314;594;15303;3789
314;589;15293;3804
307;599;15291;3803
311;595;15272;3822
305;594;15262;3839
298;609;15231;3862
307;609;15216;3868
312;602;15216;3870
290;646;15194;3870
271;642;15210;3877
297;634;15216;3853
285;646;15214;3855
323;621;15235;3821
325;617;15231;3827
332;631;15220;3817
322;641;15228;3809
316;650;15213;3821
309;655;15202;3834
320;661;15180;3839
333;660;15187;3820
346;666;15193;3795
344;687;15185;3784
329;706;15181;3784
319;702;15195;3784
319;715;15171;3795
335;705;15188;3772
355;703;15180;3762
347;714;15188;3751
364;687;15211;3738
364;669;15228;3739
360;662;15214;3764
363;669;15237;3731
375;664;15231;3730
370;670;15256;3704
364;689;15238;3709
345;706;15228;3721
384;675;15237;3704
346;703;15261;3690
347;732;15256;3665
348;737;15266;3649
354;732;15268;3646
345;737;15273;3645
339;714;15313;3634
350;709;15305;3636
314;710;15329;3647
326;715;15334;3625
335;698;15346;3621
335;698;15330;3637
331;691;15332;3646
330;678;15368;3624
330;677;15378;3615
334;669;15394;3603
331;663;15389;3617
307;666;15381;3646
299;658;15374;3669
317;675;15342;3666
311;698;15325;3666
317;664;15363;3656
321;652;15363;3664
319;679;15350;3652
338;671;15340;3651
346;658;15355;3641
339;672;15348;3641
333;673;15357;3637
327;670;15373;3630
320;680;15378;3622
321;675;15384;3620
317;676;15378;3629
323;663;15398;3616
329;639;15398;3634
311;644;15416;3629
308;651;15417;3624
316;643;15417;3624
318;628;15407;3647
308;611;15417;3664
286;621;15410;3683
296;612;15386;3706
315;608;15380;3697
299;611;15385;3705
292;607;15366;3735
287;612;15361;3740
287;604;15367;3742
302;611;15357;3730
310;595;15358;3737
325;577;15353;3745
336;599;15332;3733
354;596;15328;3722
338;599;15331;3732
327;605;15315;3753
297;630;15307;3766
303;632;15302;3763
303;625;15297;3775
320;631;15292;3757
301;639;15303;3757
330;650;15281;3739
343;661;15267;3729
341;651;15276;3732
341;664;15255;3740
340;668;15260;3732
346;673;15245;3736
361;670;15240;3729
349;686;15236;3729
347;699;15216;3738
339;714;15206;3741
345;712;15193;3750
348;684;15218;3750
347;682;15223;3748
328;689;15219;3764
354;682;15198;3766
370;675;15217;3738
372;680;15226;3722
371;682;15224;3723
380;677;15241;3702
360;679;15249;3712
368;693;15248;3691
371;684;15271;3674
376;693;15247;3684
366;702;15240;3692
376;727;15232;3665
368;725;15237;3670
373;705;15249;3673
358;710;15265;3667
358;713;15261;3668
368;719;15265;3648
370;710;15280;3640
370;707;15297;3626
402;698;15298;3602
398;703;15309;3590
369;714;15285;3632
373;730;15280;3617
365;763;15264;3608
368;749;15286;3597
364;740;15293;3603
362;751;15280;3607
364;750;15289;3597
378;749;15278;3595
377;745;15306;3572
379;753;15320;3548
373;764;15299;3564
375;781;15308;3536
358;792;15333;3517
348;804;15354;3494
345;812;15346;3497
356;783;15392;3469
351;789;15382;3478
364;777;15378;3481
363;774;15376;3487
345;786;15373;3496
366;760;15399;3475
359;764;15405;3472
359;758;15418;3465
347;768;15412;3473
335;764;15428;3473
324;728;15469;3479
338;699;15492;3471
319;680;15510;3491
322;665;15520;3493
321;654;15515;3510
316;678;15486;3520
306;662;15510;3522
330;640;15504;3526
313;647;15481;3559
287;667;15465;3581
303;640;15486;3571
310;617;15508;3565
310;628;15492;3570
300;626;15501;3573
303;623;15521;3553
307;624;15504;3565
331;613;15509;3547
325;608;15500;3567
302;626;15499;3573
310;626;15478;3586
298;625;15479;3598
301;615;15473;3611
306;610;15477;3607
275;614;15468;3643
278;625;15452;3645
303;607;15451;3639
333;589;15433;3645
305;601;15418;3676
313;597;15414;3676
292;617;15385;3706
284;601;15401;3714
288;582;15407;3723
300;568;15399;3733
316;589;15369;3726
309;583;15371;3737
289;586;15347;3778
289;595;15314;3802
278;603;15305;3814
294;621;15273;3812
318;619;15254;3809
301;642;15235;3822
312;650;15238;3800
330;640;15263;3767
334;642;15255;3769
349;634;15276;3741
344;636;15275;3745
325;671;15268;3736
326;664;15269;3741
330;653;15272;3745
356;649;15256;3739
361;650;15249;3740
359;671;15244;3726
356;680;15241;3723
373;688;15235;3704
382;691;15244;3683
377;722;15226;3675
366;727;15234;3673
378;723;15232;3667
385;733;15215;3667
387;749;15206;3658
385;757;15224;3634
431;734;15237;3598
388;775;15247;3590
404;765;15267;3564
371;778;15273;3578
372;769;15305;3554
388;769;15308;3535
376;764;15329;3531
359;778;15346;3517
370;770;15341;3519
374;750;15369;3507
364;743;15370;3523
353;774;15360;3513
348;776;15350;3526
341;773;15377;3509
347;753;15401;3499
329;756;15396;3519
349;715;15417;3519
344;714;15420;3522
355;707;15420;3518
346;709;15431;3514
328;720;15411;3541
329;708;15388;3575
320;697;15382;3601
332;703;15383;3582
335;682;15394;3589
326;674;15400;3600
325;673;15382;3620
322;691;15342;3645
318;677;15353;3652
312;651;15377;3660
306;635;15391;3668
300;641;15372;3687
302;628;15364;3706
305;632;15363;3700
300;635;15324;3741
308;632;15308;3752
311;628;15322;3739
313;634;15293;3760
325;622;15293;3760
331;621;15280;3768
335;636;15261;3768
347;628;15248;3777
315;659;15238;3788
340;679;15236;3745
344;663;15223;3770
377;649;15234;3740
358;653;15227;3762
360;655;15226;3759
369;669;15197;3765
366;694;15183;3757
376;696;15172;3756
387;701;15188;3724
390;703;15180;3727
371;726;15180;3723
374;735;15195;3696
379;743;15174;3704
380;757;15175;3688
372;778;15157;3693
389;781;15161;3669
371;797;15160;3672
366;787;15165;3682
371;780;15177;3672
378;787;15169;3666
347;801;15187;3665
350;776;15214;3660
343;776;15233;3648
345;736;15276;3643
364;717;15291;3628
351;720;15310;3619
