0;20;0;19980
13;20;0;19967
27;23;1;19949
38;24;3;19935
40;34;8;19918
66;43;12;19879
90;53;18;19839
106;82;20;19792
143;103;31;19723
190;132;47;19631
268;159;68;19505
318;226;82;19374
408;297;112;19183
490;362;158;18990
680;457;194;18669
859;571;260;18310
1050;734;332;17884
1295;961;437;17307
1674;1164;568;16594
2042;1476;717;15765
2503;1834;926;14737
2883;2313;1183;13621
3329;2826;1485;12360
3768;3308;1901;11023
4163;3890;2371;9576
4446;4525;2887;8142
4653;5145;3486;6716
4616;5724;4188;5472
4368;6254;4960;4418
3960;6776;5755;3509
3655;6919;6715;2711
3198;7072;7583;2147
2823;7018;8495;1664
2345;6916;9400;1339
1986;6669;10288;1057
1649;6379;11126;846
1364;5982;11946;708
1111;5582;12695;612
926;5168;13370;536
758;4739;14008;495
611;4371;14561;457
489;3996;15080;435
403;3605;15561;431
324;3237;16008;431
281;2854;16433;432
234;2525;16801;440
195;2266;17091;448
165;1999;17368;468
134;1789;17581;496
118;1562;17798;522
101;1400;17939;560
104;1207;18091;598
96;1073;18189;642
71;955;18260;714
86;839;18331;744
88;750;18378;784
76;679;18417;828
79;608;18434;879
69;551;18462;918
65;500;18473;962
63;446;18481;1010
61;398;18473;1068
57;358;18461;1124
55;317;18443;1185
49;292;18424;1235
50;262;18414;1274
48;251;18379;1322
45;226;18348;1381
56;208;18319;1417
51;190;18298;1461
52;172;18266;1510
52;163;18231;1554
43;159;18196;1602
42;139;18176;1643
45;125;18137;1693
42;124;18090;1744
41;117;18046;1796
37;107;17997;1859
32;100;17961;1907
32;95;17913;1960
30;92;17844;2034
22;93;17791;2094
21;87;17734;2158
25;74;17679;2222
28;61;17649;2262
29;62;17601;2308
27;57;17558;2358
23;58;17502;2417
23;54;17453;2470
19;54;17396;2531
17;53;17353;2577
19;47;17301;2633
21;45;17234;2700
19;43;17175;2763
13;40;17129;2818
19;37;17074;2870
16;36;17042;2906
16;34;16993;2957
13;34;16941;3012
14;34;16887;3065
11;34;16831;3124
11;34;16777;3178
12;26;16741;3221
13;23;16691;3273
15;25;16639;3321
9;28;16579;3384
12;24;16541;3423
10;24;16494;3472
9;21;16458;3512
8;19;16411;3562
7;22;16376;3595
8;21;16326;3645
7;21;16280;3692
7;21;16230;3742
6;19;16194;3781
6;19;16139;3836
5;18;16099;3878
8;13;16061;3918
7;13;16024;3956
10;13;15964;4013
7;15;15912;4066
5;13;15864;4118
6;14;15808;4172
7;14;15750;4229
8;13;15715;4264
4;15;15676;4305
7;15;15636;4342
11;13;15593;4383
12;12;15550;4426
7;16;15500;4477
5;17;15464;4514
9;15;15430;4546
9;17;15398;4576
9;19;15362;4610
12;18;15314;4656
10;19;15275;4696
10;21;15237;4732
16;19;15208;4757
17;22;15148;4813
19;21;15105;4855
14;23;15066;4897
15;21;15022;4942
13;24;14977;4986
10;25;14946;5019
16;23;14907;5054
16;22;14878;5084
15;24;14845;5116
13;26;14807;5154
18;25;14768;5189
21;26;14726;5227
17;28;14673;5282
20;31;14645;5304
17;34;14609;5340
13;36;14568;5383
18;34;14529;5419
20;36;14501;5443
24;36;14465;5475
21;41;14422;5516
19;43;14384;5554
23;42;14359;5576
32;41;14315;5612
33;46;14276;5645
35;50;14238;5677
36;51;14203;5710
34;54;14171;5741
36;62;14134;5768
40;69;14092;5799
49;73;14069;5809
50;77;14039;5834
56;79;14017;5848
61;82;13990;5867
67;82;13959;5892
61;92;13929;5918
60;100;13891;5949
65;103;13862;5970
70;107;13829;5994
85;119;13794;6002
85;125;13767;6023
95;123;13759;6023
94;141;13742;6023
110;147;13727;6016
115;151;13712;6022
110;160;13697;6033
113;181;13672;6034
118;182;13665;6035
133;195;13645;6027
150;190;13635;6025
159;202;13609;6030
161;225;13595;6019
163;239;13584;6014
181;255;13569;5995
191;262;13571;5976
192;289;13571;5948
216;305;13563;5916
226;336;13560;5878
246;346;13565;5843
262;371;13576;5791
297;372;13587;5744
287;407;13600;5706
303;423;13628;5646
304;449;13624;5623
309;480;13637;5574
339;514;13649;5498
364;526;13692;5418
388;558;13716;5338
390;574;13755;5281
415;595;13787;5203
421;641;13817;5121
441;669;13863;5027
442;706;13913;4939
467;733;13954;4846
450;784;14003;4763
478;826;14043;4653
495;847;14116;4542
523;881;14170;4426
510;897;14266;4327
503;911;14354;4232
490;965;14405;4140
524;957;14473;4046
515;974;14561;3950
522;986;14625;3867
503;1015;14700;3782
471;1044;14763;3722
469;1026;14867;3638
474;1026;14930;3570
487;1026;15002;3485
470;1036;15070;3424
461;1032;15151;3356
467;1016;15228;3289
469;999;15319;3213
507;975;15397;3121
475;993;15470;3062
434;1012;15536;3018
433;983;15611;2973
434;960;15676;2930
419;967;15735;2879
403;926;15816;2855
358;948;15858;2836
341;920;15937;2802
352;899;15971;2778
328;869;16024;2779
315;832;16093;2760
314;804;16138;2744
306;774;16174;2746
294;752;16225;2729
279;721;16259;2741
260;695;16293;2752
250;662;16308;2780
244;643;16311;2802
241;615;16325;2819
242;599;16342;2817
236;594;16331;2839
223;584;16346;2847
212;569;16349;2870
220;549;16362;2869
211;542;16341;2906
211;551;16328;2910
221;536;16321;2922
229;517;16303;2951
244;511;16281;2964
238;496;16275;2991
218;485;16265;3032
214;461;16278;3047
204;457;16261;3078
220;446;16237;3097
212;440;16217;3131
202;452;16195;3151
195;440;16180;3185
188;449;16136;3227
186;445;16108;3261
188;455;16086;3271
201;435;16061;3303
215;431;16030;3324
203;433;16006;3358
209;423;15981;3387
200;424;15954;3422
196;431;15921;3452
190;424;15902;3484
203;413;15868;3516
190;412;15837;3561
199;401;15816;3584
189;413;15795;3603
197;403;15772;3628
191;409;15726;3674
195;402;15694;3709
199;401;15661;3739
203;407;15636;3754
212;393;15633;3762
198;431;15589;3782
205;444;15549;3802
228;436;15514;3822
236;432;15499;3833
234;420;15503;3843
222;430;15481;3867
223;430;15470;3877
236;432;15442;3890
234;443;15411;3912
232;457;15382;3929
239;461;15349;3951
255;465;15318;3962
256;472;15314;3958
252;475;15313;3960
266;480;15286;3968
249;473;15294;3984
261;464;15274;4001
248;486;15251;4015
268;494;15211;4027
280;507;15177;4036
297;492;15165;4046
282;515;15135;4068
275;529;15107;4089
298;519;15100;4083
301;528;15095;4076
303;548;15076;4073
262;580;15061;4097
261;570;15057;4112
301;574;15037;4088
312;577;15022;4089
325;578;15010;4087
318;590;15002;4090
335;597;14988;4080
314;621;14981;4084
332;611;14982;4075
324;618;14977;4081
316;618;14965;4101
297;635;14962;4106
310;618;14978;4094
329;605;14997;4069
332;622;14985;4061
353;629;14963;4055
370;657;14942;4031
360;675;14945;4020
369;668;14969;3994
382;691;14959;3968
367;706;14978;3949
371;711;14988;3930
398;713;14991;3898
395;725;14999;3881
371;735;15009;3885
376;734;15015;3875
366;758;15012;3864
362;749;15028;3861
379;755;15033;3833
411;749;15032;3808
395;743;15059;3803
393;738;15076;3793
403;733;15086;3778
392;759;15089;3760
401;765;15091;3743
407;789;15091;3713
404;815;15068;3713
408;819;15076;3697
390;834;15082;3694
382;853;15111;3654
396;832;15139;3633
402;838;15168;3592
388;853;15165;3594
410;825;15199;3566
417;832;15218;3533
414;815;15236;3535
414;813;15269;3504
407;814;15294;3485
374;818;15316;3492
367;801;15336;3496
363;805;15341;3491
385;803;15355;3457
381;817;15361;3441
400;803;15381;3416
410;800;15389;3401
399;822;15388;3391
388;838;15399;3375
392;817;15443;3348
377;796;15444;3383
367;787;15453;3393
373;765;15468;3394
373;764;15481;3382
374;754;15488;3384
343;786;15471;3400
356;752;15505;3387
342;743;15528;3387
346;747;15521;3386
336;746;15521;3397
323;738;15546;3393
320;714;15564;3402
322;721;15567;3390
308;721;15573;3398
290;704;15543;3463
289;704;15536;3471
292;692;15507;3509
305;681;15489;3525
312;664;15497;3527
312;644;15482;3562
312;640;15469;3579
303;626;15472;3599
310;633;15465;3592
314;614;15449;3623
331;621;15442;3606
331;618;15438;3613
307;634;15432;3627
304;626;15434;3636
327;609;15435;3629
312;620;15423;3645
322;631;15380;3667
318;636;15375;3671
308;626;15352;3714
295;637;15352;3716
284;633;15328;3755
288;620;15341;3751
305;623;15345;3727
287;621;15326;3766
298;637;15284;3781
296;651;15255;3798
287;651;15242;3820
311;623;15233;3833
316;620;15232;3832
306;602;15259;3833
302;614;15230;3854
297;614;15230;3859
301;630;15187;3882
315;631;15156;3898
321;647;15137;3895
323;632;15154;3891
323;636;15151;3890
335;634;15180;3851
318;656;15187;3839
337;643;15193;3827
334;658;15171;3837
355;659;15156;3830
347;655;15162;3836
342;650;15161;3847
340;659;15158;3843
298;672;15168;3862
293;663;15185;3859
299;663;15189;3849
295;653;15191;3861
291;647;15196;3866
295;654;15181;3870
302;634;15178;3886
307;643;15139;3911
336;628;15139;3897
326;641;15122;3911
338;652;15094;3916
328;650;15113;3909
318;652;15107;3923
352;653;15105;3890
327;676;15098;3899
344;676;15098;3882
353;687;15085;3875
341;692;15088;3879
330;712;15088;3870
326;696;15108;3870
337;708;15081;3874
346;698;15097;3859
346;697;15118;3839
317;701;15121;3861
339;682;15119;3860
325;683;15133;3859
340;686;15129;3845
362;702;15114;3822
389;715;15119;3777
388;702;15150;3760
386;709;15155;3750
393;749;15152;3706
398;757;15151;3694
396;784;15149;3671
405;788;15164;3643
412;788;15214;3586
403;771;15246;3580
400;778;15244;3578
386;773;15271;3570
376;787;15284;3553
398;798;15302;3502
395;796;15320;3489
394;798;15332;3476
380;795;15339;3486
388;775;15352;3485
397;769;15354;3480
402;777;15370;3451
389;785;15400;3426
390;772;15437;3401
344;783;15455;3418
346;752;15495;3407
351;745;15494;3410
355;733;15510;3402
354;741;15498;3407
333;771;15492;3404
316;773;15502;3409
349;778;15481;3392
341;777;15483;3399
355;756;15524;3365
323;778;15530;3369
302;775;15537;3386
290;769;15541;3400
305;740;15567;3388
317;729;15574;3380
318;706;15592;3384
314;706;15611;3369
334;690;15610;3366
318;708;15610;3364
306;702;15631;3361
304;695;15641;3360
293;707;15611;3389
299;682;15622;3397
296;680;15616;3408
308;684;15596;3412
302;669;15588;3441
303;659;15596;3442
278;659;15601;3462
303;641;15602;3454
297;642;15597;3464
281;648;15590;3481
279;634;15581;3506
310;636;15562;3492
309;629;15567;3495
320;633;15543;3504
311;660;15499;3530
315;662;15490;3533
315;673;15473;3539
323;661;15466;3550
313;680;15438;3569
311;684;15424;3581
309;656;15429;3606
308;639;15445;3608
315;638;15458;3589
319;622;15478;3581
313;625;15483;3579
303;622;15479;3596
280;630;15473;3617
294;620;15470;3616
314;612;15466;3608
329;595;15483;3593
323;602;15485;3590
305;622;15459;3614
300;641;15440;3619
303;625;15449;3623
314;641;15430;3615
322;632;15406;3640
318;634;15409;3639
335;604;15423;3638
329;618;15405;3648
316;636;15363;3685
302;638;15356;3704
307;644;15372;3677
318;645;15363;3674
324;648;15341;3687
320;649;15349;3682
301;651;15344;3704
339;634;15345;3682
338;641;15320;3701
325;636;15323;3716
326;623;15332;3719
331;628;15340;3701
348;622;15334;3696
320;653;15323;3704
336;644;15314;3706
324;659;15317;3700
328;664;15326;3682
309;676;15325;3690
327;666;15324;3683
338;659;15320;3683
342;651;15319;3688
319;673;15298;3710
312;686;15276;3726
299;664;15291;3746
301;663;15280;3756
328;640;15275;3757
324;644;15239;3793
332;647;15220;3801
331;660;15185;3824
336;663;15171;3830
337;664;15181;3818
341;673;15164;3822
330;667;15170;3833
331;692;15146;3831
325;703;15143;3829
341;701;15152;3806
341;721;15132;3806
328;732;15124;3816
335;723;15125;3817
355;719;15124;3802
353;717;15138;3792
368;728;15114;3790
359;738;15120;3783
358;741;15117;3784
359;736;15098;3807
363;715;15122;3800
376;719;15125;3780
363;747;15134;3756
382;740;15147;3731
379;751;15129;3741
399;747;15142;3712
405;753;15153;3689
398;734;15172;3696
405;746;15187;3662
376;729;15231;3664
366;743;15213;3678
365;751;15221;3663
333;777;15230;3660
360;752;15228;3660
359;751;15231;3659
365;719;15264;3652
357;719;15269;3655
342;734;15248;3676
343;751;15227;3679
359;741;15231;3669
350;743;15227;3680
358;721;15227;3694
355;746;15213;3686
372;725;15245;3658
367;737;15239;3657
362;733;15237;3668
361;737;15236;3666
352;736;15246;3666
336;736;15265;3663
345;725;15277;3653
365;703;15292;3640
367;708;15281;3644
378;693;15295;3634
360;704;15286;3650
350;707;15281;3662
324;701;15293;3682
338;704;15267;3691
343;694;15293;3670
324;729;15274;3673
341;712;15293;3654
367;705;15292;3636
356;698;15281;3665
357;703;15279;3661
344;713;15272;3671
350;697;15275;3678
347;693;15270;3690
340;705;15251;3704
361;695;15262;3682
347;711;15253;3689
379;710;15246;3665
369;738;15222;3671
361;750;15217;3672
341;760;15230;3669
344;746;15243;3667
363;730;15227;3680
367;735;15215;3683
371;746;15221;3662
358;746;15232;3664
361;761;15202;3676
370;757;15203;3670
349;773;15198;3680
398;748;15225;3629
396;764;15208;3632
374;790;15214;3622
362;793;15212;3633
373;791;15253;3583
382;786;15277;3555
398;779;15292;3531
412;771;15299;3518
406;809;15284;3501
389;828;15286;3497
381;834;15280;3505
389;828;15303;3480
369;823;15308;3500
376;810;15339;3475
384;810;15338;3468
392;810;15320;3478
377;813;15316;3494
368;797;15340;3495
370;776;15351;3503
343;776;15352;3529
347;758;15360;3535
371;752;15365;3512
377;744;15361;3518
384;757;15341;3518
385;765;15330;3520
370;743;15365;3522
364;754;15369;3513
367;757;15348;3528
368;750;15369;3513
347;769;15372;3512
354;745;15393;3508
345;744;15408;3503
324;762;15387;3527
339;740;15388;3533
328;747;15377;3548
336;736;15377;3551
351;733;15369;3547
340;746;15369;3545
343;742;15358;3557
355;739;15363;3543
333;743;15384;3540
325;749;15396;3530
314;740;15389;3557
309;733;15401;3557
321;707;15444;3528
319;694;15454;3533
319;687;15444;3550
328;677;15445;3550
319;675;15437;3569
312;680;15447;3561
333;676;15443;3548
333;671;15443;3553
323;684;15433;3560
309;671;15431;3589
308;673;15421;3598
316;671;15417;3596
333;653;15402;3612
321;646;15416;3617
316;649;15405;3630
311;669;15388;3632
328;661;15382;3629
351;634;15401;3614
335;672;15369;3624
321;670;15364;3645
322;663;15383;3632
325;651;15381;3643
332;671;15343;3654
316;682;15331;3671
336;695;15349;3620
326;707;15357;3610
336;697;15357;3610
319;700;15360;3621
328;690;15347;3635
339;666;15357;3638
343;663;15339;3655
359;655;15337;3649
337;661;15332;3670
329;661;15344;3666
331;672;15331;3666
322;667;15318;3693
345;651;15321;3683
325;691;15309;3675
328;691;15314;3667
312;694;15320;3674
