0;20;0;19980
15;20;0;19965
22;25;1;19952
39;28;3;19930
54;38;4;19904
67;48;9;19876
90;55;18;19837
105;69;32;19794
128;101;39;19732
176;121;57;19646
235;145;72;19548
298;191;89;19422
370;258;110;19262
459;318;155;19068
582;420;194;18804
794;534;240;18432
1009;697;319;17975
1256;912;417;17415
1557;1156;528;16759
1982;1406;690;15922
2354;1789;874;14983
2801;2261;1121;13817
3205;2740;1463;12592
3705;3261;1840;11194
4021;3882;2268;9829
4357;4506;2772;8365
4492;5161;3337;7010
4545;5747;3960;5748
4510;6261;4687;4542
4230;6732;5523;3515
3820;7041;6401;2738
3410;7172;7322;2096
2952;7109;8327;1612
2459;7065;9184;1292
2041;6798;10115;1046
1698;6441;11015;846
1405;6050;11851;694
1117;5610;12670;603
910;5126;13436;528
766;4719;14039;476
647;4263;14650;440
522;3863;15197;418
423;3496;15665;416
346;3116;16105;433
297;2787;16467;449
261;2498;16780;461
200;2237;17066;497
198;2002;17305;495
184;1776;17519;521
154;1605;17692;549
127;1441;17833;599
108;1276;17981;635
102;1134;18095;669
94;1007;18190;709
89;858;18295;758
96;749;18345;810
86;659;18411;844
80;606;18416;898
65;561;18412;962
58;482;18454;1006
49;438;18440;1073
48;381;18456;1115
52;334;18450;1164
56;311;18411;1222
61;278;18394;1267
53;261;18367;1319
47;243;18325;1385
40;219;18306;1435
40;197;18274;1489
35;174;18249;1542
32;164;18201;1603
27;153;18164;1656
31;141;18120;1708
32;131;18079;1758
26;117;18044;1813
24;105;17991;1880
19;103;17946;1932
22;87;17916;1975
20;85;17859;2036
21;81;17810;2088
22;69;17766;2143
23;64;17713;2200
23;62;17667;2248
23;59;17614;2304
17;59;17559;2365
18;52;17523;2407
18;49;17468;2465
19;42;17429;2510
18;41;17391;2550
17;44;17341;2598
16;41;17295;2648
12;40;17240;2708
10;40;17191;2759
12;34;17149;2805
13;28;17091;2868
15;28;17039;2918
11;26;16992;2971
9;23;16941;3027
10;23;16891;3076
8;23;16851;3118
9;23;16798;3170
11;25;16743;3221
11;25;16693;3271
9;28;16643;3320
8;26;16609;3357
12;25;16557;3406
9;29;16511;3451
9;25;16467;3499
8;27;16417;3548
6;29;16369;3596
7;25;16325;3643
13;22;16278;3687
10;25;16243;3722
12;21;16203;3764
10;25;16155;3810
14;22;16116;3848
12;27;16067;3894
13;23;16026;3938
13;26;15991;3970
10;27;15936;4027
11;24;15894;4071
13;27;15849;4111
12;27;15815;4146
11;28;15778;4183
10;26;15737;4227
9;23;15708;4260
11;21;15658;4310
11;16;15618;4355
13;17;15571;4399
10;20;15545;4425
9;22;15503;4466
8;23;15457;4512
15;19;15418;4548
19;20;15391;4570
20;23;15343;4614
22;24;15301;4653
22;29;15257;4692
17;35;15208;4740
18;39;15162;4781
19;41;15122;4818
26;35;15082;4857
20;36;15053;4891
19;39;15017;4925
23;37;14984;4956
27;37;14946;4990
21;39;14907;5033
21;37;14870;5072
27;35;14839;5099
26;42;14789;5143
27;44;14760;5169
23;48;14725;5204
24;49;14693;5234
22;48;14656;5274
18;50;14624;5308
20;44;14587;5349
23;44;14535;5398
29;40;14506;5425
29;42;14462;5467
31;40;14436;5493
26;52;14397;5525
28;55;14358;5559
33;54;14321;5592
32;57;14272;5639
41;56;14241;5662
38;60;14209;5693
37;65;14187;5711
43;55;14160;5742
43;61;14129;5767
52;64;14102;5782
53;74;14059;5814
42;85;14023;5850
48;83;13997;5872
57;91;13970;5882
61;90;13945;5904
66;90;13912;5932
61;105;13882;5952
74;103;13855;5968
82;112;13823;5983
92;120;13800;5988
90;139;13770;6001
104;139;13746;6011
111;145;13721;6023
116;157;13697;6030
119;160;13662;6059
129;174;13645;6052
129;191;13623;6057
141;206;13612;6041
151;218;13600;6031
153;237;13587;6023
168;251;13572;6009
183;257;13570;5990
196;268;13568;5968
204;279;13549;5968
229;290;13551;5930
233;308;13570;5889
256;340;13565;5839
252;361;13570;5817
245;403;13584;5768
263;407;13601;5729
267;420;13620;5693
279;436;13634;5651
303;456;13648;5593
314;480;13688;5518
310;504;13701;5485
303;530;13721;5446
334;539;13746;5381
359;560;13785;5296
395;566;13821;5218
375;621;13837;5167
415;646;13855;5084
427;667;13918;4988
451;681;13970;4898
475;720;14011;4794
484;760;14053;4703
459;800;14113;4628
445;819;14182;4554
457;841;14237;4465
463;850;14306;4381
467;897;14359;4277
460;942;14420;4178
499;938;14493;4070
504;966;14560;3970
509;976;14643;3872
513;990;14717;3780
502;987;14794;3717
493;1002;14872;3633
494;995;14937;3574
511;986;15025;3478
532;997;15089;3382
509;1017;15162;3312
486;1025;15225;3264
464;1015;15298;3223
455;1005;15371;3169
446;962;15462;3130
425;978;15518;3079
429;977;15566;3028
420;946;15648;2986
425;917;15712;2946
407;900;15773;2920
394;905;15815;2886
399;875;15882;2844
371;870;15935;2824
346;861;15981;2812
336;857;16010;2797
331;814;16053;2802
307;785;16092;2816
316;753;16111;2820
290;734;16144;2832
292;721;16160;2827
301;711;16162;2826
283;698;16190;2829
283;674;16198;2845
253;664;16196;2887
275;638;16196;2891
264;614;16181;2941
249;627;16171;2953
253;619;16157;2971
246;611;16165;2978
233;602;16184;2981
244;568;16197;2991
263;554;16197;2986
243;545;16195;3017
251;525;16206;3018
254;510;16200;3036
241;514;16192;3053
222;527;16164;3087
214;534;16137;3115
191;529;16130;3150
205;501;16124;3170
223;490;16092;3195
207;493;16059;3241
190;497;16040;3273
195;466;16044;3295
217;453;16007;3323
226;443;15997;3334
235;449;15972;3344
225;451;15946;3378
225;458;15922;3395
213;460;15890;3437
206;478;15864;3452
207;462;15848;3483
203;457;15823;3517
208;453;15825;3514
213;448;15815;3524
205;448;15792;3555
203;451;15777;3569
209;439;15769;3583
216;422;15752;3610
191;422;15732;3655
189;432;15694;3685
175;424;15670;3731
184;409;15634;3773
206;395;15586;3813
193;403;15563;3841
167;412;15537;3884
177;422;15481;3920
187;426;15438;3949
214;407;15420;3959
201;400;15407;3992
218;382;15398;4002
202;379;15363;4056
201;394;15314;4091
212;399;15282;4107
217;392;15245;4146
205;394;15227;4174
226;395;15215;4164
208;418;15173;4201
218;412;15157;4213
221;420;15126;4233
226;425;15085;4264
235;434;15039;4292
248;427;15011;4314
248;447;14981;4324
247;447;14973;4333
245;453;14952;4350
259;444;14940;4357
265;452;14922;4361
265;482;14878;4375
263;495;14859;4383
284;496;14853;4367
293;493;14864;4350
306;503;14839;4352
303;516;14827;4354
292;545;14800;4363
292;553;14801;4354
291;571;14785;4353
301;561;14802;4336
304;569;14806;4321
323;566;14800;4311
313;591;14780;4316
310;591;14773;4326
305;612;14763;4320
325;620;14763;4292
330;634;14767;4269
343;642;14754;4261
352;645;14772;4231
388;658;14751;4203
392;681;14757;4170
370;701;14774;4155
355;704;14789;4152
378;707;14763;4152
370;723;14779;4128
394;739;14787;4080
381;774;14802;4043
373;791;14830;4006
391;771;14849;3989
407;771;14870;3952
409;763;14889;3939
397;771;14911;3921
418;775;14915;3892
418;800;14913;3869
400;825;14911;3864
391;827;14941;3841
390;830;14956;3824
384;834;14954;3828
386;823;15014;3777
375;841;15019;3765
380;807;15060;3753
409;800;15101;3690
393;816;15104;3687
415;813;15119;3653
385;821;15139;3655
381;820;15161;3638
386;815;15176;3623
386;836;15160;3618
381;820;15200;3599
393;822;15203;3582
402;803;15223;3572
373;794;15259;3574
380;789;15274;3557
363;787;15274;3576
366;781;15301;3552
367;777;15310;3546
372;767;15326;3535
365;774;15314;3547
368;769;15309;3554
361;764;15324;3551
349;771;15347;3533
342;771;15358;3529
362;748;15363;3527
349;744;15352;3555
360;739;15357;3544
349;741;15361;3549
341;728;15381;3550
350;726;15365;3559
358;710;15365;3567
343;708;15380;3569
353;695;15378;3574
336;712;15385;3567
313;735;15357;3595
335;722;15357;3586
338;712;15355;3595
334;681;15372;3613
337;664;15391;3608
340;669;15361;3630
341;655;15345;3659
342;662;15325;3671
315;669;15318;3698
319;664;15323;3694
329;684;15305;3682
334;686;15309;3671
335;685;15313;3667
340;710;15305;3645
369;700;15302;3629
368;688;15310;3634
339;716;15306;3639
337;707;15319;3637
330;722;15310;3638
341;723;15282;3654
341;709;15309;3641
353;703;15318;3626
351;695;15322;3632
346;699;15300;3655
321;717;15300;3662
322;707;15291;3680
316;726;15289;3669
335;717;15266;3682
341;712;15273;3674
337;699;15278;3686
341;699;15290;3670
338;715;15286;3661
323;724;15276;3677
326;730;15272;3672
329;736;15284;3651
361;735;15299;3605
357;732;15339;3572
342;740;15353;3565
354;734;15351;3561
361;736;15354;3549
352;731;15362;3555
360;727;15376;3537
352;724;15393;3531
367;701;15396;3536
354;692;15418;3536
356;687;15436;3521
347;690;15444;3519
342;677;15446;3535
319;678;15467;3536
314;670;15459;3557
309;660;15489;3542
317;633;15494;3556
297;654;15488;3561
317;650;15455;3578
316;652;15454;3578
328;644;15440;3588
318;656;15432;3594
315;634;15437;3614
335;646;15403;3616
333;654;15376;3637
320;679;15339;3662
327;693;15333;3647
326;687;15341;3646
328;689;15308;3675
312;690;15313;3685
319;688;15305;3688
334;676;15327;3663
348;675;15354;3623
353;658;15376;3613
309;697;15369;3625
321;695;15360;3624
331;677;15395;3597
338;688;15386;3588
332;685;15392;3591
329;669;15392;3610
305;678;15404;3613
333;653;15392;3622
323;684;15382;3611
317;692;15372;3619
315;685;15382;3618
322;671;15384;3623
332;667;15380;3621
344;681;15365;3610
315;702;15351;3632
331;674;15344;3651
302;685;15321;3692
302;656;15323;3719
311;650;15328;3711
319;649;15319;3713
301;652;15335;3712
312;647;15339;3702
307;645;15354;3694
300;659;15339;3702
309;656;15318;3717
315;656;15312;3717
323;656;15318;3703
323;678;15307;3692
331;671;15318;3680
329;666;15316;3689
340;699;15307;3654
345;710;15284;3661
364;701;15297;3638
365;718;15275;3642
354;755;15253;3638
363;722;15294;3621
371;714;15304;3611
355;730;15301;3614
367;712;15337;3584
339;722;15354;3585
339;711;15386;3564
353;706;15391;3550
334;704;15386;3576
334;685;15386;3595
344;677;15395;3584
341;690;15398;3571
358;674;15389;3579
344;676;15384;3596
332;696;15390;3582
329;693;15377;3601
330;710;15354;3606
342;697;15365;3596
333;698;15346;3623
327;696;15353;3624
331;661;15372;3636
342;651;15371;3636
306;680;15353;3661
327;652;15356;3665
324;656;15330;3690
323;654;15318;3705
317;672;15307;3704
340;645;15320;3695
320;648;15339;3693
336;659;15322;3683
324;660;15310;3706
331;686;15282;3701
336;676;15283;3705
305;704;15274;3717
308;714;15248;3730
314;702;15240;3744
314;704;15254;3728
311;713;15245;3731
314;698;15252;3736
338;672;15263;3727
341;674;15277;3708
342;679;15288;3691
332;682;15256;3730
324;686;15251;3739
345;665;15262;3728
333;666;15274;3727
315;660;15268;3757
307;670;15280;3743
311;668;15273;3748
328;654;15269;3749
341;650;15285;3724
364;660;15273;3703
370;654;15270;3706
365;667;15261;3707
367;674;15268;3691
350;666;15286;3698
322;672;15274;3732
322;676;15261;3741
337;675;15278;3710
327;687;15254;3732
333;689;15255;3723
334;683;15282;3701
326;712;15277;3685
337;732;15264;3667
357;708;15295;3640
361;707;15289;3643
367;693;15298;3642
366;670;15318;3646
342;690;15313;3655
339;692;15303;3666
313;701;15286;3700
330;683;15276;3711
338;688;15256;3718
353;698;15228;3721
335;727;15209;3729
347;724;15204;3725
335;724;15197;3744
328;719;15209;3744
333;721;15201;3745
333;715;15227;3725
343;717;15235;3705
355;729;15221;3695
372;731;15236;3661
389;730;15231;3650
354;736;15245;3665
365;739;15233;3663
377;747;15227;3649
374;733;15227;3666
369;731;15239;3661
359;734;15236;3671
346;758;15230;3666
343;744;15235;3678
335;733;15247;3685
346;732;15242;3680
335;738;15248;3679
347;713;15258;3682
353;734;15250;3663
357;752;15219;3672
371;734;15226;3669
363;737;15215;3685
372;728;15226;3674
363;724;15214;3699
339;731;15235;3695
359;706;15235;3700
368;701;15239;3692
370;714;15248;3668
356;723;15239;3682
364;732;15258;3646
383;729;15248;3640
372;749;15253;3626
353;752;15267;3628
359;749;15274;3618
365;747;15273;3615
376;753;15283;3588
372;746;15303;3579
376;750;15304;3570
365;760;15306;3569
370;766;15288;3576
350;777;15306;3567
351;785;15291;3573
360;765;15312;3563
345;790;15293;3572
361;784;15320;3535
394;771;15320;3515
392;775;15320;3513
419;770;15334;3477
404;797;15337;3462
404;808;15330;3458
412;815;15336;3437
407;846;15341;3406
388;860;15342;3410
386;851;15368;3395
380;851;15386;3383
375;838;15388;3399
366;847;15388;3399
384;833;15404;3379
369;842;15390;3399
367;817;15406;3410
369;810;15444;3377
352;812;15459;3377
345;798;15488;3369
363;773;15503;3361
339;786;15484;3391
352;763;15489;3396
342;718;15525;3415
334;712;15542;3412
332;707;15534;3427
332;715;15497;3456
322;728;15488;3462
336;703;15507;3454
333;689;15510;3468
303;690;15508;3499
296;694;15493;3517
298;661;15508;3533
326;661;15491;3522
303;688;15479;3530
303;683;15469;3545
286;672;15457;3585
284;664;15436;3616
274;651;15424;3651
312;620;15413;3655
308;623;15402;3667
328;632;15379;3661
331;643;15370;3656
340;660;15346;3654
329;673;15317;3681
330;681;15306;3683
325;671;15299;3705
323;673;15273;3731
319;701;15254;3726
325;685;15253;3737
320;679;15245;3756
324;696;15219;3761
325;679;15226;3770
367;693;15197;3743
359;704;15202;3735
352;719;15179;3750
343;745;15177;3735
377;733;15183;3707
398;736;15191;3675
417;754;15170;3659
394;788;15158;3660
388;790;15187;3635
401;773;15199;3627
391;771;15210;3628
382;781;15238;3599
367;770;15272;3591
361;763;15298;3578
381;749;15310;3560
372;747;15306;3575
374;739;15313;3574
371;737;15316;3576
354;725;15327;3594
345;705;15344;3606
353;703;15345;3599
331;713;15358;3598
336;723;15350;3591
340;714;15361;3585
331;720;15378;3571
324;722;15398;3556
362;723;15381;3534
335;725;15381;3559
345;733;15380;3542
345;739;15365;3551
349;704;15384;3563
342;720;15366;3572
332;724;15375;3569
305;715;15388;3592
314;704;15385;3597
327;687;15388;3598
320;699;15375;3606
328;687;15362;3623
320;670;15372;3638
333;655;15370;3642
337;639;15366;3658
325;654;15360;3661
325;654;15362;3659
315;639;15363;3683
355;613;15373;3659
339;647;15359;3655
298;660;15355;3687
289;640;15362;3709
314;631;15336;3719
324;630;15329;3717
322;652;15308;3718
322;665;15306;3707
334;679;15280;3707
339;675;15289;3697
366;668;15289;3677
352;689;15270;3689
337;690;15275;3698
350;680;15268;3702
375;690;15250;3685
349;719;15232;3700
337;713;15258;3692
351;707;15254;3688
362;707;15241;3690
368;719;15230;3683
