0;20;0;19980
17;20;0;19963
26;21;4;19949
42;24;7;19927
50;31;10;19909
54;50;14;19882
79;59;19;19843
116;69;28;19787
130;96;36;19738
173;111;45;19671
211;147;62;19580
286;191;77;19446
376;245;99;19280
485;312;139;19064
605;422;175;18798
786;543;239;18432
1041;691;304;17964
1374;920;383;17323
1680;1221;489;16610
2118;1532;652;15698
2527;1942;834;14697
3019;2374;1108;13499
3494;2864;1446;12196
3923;3464;1824;10789
4318;4154;2265;9263
4510;4909;2768;7813
4603;5596;3399;6402
4517;6076;4186;5221
4390;6524;4990;4096
4016;6940;5855;3189
3560;7192;6763;2485
3165;7202;7747;1886
2680;7128;8714;1478
2257;6982;9607;1154
1885;6702;10504;909
1578;6281;11403;738
1297;5859;12238;606
1025;5514;12940;521
852;5018;13677;453
689;4604;14289;418
562;4213;14828;397
461;3807;15359;373
359;3459;15790;392
283;3128;16198;391
226;2811;16557;406
191;2527;16852;430
176;2232;17139;453
147;2000;17381;472
131;1748;17627;494
117;1559;17784;540
98;1407;17918;577
94;1253;18047;606
92;1119;18134;655
87;995;18233;685
74;888;18299;739
69;771;18362;798
70;669;18415;846
62;595;18437;906
65;524;18458;953
63;463;18477;997
61;403;18501;1035
51;388;18464;1097
52;349;18453;1146
51;325;18428;1196
52;283;18426;1239
41;262;18406;1291
43;235;18369;1353
38;214;18344;1404
38;191;18308;1463
36;173;18275;1516
31;156;18236;1577
33;133;18213;1621
33;116;18181;1670
30;106;18140;1724
30;102;18087;1781
24;102;18039;1835
24;98;17992;1886
20;87;17946;1947
21;80;17892;2007
25;72;17847;2056
25;67;17785;2123
24;60;17740;2176
21;55;17700;2224
21;54;17642;2283
21;53;17588;2338
20;51;17548;2381
22;48;17498;2432
18;49;17441;2492
13;54;17386;2547
13;44;17328;2615
15;43;17267;2675
13;45;17229;2713
11;42;17170;2777
12;40;17119;2829
10;41;17071;2878
14;32;17029;2925
12;34;16986;2968
11;29;16942;3018
10;26;16891;3073
11;23;16845;3121
11;25;16799;3165
9;20;16752;3219
8;17;16708;3267
5;18;16668;3309
8;18;16610;3364
10;17;16562;3411
10;15;16510;3465
9;15;16469;3507
8;16;16419;3557
8;17;16377;3598
9;14;16335;3642
5;18;16288;3689
7;15;16243;3735
3;19;16195;3783
7;18;16152;3823
6;20;16113;3861
3;21;16080;3896
5;19;16049;3927
5;18;16014;3963
8;15;15974;4003
9;17;15919;4055
12;17;15873;4098
10;18;15832;4140
14;20;15785;4181
13;20;15748;4219
10;23;15704;4263
12;23;15669;4296
12;26;15625;4337
15;25;15591;4369
14;25;15545;4416
12;28;15503;4457
18;28;15477;4477
17;32;15441;4510
17;33;15409;4541
23;30;15377;4570
29;29;15346;4596
27;35;15294;4644
23;37;15260;4680
26;39;15213;4722
28;40;15180;4752
28;44;15128;4800
24;51;15097;4828
28;47;15051;4874
30;44;15015;4911
29;46;14978;4947
33;48;14936;4983
35;49;14917;4999
35;53;14880;5032
27;55;14844;5074
33;61;14812;5094
38;60;14787;5115
36;64;14755;5145
38;68;14714;5180
36;74;14673;5217
42;75;14638;5245
52;80;14601;5267
60;81;14561;5298
56;90;14542;5312
67;84;14531;5318
58;87;14503;5352
69;92;14460;5379
63;103;14440;5394
60;112;14403;5425
63;118;14377;5442
69;125;14351;5455
75;130;14331;5464
81;129;14295;5495
88;139;14265;5508
91;151;14248;5510
92;159;14226;5523
96;164;14199;5541
101;179;14175;5545
110;174;14158;5558
118;172;14151;5559
131;177;14142;5550
119;205;14127;5549
137;212;14116;5535
151;217;14108;5524
157;217;14106;5520
157;245;14083;5515
152;267;14067;5514
167;284;14048;5501
181;297;14033;5489
197;297;14025;5481
201;313;14031;5455
214;327;14025;5434
226;337;14031;5406
237;363;14013;5387
244;388;14016;5352
254;402;14039;5305
253;417;14055;5275
281;424;14067;5228
281;431;14072;5216
275;441;14095;5189
265;471;14087;5177
256;483;14108;5153
274;500;14117;5109
305;518;14117;5060
327;522;14145;5006
328;528;14174;4970
331;570;14186;4913
338;596;14190;4876
334;636;14233;4797
338;621;14299;4742
348;643;14346;4663
357;658;14391;4594
372;668;14430;4530
371;677;14494;4458
390;684;14547;4379
396;700;14586;4318
399;703;14634;4264
398;720;14671;4211
397;748;14700;4155
407;771;14731;4091
417;764;14779;4040
415;779;14837;3969
429;776;14884;3911
420;805;14918;3857
418;830;14957;3795
422;837;15008;3733
423;846;15074;3657
408;859;15123;3610
404;874;15181;3541
393;878;15223;3506
407;856;15288;3449
417;861;15341;3381
391;900;15365;3344
390;868;15427;3315
391;873;15476;3260
373;865;15549;3213
385;832;15616;3167
360;832;15671;3137
342;820;15711;3127
318;817;15739;3126
332;796;15770;3102
336;770;15811;3083
316;787;15827;3070
317;764;15877;3042
275;771;15910;3044
278;761;15925;3036
284;729;15946;3041
280;709;15961;3050
292;700;15967;3041
291;684;15997;3028
286;669;16001;3044
282;670;16018;3030
272;672;16036;3020
258;667;16060;3015
268;648;16063;3021
278;629;16073;3020
264;634;16064;3038
256;633;16060;3051
248;631;16054;3067
252;609;16070;3069
262;605;16061;3072
235;612;16047;3106
234;596;16060;3110
230;587;16056;3127
237;574;16051;3138
258;582;16042;3118
243;596;16011;3150
243;561;16019;3177
240;566;16005;3189
214;576;16011;3199
223;549;16010;3218
212;543;16003;3242
210;538;15972;3280
219;520;15972;3289
228;518;15943;3311
227;516;15941;3316
250;500;15925;3325
249;500;15903;3348
223;510;15874;3393
217;497;15860;3426
208;495;15834;3463
209;488;15801;3502
211;493;15780;3516
208;474;15776;3542
203;477;15767;3553
197;475;15761;3567
200;476;15744;3580
212;474;15708;3606
217;463;15690;3630
238;449;15665;3648
235;449;15643;3673
242;452;15615;3691
237;448;15603;3712
214;435;15590;3761
225;426;15546;3803
219;440;15508;3833
224;443;15494;3839
238;447;15457;3858
234;445;15408;3913
233;455;15385;3927
228;468;15353;3951
215;486;15328;3971
207;492;15290;4011
221;480;15279;4020
223;475;15267;4035
226;472;15257;4045
239;493;15221;4047
249;495;15210;4046
234;500;15207;4059
243;489;15192;4076
235;503;15160;4102
262;496;15149;4093
263;496;15135;4106
277;477;15129;4117
266;488;15091;4155
266;484;15090;4160
278;505;15058;4159
287;498;15050;4165
304;524;15029;4143
288;558;14992;4162
307;557;14960;4176
298;573;14954;4175
298;591;14945;4166
301;594;14948;4157
329;583;14942;4146
338;619;14915;4128
336;651;14898;4115
332;686;14894;4088
338;671;14907;4084
356;669;14918;4057
357;686;14925;4032
360;705;14939;3996
362;719;14935;3984
364;706;14946;3984
362;710;14945;3983
376;710;14951;3963
373;721;14945;3961
384;731;14944;3941
375;741;14962;3922
371;779;14953;3897
385;780;14974;3861
395;772;14993;3840
400;773;15004;3823
420;776;15022;3782
432;778;15058;3732
425;791;15088;3696
403;818;15107;3672
409;815;15132;3644
413;798;15182;3607
393;803;15203;3601
373;825;15188;3614
355;816;15210;3619
378;800;15219;3603
360;806;15231;3603
358;809;15251;3582
356;791;15285;3568
349;770;15317;3564
371;765;15328;3536
342;786;15320;3552
371;768;15332;3529
336;794;15353;3517
337;781;15371;3511
352;760;15386;3502
347;782;15384;3487
349;751;15423;3477
347;749;15438;3466
342;749;15433;3476
342;736;15432;3490
325;731;15451;3493
350;719;15429;3502
323;717;15440;3520
323;710;15444;3523
333;715;15445;3507
339;701;15455;3505
304;712;15444;3540
322;669;15466;3543
303;681;15477;3539
312;698;15460;3530
312;698;15457;3533
320;689;15446;3545
321;682;15463;3534
329;690;15439;3542
329;706;15419;3546
333;713;15411;3543
350;696;15430;3524
339;721;15432;3508
331;716;15434;3519
311;719;15452;3518
315;691;15460;3534
298;710;15444;3548
310;694;15429;3567
330;678;15423;3569
313;674;15432;3581
297;689;15411;3603
293;683;15411;3613
299;670;15407;3624
318;658;15393;3631
314;652;15394;3640
304;657;15369;3670
293;664;15358;3685
304;655;15331;3710
294;654;15329;3723
316;654;15304;3726
316;645;15307;3732
321;623;15328;3728
299;632;15318;3751
293;628;15324;3755
285;620;15319;3776
292;625;15295;3788
286;639;15264;3811
311;609;15272;3808
318;589;15272;3821
298;612;15258;3832
300;624;15257;3819
296;625;15264;3815
290;645;15251;3814
289;651;15256;3804
306;653;15249;3792
305;647;15245;3803
306;639;15248;3807
294;648;15250;3808
309;640;15243;3808
295;650;15222;3833
320;656;15212;3812
317;658;15219;3806
326;652;15215;3807
349;668;15198;3785
342;666;15201;3791
334;689;15186;3791
329;689;15190;3792
359;692;15180;3769
332;704;15177;3787
351;686;15185;3778
335;687;15199;3779
330;686;15197;3787
330;687;15181;3802
327;691;15172;3810
326;699;15190;3785
348;720;15181;3751
350;716;15189;3745
360;734;15189;3717
339;789;15169;3703
346;779;15200;3675
344;780;15214;3662
358;771;15223;3648
377;773;15224;3626
381;774;15239;3606
377;759;15272;3592
389;764;15286;3561
383;763;15320;3534
377;773;15323;3527
392;765;15334;3509
373;778;15357;3492
359;778;15377;3486
354;780;15395;3471
338;767;15441;3454
334;756;15449;3461
317;750;15470;3463
331;747;15465;3457
332;725;15469;3474
330;721;15473;3476
342;728;15474;3456
361;714;15477;3448
350;721;15492;3437
337;721;15485;3457
312;746;15483;3459
289;759;15467;3485
301;740;15481;3478
311;723;15465;3501
299;727;15460;3514
312;697;15484;3507
333;673;15484;3510
321;680;15474;3525
319;688;15468;3525
324;675;15467;3534
312;683;15468;3537
302;695;15461;3542
315;696;15450;3539
321;688;15449;3542
324;668;15454;3554
321;667;15442;3570
314;658;15440;3588
342;635;15441;3582
339;656;15420;3585
337;661;15413;3589
320;672;15395;3613
329;676;15365;3630
334;679;15359;3628
344;655;15373;3628
320;679;15386;3615
326;659;15392;3623
322;645;15410;3623
337;628;15430;3605
306;655;15405;3634
310;650;15426;3614
278;678;15407;3637
301;646;15391;3662
307;640;15375;3678
307;636;15369;3688
316;625;15367;3692
331;626;15385;3658
312;638;15380;3670
301;648;15370;3681
288;631;15365;3716
318;627;15373;3682
305;639;15366;3690
308;639;15358;3695
326;644;15369;3661
297;660;15352;3691
308;650;15352;3690
308;654;15338;3700
309;655;15312;3724
312;664;15305;3719
322;655;15314;3709
341;661;15321;3677
325;649;15315;3711
313;675;15302;3710
313;657;15319;3711
333;638;15319;3710
331;630;15309;3730
332;643;15290;3735
328;644;15309;3719
313;679;15283;3725
320;665;15292;3723
333;656;15288;3723
329;667;15283;3721
346;652;15290;3712
345;648;15292;3715
345;659;15279;3717
344;665;15289;3702
334;658;15304;3704
310;676;15282;3732
309;666;15290;3735
323;660;15300;3717
311;662;15295;3732
308;672;15281;3739
318;671;15276;3735
303;692;15269;3736
284;702;15256;3758
305;692;15237;3766
328;692;15238;3742
321;695;15238;3746
347;693;15227;3733
336;708;15242;3714
348;706;15251;3695
323;706;15234;3737
336;720;15229;3715
328;708;15252;3712
328;703;15256;3713
340;696;15275;3689
339;711;15268;3682
346;710;15288;3656
338;713;15302;3647
333;705;15309;3653
309;731;15290;3670
312;727;15291;3670
343;700;15297;3660
345;691;15309;3655
375;679;15320;3626
374;680;15294;3652
378;695;15314;3613
351;703;15310;3636
325;723;15299;3653
325;736;15302;3637
310;718;15322;3650
307;714;15305;3674
320;714;15280;3686
329;723;15248;3700
339;723;15244;3694
352;726;15237;3685
370;716;15242;3672
338;728;15265;3669
329;716;15278;3677
329;732;15279;3660
347;723;15291;3639
360;732;15289;3619
339;752;15285;3624
328;729;15299;3644
352;726;15307;3615
344;738;15311;3607
345;727;15324;3604
345;736;15316;3603
341;719;15348;3592
344;686;15380;3590
342;694;15358;3606
344;673;15357;3626
347;682;15325;3646
337;668;15321;3674
343;686;15307;3664
344;689;15319;3648
355;699;15314;3632
341;725;15299;3635
340;704;15333;3623
323;720;15324;3633
321;721;15316;3642
351;715;15316;3618
339;706;15327;3628
329;706;15310;3655
340;687;15325;3648
356;688;15313;3643
354;688;15317;3641
340;694;15291;3675
339;673;15310;3678
338;673;15299;3690
352;688;15281;3679
343;685;15258;3714
345;685;15253;3717
325;696;15259;3720
320;718;15235;3727
330;733;15208;3729
333;727;15201;3739
364;719;15186;3731
360;734;15176;3730
354;745;15160;3741
336;729;15172;3763
349;725;15166;3760
332;719;15177;3772
331;713;15180;3776
329;727;15185;3759
334;731;15192;3743
362;734;15162;3742
377;731;15161;3731
361;758;15151;3730
344;754;15160;3742
346;754;15147;3753
339;756;15152;3753
334;757;15155;3754
345;745;15166;3744
330;748;15179;3743
332;746;15181;3741
341;731;15210;3718
352;735;15220;3693
343;735;15214;3708
347;735;15222;3696
349;725;15240;3686
340;730;15246;3684
330;736;15238;3696
320;726;15240;3714
314;726;15236;3724
332;702;15249;3717
321;714;15244;3721
330;708;15227;3735
339;706;15236;3719
315;709;15247;3729
307;708;15232;3753
317;702;15200;3781
315;683;15200;3802
340;686;15193;3781
359;693;15181;3767
384;690;15177;3749
358;717;15185;3740
350;728;15176;3746
342;738;15173;3747
352;734;15157;3757
387;694;15153;3766
374;718;15142;3766
381;693;15181;3745
353;704;15203;3740
346;714;15177;3763
340;712;15174;3774
340;708;15174;3778
350;698;15186;3766
337;696;15178;3789
331;724;15174;3771
348;712;15190;3750
359;716;15185;3740
353;713;15176;3758
348;706;15192;3754
360;715;15181;3744
369;711;15179;3741
365;703;15211;3721
367;727;15204;3702
360;750;15208;3682
362;733;15238;3667
353;731;15247;3669
365;720;15231;3684
362;713;15252;3673
352;725;15253;3670
333;746;15242;3679
335;757;15231;3677
345;753;15228;3674
347;742;15224;3687
340;741;15233;3686
350;734;15244;3672
351;738;15251;3660
340;727;15285;3648
335;722;15295;3648
325;718;15310;3647
311;701;15301;3687
322;723;15292;3663
332;707;15302;3659
347;697;15298;3658
339;711;15281;3669
340;706;15262;3692
345;682;15278;3695
342;678;15287;3693
329;681;15298;3692
365;648;15316;3671
344;708;15277;3671
346;713;15267;3674
351;719;15282;3648
328;726;15310;3636
337;726;15289;3648
331;711;15301;3657
324;727;15319;3630
350;730;15317;3603
372;745;15301;3582
374;762;15291;3573
369;769;15306;3556
351;798;15313;3538
362;778;15355;3505
367;793;15349;3491
368;781;15356;3495
356;795;15354;3495
349;794;15369;3488
347;775;15373;3505
334;772;15377;3517
332;778;15379;3511
333;767;15396;3504
340;769;15397;3494
355;756;15401;3488
339;759;15412;3490
350;741;15414;3495
354;730;15429;3487
330;753;15431;3486
328;748;15444;3480
325;720;15447;3508
332;715;15456;3497
319;721;15443;3517
327;732;15429;3512
311;751;15424;3514
304;751;15434;3511
303;733;15439;3525
320;698;15449;3533
331;710;15436;3523
331;681;15453;3535
