0;20;0;19980
11;20;0;19969
20;19;4;19957
32;21;6;19941
45;32;7;19916
58;42;8;19892
69;55;9;19867
94;68;19;19819
138;76;31;19755
171;95;43;19691
216;133;49;19602
283;172;66;19479
372;222;94;19312
467;304;121;19108
633;383;159;18825
708;531;209;18552
913;644;299;18144
1164;816;397;17623
1494;1014;511;16981
1829;1294;656;16221
2218;1640;814;15328
2642;2098;1005;14255
3116;2540;1309;13035
3595;3090;1641;11674
3993;3671;2056;10280
4361;4346;2528;8765
4515;5030;3094;7361
4563;5668;3753;6016
4522;6219;4468;4791
4218;6728;5231;3823
3926;7044;6097;2933
3492;7257;6997;2254
3002;7294;7934;1770
2591;7185;8864;1360
2231;6898;9823;1048
1861;6589;10732;818
1521;6208;11588;683
1214;5799;12399;588
1002;5318;13176;504
826;4874;13861;439
647;4439;14498;416
514;4025;15070;391
428;3664;15522;386
352;3286;15973;389
301;2922;16369;408
253;2604;16729;414
214;2326;17029;431
191;2061;17296;452
167;1841;17524;468
136;1648;17725;491
115;1460;17897;528
95;1326;18010;569
95;1175;18124;606
76;1045;18221;658
74;911;18307;708
68;819;18368;745
62;737;18404;797
67;656;18417;860
72;591;18435;902
68;539;18447;946
66;478;18456;1000
61;421;18467;1051
63;383;18458;1096
63;344;18421;1172
54;321;18396;1229
55;285;18398;1262
44;254;18383;1319
52;226;18366;1356
46;219;18320;1415
48;196;18287;1469
43;184;18249;1524
40;175;18198;1587
33;172;18154;1641
38;155;18128;1679
34;148;18078;1740
25;135;18049;1791
30;128;17996;1846
31;121;17948;1900
35;115;17898;1952
27;112;17858;2003
27;99;17821;2053
27;98;17769;2106
33;86;17731;2150
29;88;17685;2198
26;87;17639;2248
25;76;17597;2302
25;80;17535;2360
21;80;17483;2416
22;71;17441;2466
26;70;17394;2510
19;69;17361;2551
21;63;17323;2593
19;60;17279;2642
16;59;17242;2683
19;47;17197;2737
18;50;17155;2777
17;45;17109;2829
10;46;17063;2881
14;40;17026;2920
11;41;16978;2970
13;34;16931;3022
14;32;16887;3067
16;31;16821;3132
14;31;16770;3185
14;31;16713;3242
15;32;16664;3289
13;34;16614;3339
13;37;16576;3374
13;36;16542;3409
14;38;16493;3455
17;33;16451;3499
14;34;16416;3536
16;31;16372;3581
12;33;16337;3618
12;34;16292;3662
12;30;16262;3696
17;28;16214;3741
13;30;16177;3780
16;27;16134;3823
12;27;16097;3864
10;29;16055;3906
13;27;16010;3950
9;29;15961;4001
12;29;15918;4041
13;25;15884;4078
16;24;15838;4122
14;29;15785;4172
17;29;15732;4222
17;30;15686;4267
14;33;15642;4311
17;30;15607;4346
17;28;15566;4389
14;26;15522;4438
16;22;15486;4476
19;26;15445;4510
17;31;15407;4545
17;32;15370;4581
15;36;15327;4622
12;39;15295;4654
14;40;15243;4703
14;36;15187;4763
12;37;15157;4794
23;36;15122;4819
19;42;15093;4846
17;43;15053;4887
19;42;15017;4922
25;42;14986;4947
23;37;14949;4991
20;38;14912;5030
20;39;14872;5069
24;41;14832;5103
24;41;14798;5137
24;43;14750;5183
31;46;14714;5209
33;46;14686;5235
33;44;14641;5282
33;49;14594;5324
28;56;14560;5356
34;54;14519;5393
42;57;14480;5421
49;58;14464;5429
42;62;14431;5465
41;65;14388;5506
52;62;14363;5523
50;72;14326;5552
47;73;14292;5588
48;74;14260;5618
48;77;14233;5642
59;79;14198;5664
63;86;14156;5695
64;102;14120;5714
63;103;14096;5738
58;100;14077;5765
57;104;14048;5791
71;101;14013;5815
83;97;14001;5819
84;102;13970;5844
78;122;13949;5851
87;138;13902;5873
95;146;13886;5873
105;155;13850;5890
108;162;13835;5895
114;162;13829;5895
117;176;13813;5894
147;192;13781;5880
163;214;13750;5873
174;228;13742;5856
177;258;13725;5840
196;274;13714;5816
210;282;13707;5801
211;305;13703;5781
212;335;13697;5756
242;343;13686;5729
244;371;13693;5692
263;385;13709;5643
254;410;13724;5612
282;432;13725;5561
287;456;13744;5513
296;484;13761;5459
321;522;13772;5385
361;535;13785;5319
366;559;13804;5271
391;564;13832;5213
396;564;13896;5144
414;588;13918;5080
415;627;13942;5016
416;673;13959;4952
408;700;13998;4894
442;691;14067;4800
460;730;14121;4689
474;744;14175;4607
471;795;14210;4524
473;833;14271;4423
467;871;14326;4336
499;892;14377;4232
502;891;14453;4154
487;905;14541;4067
468;923;14613;3996
464;938;14700;3898
483;912;14785;3820
478;941;14850;3731
461;930;14927;3682
477;922;14994;3607
472;915;15077;3536
442;952;15111;3495
434;981;15152;3433
438;979;15200;3383
446;969;15280;3305
419;957;15361;3263
427;923;15431;3219
411;920;15489;3180
384;898;15565;3153
393;881;15614;3112
405;883;15644;3068
419;876;15688;3017
405;877;15734;2984
368;899;15787;2946
351;878;15860;2911
344;865;15893;2898
348;835;15947;2870
340;831;15996;2833
332;830;16038;2800
321;796;16085;2798
331;768;16109;2792
311;765;16133;2791
314;745;16141;2800
303;726;16169;2802
306;697;16188;2809
294;698;16192;2816
295;663;16203;2839
282;660;16201;2857
285;664;16205;2846
252;663;16219;2866
252;647;16212;2889
245;622;16233;2900
248;602;16242;2908
241;601;16255;2903
239;566;16255;2940
234;565;16227;2974
225;559;16236;2980
229;551;16226;2994
226;539;16239;2996
204;537;16221;3038
215;531;16192;3062
220;498;16195;3087
245;487;16187;3081
230;488;16170;3112
219;482;16149;3150
201;479;16140;3180
197;481;16106;3216
192;472;16085;3251
191;473;16057;3279
185;469;16042;3304
184;470;16018;3328
185;461;15995;3359
201;454;15951;3394
195;457;15911;3437
202;439;15908;3451
203;438;15880;3479
198;455;15838;3509
198;445;15821;3536
189;455;15790;3566
214;425;15780;3581
207;451;15755;3587
224;435;15740;3601
208;424;15732;3636
210;432;15719;3639
209;424;15696;3671
211;418;15671;3700
200;420;15648;3732
200;426;15606;3768
195;419;15600;3786
185;420;15564;3831
189;395;15545;3871
196;388;15516;3900
199;392;15475;3934
207;388;15441;3964
209;399;15409;3983
200;413;15368;4019
203;424;15344;4029
209;436;15309;4046
220;422;15294;4064
237;413;15267;4083
227;422;15260;4091
231;418;15231;4120
242;416;15199;4143
237;418;15183;4162
242;441;15146;4171
228;433;15124;4215
230;446;15112;4212
229;457;15072;4242
242;467;15060;4231
253;463;15044;4240
259;476;15022;4243
265;503;14991;4241
281;514;14958;4247
281;535;14945;4239
296;540;14933;4231
305;561;14923;4211
311;556;14927;4206
310;588;14882;4220
328;590;14854;4228
345;613;14835;4207
342;630;14821;4207
346;649;14818;4187
327;671;14808;4194
354;679;14785;4182
364;654;14821;4161
376;659;14839;4126
409;648;14868;4075
395;668;14869;4068
391;686;14877;4046
394;719;14858;4029
379;738;14891;3992
396;736;14915;3953
392;765;14935;3908
421;775;14949;3855
413;781;14977;3829
419;782;14982;3817
417;796;14994;3793
419;792;15021;3768
403;785;15053;3759
411;782;15085;3722
401;778;15104;3717
398;758;15151;3693
415;753;15165;3667
421;758;15168;3653
390;764;15191;3655
381;778;15205;3636
385;762;15233;3620
396;777;15235;3592
390;795;15235;3580
370;797;15242;3591
366;798;15248;3588
377;775;15285;3563
365;766;15312;3557
349;757;15330;3564
348;755;15336;3561
355;733;15364;3548
325;753;15347;3575
344;746;15345;3565
357;723;15365;3555
359;717;15374;3550
362;693;15398;3547
340;709;15398;3553
331;719;15368;3582
320;708;15383;3589
301;721;15388;3590
306;742;15384;3568
319;737;15400;3544
321;763;15384;3532
341;750;15410;3499
352;725;15423;3500
357;728;15405;3510
355;718;15414;3513
341;724;15427;3508
340;728;15443;3489
349;739;15452;3460
377;722;15465;3436
368;748;15447;3437
348;750;15455;3447
348;742;15454;3456
356;751;15445;3448
370;752;15445;3433
379;787;15435;3399
362;787;15439;3412
379;759;15457;3405
374;752;15465;3409
375;764;15449;3412
370;747;15466;3417
346;776;15442;3436
368;760;15467;3405
366;766;15464;3404
348;783;15468;3401
352;773;15463;3412
332;768;15454;3446
347;741;15456;3456
346;732;15458;3464
341;757;15440;3462
341;763;15413;3483
360;754;15431;3455
370;757;15435;3438
355;772;15427;3446
345;786;15422;3447
353;779;15439;3429
349;781;15453;3417
345;777;15458;3420
342;771;15472;3415
340;765;15472;3423
346;758;15474;3422
322;764;15493;3421
323;757;15504;3416
333;763;15483;3421
321;762;15471;3446
331;732;15481;3456
331;722;15481;3466
324;724;15485;3467
308;726;15478;3488
296;715;15481;3508
293;698;15494;3515
281;687;15499;3533
289;664;15526;3521
292;645;15520;3543
292;641;15511;3556
299;658;15471;3572
311;661;15456;3572
311;669;15446;3574
321;675;15439;3565
323;661;15427;3589
328;657;15440;3575
329;667;15426;3578
321;675;15400;3604
334;674;15375;3617
330;683;15369;3618
342;663;15396;3599
370;671;15398;3561
404;675;15371;3550
381;702;15337;3580
356;717;15315;3612
360;715;15334;3591
359;733;15316;3592
359;732;15326;3583
361;721;15342;3576
352;716;15332;3600
358;684;15342;3616
363;697;15342;3598
368;673;15373;3586
351;656;15386;3607
347;662;15386;3605
344;663;15387;3606
333;639;15396;3632
333;641;15396;3630
338;649;15385;3628
342;658;15385;3615
324;652;15387;3637
321;655;15393;3631
310;654;15389;3647
329;646;15383;3642
320;664;15398;3618
315;663;15405;3617
294;672;15400;3634
310;692;15402;3596
311;686;15408;3595
312;673;15405;3610
327;660;15427;3586
318;674;15418;3590
332;679;15410;3579
335;684;15415;3566
345;669;15423;3563
338;661;15432;3569
349;663;15428;3560
335;656;15441;3568
321;655;15436;3588
340;674;15431;3555
326;678;15430;3566
320;683;15438;3559
331;685;15454;3530
331;675;15468;3526
335;684;15448;3533
348;702;15453;3497
336;702;15441;3521
336;701;15453;3510
326;718;15430;3526
312;713;15435;3540
304;733;15430;3533
328;718;15420;3534
333;710;15445;3512
320;700;15462;3518
327;691;15473;3509
335;670;15498;3497
334;672;15471;3523
331;683;15457;3529
332;693;15447;3528
324;687;15454;3535
343;668;15450;3539
328;679;15447;3546
333;689;15445;3533
320;707;15429;3544
319;706;15413;3562
356;684;15416;3544
352;677;15430;3541
334;678;15442;3546
330;656;15452;3562
348;628;15456;3568
360;621;15468;3551
322;657;15454;3567
307;673;15445;3575
334;664;15461;3541
319;678;15475;3528
350;660;15457;3533
336;684;15439;3541
344;688;15446;3522
350;699;15446;3505
343;703;15463;3491
328;715;15464;3493
372;700;15486;3442
353;718;15482;3447
347;739;15468;3446
331;739;15472;3458
332;730;15480;3458
322;717;15501;3460
304;733;15504;3459
323;700;15511;3466
316;688;15506;3490
329;687;15502;3482
319;682;15505;3494
308;673;15516;3503
308;683;15494;3515
312;690;15477;3521
331;690;15473;3506
320;696;15457;3527
298;682;15483;3537
310;677;15493;3520
299;688;15479;3534
313;668;15466;3553
331;661;15448;3560
322;661;15448;3569
332;655;15439;3574
334;659;15432;3575
325;662;15414;3599
309;679;15416;3596
313;654;15428;3605
311;652;15431;3606
296;660;15423;3621
302;649;15405;3644
279;638;15413;3670
284;645;15395;3676
278;639;15395;3688
289;619;15379;3713
296;607;15376;3721
297;606;15347;3750
299;606;15332;3763
303;610;15320;3767
308;612;15293;3787
299;625;15278;3798
318;610;15279;3793
321;617;15258;3804
320;636;15243;3801
334;637;15211;3818
314;652;15187;3847
320;669;15171;3840
315;698;15152;3835
332;682;15162;3824
342;679;15158;3821
350;671;15166;3813
342;694;15157;3807
350;709;15135;3806
368;697;15142;3793
344;710;15125;3821
342;726;15139;3793
359;718;15142;3781
385;717;15140;3758
378;721;15156;3745
373;739;15158;3730
381;732;15172;3715
388;746;15152;3714
377;766;15163;3694
386;759;15175;3680
396;757;15195;3652
379;754;15223;3644
370;761;15226;3643
374;762;15241;3623
392;756;15262;3590
370;776;15285;3569
376;778;15290;3556
360;786;15278;3576
378;764;15284;3574
379;770;15290;3561
375;780;15302;3543
376;780;15279;3565
379;787;15254;3580
390;777;15254;3579
381;785;15280;3554
371;783;15301;3545
366;778;15306;3550
383;774;15308;3535
375;794;15306;3525
390;789;15308;3513
375;814;15313;3498
367;817;15320;3496
348;819;15339;3494
367;790;15355;3488
405;779;15367;3449
384;801;15362;3453
356;801;15391;3452
361;804;15383;3452
360;778;15405;3457
347;794;15415;3444
344;779;15429;3448
336;757;15429;3478
342;743;15435;3480
331;745;15431;3493
326;718;15457;3499
340;685;15460;3515
339;681;15455;3525
319;705;15443;3533
321;697;15428;3554
329;679;15431;3561
320;664;15441;3575
321;663;15441;3575
318;652;15427;3603
312;654;15382;3652
320;655;15360;3665
322;660;15334;3684
325;655;15316;3704
293;667;15312;3728
297;654;15323;3726
291;662;15285;3762
294;645;15287;3774
297;639;15288;3776
299;597;15308;3796
314;601;15287;3798
346;583;15273;3798
342;608;15254;3796
342;638;15220;3800
349;654;15189;3808
326;673;15185;3816
335;668;15160;3837
334;673;15145;3848
339;678;15155;3828
313;690;15150;3847
325;677;15150;3848
338;685;15149;3828
335;667;15174;3824
350;660;15169;3821
352;667;15168;3813
365;690;15166;3779
368;689;15168;3775
393;685;15170;3752
369;709;15159;3763
377;721;15145;3757
377;706;15155;3762
366;738;15159;3737
372;732;15165;3731
378;745;15156;3721
380;741;15172;3707
380;742;15171;3707
363;770;15179;3688
379;767;15177;3677
371;783;15190;3656
388;792;15190;3630
384;799;15181;3636
376;804;15202;3618
367;798;15188;3647
376;800;15206;3618
378;794;15213;3615
372;808;15234;3586
358;792;15274;3576
385;772;15282;3561
388;794;15265;3553
391;797;15292;3520
360;806;15316;3518
380;779;15334;3507
387;788;15354;3471
393;770;15381;3456
378;777;15381;3464
386;780;15391;3443
407;795;15381;3417
382;814;15386;3418
379;819;15378;3424
369;819;15397;3415
364;788;15413;3435
359;763;15439;3439
363;776;15419;3442
347;793;15422;3438
344;778;15429;3449
363;754;15457;3426
342;778;15460;3420
356;759;15451;3434
363;745;15463;3429
352;750;15462;3436
362;735;15464;3439
347;751;15488;3414
340;744;15497;3419
329;744;15495;3432
337;740;15495;3428
351;734;15505;3410
345;733;15500;3422
369;702;15502;3427
332;728;15487;3453
348;712;15498;3442
329;715;15477;3479
342;707;15467;3484
341;691;15491;3477
339;683;15505;3473
310;717;15494;3479
343;683;15498;3476
333;665;15502;3500
337;658;15482;3523
343;669;15453;3535
355;675;15466;3504
336;683;15462;3519
312;683;15454;3551
324;659;15467;3550
303;670;15472;3555
314;670;15468;3548
307;675;15447;3571
317;670;15419;3594
316;690;15399;3595
328;667;15398;3607
332;669;15385;3614
339;660;15384;3617
317;657;15390;3636
338;640;15379;3643
326;672;15360;3642
312;698;15355;3635
307;700;15364;3629
320;688;15358;3634
309;695;15351;3645
318;690;15343;3649
