0;20;0;19980
18;20;0;19962
28;17;4;19951
27;20;8;19945
40;26;11;19923
54;37;13;19896
64;51;15;19870
77;57;24;19842
113;63;31;19793
139;98;36;19727
200;124;51;19625
266;169;63;19502
339;228;89;19344
425;288;121;19166
570;356;168;18906
719;476;211;18594
873;646;263;18218
1092;804;343;17761
1380;983;462;17175
1743;1229;588;16440
2094;1562;761;15583
2514;1968;971;14547
3031;2443;1202;13324
3496;2937;1539;12028
3949;3541;1926;10584
4277;4219;2382;9122
4467;4810;2987;7736
4553;5410;3615;6422
4474;6034;4291;5201
4294;6578;5037;4091
4070;6783;5932;3215
3648;6968;6873;2511
3198;7091;7783;1928
2732;7040;8686;1542
2314;6876;9603;1207
1902;6638;10461;999
1588;6255;11350;807
1281;5886;12146;687
1008;5508;12884;600
813;5003;13654;530
618;4615;14272;495
498;4201;14825;476
417;3766;15365;452
356;3389;15794;461
305;3035;16190;470
253;2730;16539;478
224;2425;16845;506
195;2148;17131;526
164;1915;17379;542
143;1704;17597;556
127;1504;17780;589
132;1330;17915;623
124;1170;18056;650
114;1042;18163;681
111;941;18232;716
92;836;18312;760
87;754;18353;806
84;671;18405;840
68;603;18434;895
63;553;18445;939
60;491;18459;990
52;439;18456;1053
65;383;18461;1091
64;351;18439;1146
69;311;18420;1200
58;303;18394;1245
52;277;18381;1290
50;250;18356;1344
48;216;18351;1385
37;197;18318;1448
40;180;18292;1488
39;157;18263;1541
31;146;18220;1603
32;134;18169;1665
33;133;18124;1710
35;121;18090;1754
34;110;18049;1807
30;99;18004;1867
30;98;17955;1917
31;95;17898;1976
27;88;17844;2041
28;82;17797;2093
27;75;17757;2141
21;71;17707;2201
22;68;17665;2245
22;59;17628;2291
23;54;17571;2352
14;55;17515;2416
16;51;17474;2459
16;50;17434;2500
12;50;17398;2540
13;49;17349;2589
16;44;17286;2654
15;38;17245;2702
14;39;17187;2760
18;35;17149;2798
12;35;17112;2841
12;31;17068;2889
12;30;17020;2938
13;30;16972;2985
12;27;16932;3029
13;27;16890;3070
12;28;16833;3127
7;27;16795;3171
9;25;16732;3234
8;25;16698;3269
9;25;16644;3322
9;25;16592;3374
11;26;16528;3435
11;24;16471;3494
15;22;16426;3537
14;20;16386;3580
15;18;16341;3626
17;19;16300;3664
17;16;16257;3710
17;17;16220;3746
13;21;16173;3793
13;20;16132;3835
12;22;16099;3867
10;24;16055;3911
9;26;16010;3955
9;24;15956;4011
9;26;15911;4054
9;26;15871;4094
11;27;15831;4131
18;25;15789;4168
18;26;15747;4209
21;26;15716;4237
17;32;15679;4272
15;33;15637;4315
20;32;15589;4359
22;30;15560;4388
22;32;15521;4425
21;33;15483;4463
18;37;15442;4503
13;41;15391;4555
14;35;15365;4586
17;36;15318;4629
20;32;15283;4665
19;30;15250;4701
16;32;15205;4747
18;32;15165;4785
18;37;15128;4817
23;40;15094;4843
27;44;15058;4871
22;50;15029;4899
23;45;14970;4962
25;46;14938;4991
26;46;14899;5029
22;52;14870;5056
34;52;14831;5083
36;55;14789;5120
31;56;14749;5164
39;58;14701;5202
47;58;14680;5215
48;68;14633;5251
48;75;14600;5277
49;71;14562;5318
55;73;14537;5335
55;80;14506;5359
58;69;14482;5391
59;76;14443;5422
57;85;14410;5448
59;95;14379;5467
57;96;14349;5498
61;97;14327;5515
59;99;14299;5543
67;106;14267;5560
66;119;14225;5590
68;116;14205;5611
69;124;14181;5626
80;131;14159;5630
85;140;14135;5640
101;148;14105;5646
101;161;14077;5661
103;164;14053;5680
120;163;14039;5678
125;180;14007;5688
145;197;13983;5675
137;207;13968;5688
151;212;13970;5667
149;226;13960;5665
174;234;13946;5646
175;250;13918;5657
180;268;13909;5643
173;272;13922;5633
178;279;13934;5609
204;284;13927;5585
215;306;13916;5563
221;313;13913;5553
206;335;13916;5543
208;363;13917;5512
228;380;13907;5485
263;389;13905;5443
254;423;13910;5413
255;430;13922;5393
287;448;13939;5326
293;484;13948;5275
299;519;13948;5234
329;518;13974;5179
356;534;14002;5108
370;556;14038;5036
369;590;14074;4967
383;601;14106;4910
409;636;14133;4822
431;648;14178;4743
431;680;14222;4667
414;723;14255;4608
432;745;14292;4531
425;769;14337;4469
445;788;14385;4382
445;814;14424;4317
435;832;14503;4230
440;842;14570;4148
458;846;14643;4053
454;864;14701;3981
442;875;14775;3908
447;880;14843;3830
454;881;14887;3778
484;875;14945;3696
457;890;15012;3641
440;882;15093;3585
459;865;15166;3510
452;883;15216;3449
453;880;15280;3387
441;898;15332;3329
440;890;15379;3291
427;878;15432;3263
419;877;15497;3207
412;875;15550;3163
386;888;15575;3151
371;889;15608;3132
363;870;15665;3102
376;822;15736;3066
380;815;15777;3028
338;846;15807;3009
332;812;15864;2992
307;813;15905;2975
310;784;15950;2956
308;743;15991;2958
291;722;16020;2967
289;704;16045;2962
290;685;16065;2960
271;645;16112;2972
264;637;16125;2974
261;625;16125;2989
261;605;16131;3003
244;585;16133;3038
252;569;16129;3050
254;562;16116;3068
234;554;16130;3082
232;545;16133;3090
232;534;16119;3115
237;510;16127;3126
224;512;16116;3148
221;512;16108;3159
232;504;16097;3167
219;478;16092;3211
205;464;16090;3241
204;454;16079;3263
213;450;16046;3291
204;430;16059;3307
217;423;16032;3328
195;426;16022;3357
176;439;15978;3407
185;432;15942;3441
197;426;15922;3455
195;431;15889;3485
198;442;15849;3511
211;436;15837;3516
221;432;15785;3562
224;439;15766;3571
240;419;15745;3596
223;426;15745;3606
225;422;15709;3644
244;423;15681;3652
230;428;15662;3680
216;432;15633;3719
210;443;15607;3740
197;462;15570;3771
200;459;15552;3789
210;454;15533;3803
203;444;15525;3828
200;438;15506;3856
200;437;15481;3882
206;437;15459;3898
210;437;15432;3921
212;436;15419;3933
204;431;15403;3962
227;424;15375;3974
232;440;15333;3995
237;447;15309;4007
227;457;15290;4026
234;467;15252;4047
248;456;15256;4040
246;464;15242;4048
257;481;15220;4042
257;490;15200;4053
259;493;15176;4072
255;500;15153;4092
253;507;15145;4095
264;494;15125;4117
271;498;15120;4111
280;508;15129;4083
303;499;15132;4066
307;530;15089;4074
320;543;15069;4068
305;571;15072;4052
303;576;15083;4038
303;598;15078;4021
306;598;15073;4023
323;628;15057;3992
327;645;15055;3973
329;646;15066;3959
353;625;15072;3950
344;629;15074;3953
348;627;15098;3927
361;645;15083;3911
382;656;15085;3877
373;656;15105;3866
375;684;15081;3860
376;686;15091;3847
353;715;15112;3820
364;738;15104;3794
356;746;15130;3768
351;752;15132;3765
351;742;15170;3737
350;749;15168;3733
381;723;15182;3714
368;726;15199;3707
366;733;15226;3675
377;723;15234;3666
369;724;15235;3672
364;729;15253;3654
348;769;15249;3634
330;769;15261;3640
356;740;15280;3624
365;740;15298;3597
349;742;15318;3591
339;746;15335;3580
335;738;15384;3543
307;733;15409;3551
326;710;15409;3555
339;683;15416;3562
336;684;15416;3564
336;682;15414;3568
338;671;15407;3584
323;689;15395;3593
308;684;15401;3607
327;671;15396;3606
325;659;15417;3599
319;644;15428;3609
315;649;15400;3636
328;655;15382;3635
321;680;15374;3625
314;679;15372;3635
327;686;15361;3626
314;688;15378;3620
297;695;15357;3651
318;672;15351;3659
318;679;15347;3656
331;665;15356;3648
331;640;15370;3659
337;641;15377;3645
336;637;15371;3656
324;666;15367;3643
354;645;15375;3626
328;668;15367;3637
320;694;15337;3649
306;685;15339;3670
328;679;15335;3658
340;691;15315;3654
340;687;15301;3672
338;693;15307;3662
339;692;15300;3669
365;662;15319;3654
371;665;15311;3653
356;672;15313;3659
354;698;15298;3650
366;678;15307;3649
341;690;15303;3666
343;694;15296;3667
325;695;15327;3653
340;669;15330;3661
321;675;15338;3666
315;680;15338;3667
315;692;15329;3664
330;681;15326;3663
340;685;15320;3655
334;671;15347;3648
343;668;15352;3637
345;660;15364;3631
336;667;15360;3637
336;663;15366;3635
341;664;15372;3623
350;677;15346;3627
363;672;15356;3609
343;677;15346;3634
346;669;15358;3627
341;670;15342;3647
322;698;15343;3637
330;702;15331;3637
328;702;15330;3640
338;688;15329;3645
343;695;15337;3625
332;702;15339;3627
320;711;15337;3632
338;704;15336;3622
338;691;15358;3613
366;699;15338;3597
377;696;15314;3613
370;704;15310;3616
380;691;15320;3609
371;712;15307;3610
354;735;15307;3604
357;721;15333;3589
353;713;15356;3578
367;711;15347;3575
344;735;15354;3567
321;753;15349;3577
331;758;15334;3577
337;736;15371;3556
329;731;15375;3565
353;728;15370;3549
347;727;15393;3533
335;740;15404;3521
348;728;15405;3519
348;734;15401;3517
360;734;15416;3490
347;756;15410;3487
323;737;15448;3492
322;716;15457;3505
331;716;15438;3515
333;720;15445;3502
319;719;15448;3514
358;702;15422;3518
363;723;15414;3500
364;739;15423;3474
348;741;15438;3473
372;721;15466;3441
342;734;15469;3455
337;750;15468;3445
342;742;15474;3442
341;722;15493;3444
320;732;15501;3447
299;733;15510;3458
313;715;15519;3453
321;691;15540;3448
314;705;15547;3434
335;692;15553;3420
314;705;15545;3436
290;683;15560;3467
287;659;15567;3487
295;655;15567;3483
286;652;15543;3519
301;641;15524;3534
287;635;15539;3539
288;650;15516;3546
299;636;15543;3522
310;622;15534;3534
298;636;15517;3549
308;629;15503;3560
309;648;15486;3557
301;647;15471;3581
327;621;15465;3587
322;622;15443;3613
289;654;15408;3649
301;651;15394;3654
308;647;15386;3659
329;644;15368;3659
341;636;15373;3650
336;661;15357;3646
339;665;15359;3637
334;691;15337;3638
330;688;15330;3652
334;686;15329;3651
339;688;15308;3665
332;695;15311;3662
327;683;15338;3652
345;674;15330;3651
352;684;15336;3628
321;693;15342;3644
331;699;15346;3624
313;704;15352;3631
350;681;15361;3608
338;678;15364;3620
334;663;15358;3645
340;661;15356;3643
329;667;15371;3633
343;653;15379;3625
337;643;15393;3627
315;660;15373;3652
310;672;15352;3666
303;654;15355;3688
311;669;15342;3678
325;662;15342;3671
329;636;15358;3677
337;637;15341;3685
330;654;15332;3684
326;666;15318;3690
323;664;15326;3687
336;646;15343;3675
335;672;15318;3675
345;668;15318;3669
370;663;15332;3635
356;671;15328;3645
363;684;15319;3634
354;709;15319;3618
351;724;15324;3601
346;725;15347;3582
350;740;15349;3561
358;713;15359;3570
345;725;15380;3550
350;749;15374;3527
352;745;15380;3523
360;753;15397;3490
347;760;15421;3472
346;776;15420;3458
345;763;15431;3461
365;770;15434;3431
372;758;15460;3410
368;762;15473;3397
362;753;15471;3414
351;726;15481;3442
360;718;15487;3435
359;703;15504;3434
360;702;15506;3432
372;705;15493;3430
379;711;15463;3447
394;717;15466;3423
358;738;15475;3429
357;730;15478;3435
355;715;15499;3431
351;717;15504;3428
333;735;15503;3429
316;741;15503;3440
307;734;15498;3461
313;701;15505;3481
305;693;15503;3499
311;679;15501;3509
316;673;15490;3521
316;680;15474;3530
325;681;15463;3531
321;667;15456;3556
309;660;15472;3559
311;637;15457;3595
301;617;15469;3613
305;605;15450;3640
302;606;15422;3670
312;632;15403;3653
313;638;15402;3647
299;630;15393;3678
305;621;15400;3674
302;629;15358;3711
314;646;15345;3695
336;655;15320;3689
328;666;15323;3683
345;656;15294;3705
350;663;15277;3710
334;667;15295;3704
358;677;15257;3708
361;678;15249;3712
330;715;15222;3733
311;719;15220;3750
314;711;15219;3756
317;709;15210;3764
310;695;15211;3784
314;684;15216;3786
356;671;15212;3761
354;696;15197;3753
359;707;15174;3760
359;697;15177;3767
346;698;15199;3757
354;704;15184;3758
372;704;15194;3730
331;722;15193;3754
309;730;15184;3777
337;702;15190;3771
331;677;15200;3792
329;668;15180;3823
349;666;15166;3819
353;672;15144;3831
338;682;15144;3836
367;700;15115;3818
357;718;15116;3809
368;722;15124;3786
376;743;15109;3772
389;745;15115;3751
380;766;15119;3735
372;791;15108;3729
383;792;15101;3724
379;811;15093;3717
371;806;15103;3720
391;799;15101;3709
388;806;15105;3701
397;792;15136;3675
398;789;15130;3683
374;782;15149;3695
379;777;15169;3675
376;796;15169;3659
374;794;15179;3653
386;751;15217;3646
374;736;15244;3646
394;710;15230;3666
385;712;15242;3661
354;738;15233;3675
344;739;15247;3670
341;739;15252;3668
338;737;15244;3681
364;717;15265;3654
350;718;15253;3679
366;715;15261;3658
360;721;15269;3650
358;738;15276;3628
370;742;15276;3612
352;736;15282;3630
343;722;15306;3629
328;725;15322;3625
321;745;15301;3633
337;744;15305;3614
360;752;15292;3596
354;758;15297;3591
381;767;15303;3549
370;771;15314;3545
367;773;15336;3524
346;756;15369;3529
329;769;15379;3523
342;746;15394;3518
353;736;15404;3507
346;735;15410;3509
370;729;15417;3484
368;732;15411;3489
369;728;15438;3465
389;744;15432;3435
364;749;15429;3458
348;752;15418;3482
354;741;15425;3480
354;730;15437;3479
363;752;15427;3458
348;749;15426;3477
320;745;15448;3487
329;743;15454;3474
321;746;15451;3482
334;717;15469;3480
332;711;15477;3480
321;731;15475;3473
316;712;15489;3483
329;701;15481;3489
310;723;15477;3490
313;710;15472;3505
321;707;15464;3508
329;707;15447;3517
347;700;15447;3506
350;700;15454;3496
349;709;15433;3509
350;700;15451;3499
332;718;15442;3508
335;710;15470;3485
351;708;15462;3479
355;681;15482;3482
343;676;15494;3487
331;670;15498;3501
321;661;15516;3502
314;665;15498;3523
302;680;15481;3537
312;675;15469;3544
293;675;15449;3583
301;650;15452;3597
304;642;15445;3609
303;650;15437;3610
268;663;15438;3631
280;646;15455;3619
288;650;15438;3624
289;656;15426;3629
298;647;15423;3632
309;637;15420;3634
324;616;15402;3658
289;662;15385;3664
287;636;15409;3668
295;609;15391;3705
302;598;15398;3702
307;588;15375;3730
312;594;15358;3736
312;584;15381;3723
298;605;15353;3744
299;597;15353;3751
301;601;15333;3765
296;600;15337;3767
311;595;15330;3764
316;620;15293;3771
307;647;15276;3770
300;639;15278;3783
316;643;15250;3791
309;640;15230;3821
317;632;15235;3816
344;609;15241;3806
322;627;15228;3823
335;631;15231;3803
329;640;15223;3808
315;648;15209;3828
309;656;15183;3852
288;644;15201;3867
294;643;15188;3875
312;632;15188;3868
304;634;15193;3869
327;594;15200;3879
334;599;15199;3868
307;617;15179;3897
294;640;15180;3886
299;649;15164;3888
314;652;15147;3887
314;651;15152;3883
313;638;15169;3880
309;652;15150;3889
334;659;15144;3863
336;675;15126;3863
352;674;15144;3830
360;665;15137;3838
337;685;15125;3853
339;705;15128;3828
352;698;15136;3814
355;697;15130;3818
355;709;15141;3795
370;721;15139;3770
369;727;15153;3751
378;727;15166;3729
368;756;15169;3707
373;763;15180;3684
339;789;15184;3688
345;774;15187;3694
