0;20;0;19980
12;20;0;19968
31;24;2;19943
47;27;5;19921
57;35;8;19900
70;43;13;19874
84;55;19;19842
108;62;32;19798
143;89;34;19734
167;119;45;19669
210;160;58;19572
294;201;76;19429
364;264;110;19262
493;334;140;19033
669;432;180;18719
891;565;229;18315
1075;757;305;17863
1368;945;424;17263
1675;1206;554;16565
2024;1549;736;15691
2483;1861;962;14694
2944;2288;1219;13549
3395;2809;1525;12271
3819;3463;1869;10849
4248;4032;2348;9372
4463;4784;2867;7886
4520;5391;3506;6583
4570;5914;4205;5311
4310;6488;4954;4248
4082;6869;5790;3259
3706;7103;6722;2469
3227;7281;7589;1903
2736;7203;8577;1484
2276;7019;9547;1158
1892;6730;10427;951
1559;6415;11247;779
1253;5987;12114;646
1033;5582;12840;545
846;5145;13521;488
694;4679;14181;446
559;4274;14747;420
452;3881;15264;403
352;3470;15759;419
292;3115;16155;438
253;2788;16510;449
231;2494;16820;455
205;2191;17123;481
186;1944;17355;515
171;1713;17576;540
146;1536;17735;583
122;1367;17891;620
107;1222;18020;651
98;1095;18117;690
93;982;18195;730
93;861;18268;778
83;766;18332;819
72;679;18380;869
65;603;18415;917
69;544;18430;957
60;475;18469;996
56;429;18459;1056
47;386;18461;1106
43;357;18442;1158
51;320;18426;1203
42;293;18405;1260
35;259;18375;1331
44;232;18340;1384
48;211;18307;1434
42;194;18270;1494
44;165;18254;1537
43;159;18204;1594
41;140;18164;1655
31;132;18122;1715
30;117;18085;1768
27;112;18040;1821
30;103;17990;1877
33;94;17944;1929
31;88;17896;1985
27;81;17848;2044
28;81;17783;2108
29;75;17729;2167
27;70;17686;2217
26;68;17627;2279
24;66;17589;2321
20;65;17543;2372
17;66;17500;2417
19;56;17461;2464
19;55;17416;2510
21;52;17363;2564
20;56;17322;2602
16;55;17272;2657
15;48;17226;2711
18;44;17179;2759
18;41;17150;2791
19;38;17094;2849
13;44;17036;2907
14;38;16996;2952
15;40;16945;3000
15;40;16884;3061
10;41;16829;3120
15;38;16787;3160
16;40;16731;3213
20;40;16678;3262
14;36;16646;3304
16;36;16604;3344
16;34;16563;3387
18;36;16506;3440
20;35;16468;3477
18;36;16429;3517
18;35;16371;3576
15;36;16329;3620
10;36;16282;3672
12;34;16237;3717
11;36;16183;3770
13;35;16136;3816
14;36;16090;3860
15;32;16054;3899
18;33;16007;3942
19;33;15961;3987
20;31;15919;4030
19;34;15881;4066
14;36;15827;4123
17;34;15777;4172
18;36;15732;4214
21;40;15695;4244
21;41;15666;4272
18;44;15617;4321
14;42;15578;4366
15;44;15541;4400
18;45;15499;4438
20;45;15458;4477
28;42;15429;4501
27;40;15394;4539
24;42;15338;4596
26;43;15301;4630
25;47;15260;4668
25;43;15220;4712
20;47;15181;4752
22;49;15137;4792
26;45;15100;4829
29;50;15074;4847
37;48;15039;4876
28;58;15005;4909
35;58;14971;4936
36;62;14940;4962
35;67;14908;4990
40;74;14871;5015
48;72;14833;5047
51;72;14809;5068
50;82;14768;5100
58;84;14730;5128
61;89;14693;5157
66;97;14650;5187
57;109;14612;5222
58;123;14574;5245
68;121;14544;5267
73;126;14521;5280
86;127;14502;5285
79;126;14490;5305
73;134;14465;5328
71;132;14448;5349
62;134;14429;5375
61;142;14397;5400
77;149;14360;5414
92;147;14337;5424
102;142;14317;5439
97;161;14310;5432
107;169;14289;5435
110;172;14280;5438
116;184;14259;5441
125;193;14248;5434
118;212;14218;5452
129;213;14205;5453
139;225;14182;5454
154;225;14185;5436
158;231;14176;5435
161;245;14169;5425
170;246;14168;5416
186;261;14157;5396
201;273;14140;5386
208;280;14144;5368
226;302;14138;5334
241;319;14142;5298
220;347;14134;5299
229;360;14138;5273
247;395;14111;5247
257;410;14121;5212
251;449;14125;5175
257;462;14156;5125
262;473;14178;5087
275;467;14216;5042
291;461;14240;5008
299;479;14237;4985
302;522;14235;4941
317;552;14254;4877
343;568;14279;4810
372;573;14308;4747
373;586;14338;4703
376;616;14363;4645
371;645;14388;4596
381;657;14428;4534
393;676;14478;4453
410;690;14519;4381
380;730;14572;4318
368;745;14627;4260
394;751;14661;4194
410;760;14715;4115
405;791;14751;4053
402;792;14790;4016
393;805;14824;3978
385;831;14872;3912
393;827;14925;3855
404;820;14977;3799
392;810;15033;3765
402;806;15088;3704
413;799;15135;3653
410;797;15201;3592
395;812;15260;3533
420;807;15303;3470
381;829;15355;3435
380;826;15407;3387
374;825;15471;3330
377;821;15499;3303
380;821;15545;3254
373;806;15585;3236
372;789;15644;3195
352;777;15698;3173
361;774;15726;3139
356;759;15779;3106
356;756;15814;3074
336;728;15873;3063
341;719;15896;3044
320;724;15923;3033
311;705;15942;3042
287;701;15954;3058
279;687;15956;3078
277;683;15966;3074
260;670;15988;3082
236;667;16003;3094
245;631;16048;3076
239;619;16049;3093
241;582;16075;3102
235;562;16078;3125
241;557;16084;3118
232;558;16050;3160
238;550;16036;3176
246;528;16009;3217
232;538;15982;3248
246;545;15958;3251
251;535;15956;3258
259;543;15924;3274
247;553;15918;3282
259;538;15938;3265
268;512;15952;3268
258;523;15933;3286
256;527;15923;3294
244;536;15900;3320
227;537;15858;3378
223;534;15832;3411
210;530;15835;3425
219;519;15825;3437
214;521;15789;3476
216;522;15789;3473
217;518;15754;3511
216;523;15733;3528
226;521;15709;3544
229;518;15698;3555
236;513;15674;3577
236;519;15644;3601
234;508;15636;3622
237;485;15641;3637
242;487;15614;3657
247;495;15578;3680
227;514;15564;3695
226;504;15553;3717
234;483;15551;3732
236;481;15538;3745
245;474;15516;3765
253;469;15498;3780
227;478;15497;3798
214;487;15470;3829
227;478;15458;3837
243;474;15434;3849
249;469;15433;3849
251;478;15419;3852
243;491;15374;3892
245;492;15358;3905
247;492;15351;3910
231;500;15350;3919
242;489;15327;3942
253;491;15300;3956
278;488;15263;3971
285;503;15232;3980
248;525;15212;4015
273;515;15204;4008
310;544;15173;3973
312;557;15159;3972
317;544;15168;3971
307;563;15136;3994
312;578;15118;3992
309;598;15113;3980
299;628;15101;3972
287;632;15106;3975
296;642;15104;3958
300;641;15091;3968
314;643;15093;3950
322;646;15092;3940
334;651;15096;3919
336;657;15092;3915
345;657;15083;3915
341;681;15089;3889
337;691;15093;3879
371;668;15104;3857
361;693;15092;3854
343;726;15087;3844
362;719;15114;3805
390;701;15135;3774
369;729;15125;3777
351;722;15158;3769
345;731;15163;3761
361;721;15182;3736
334;742;15180;3744
361;736;15182;3721
375;732;15158;3735
369;757;15164;3710
382;744;15193;3681
375;731;15242;3652
359;753;15234;3654
343;744;15259;3654
353;736;15260;3651
352;738;15268;3642
348;738;15290;3624
338;732;15293;3637
333;724;15314;3629
324;726;15316;3634
322;714;15336;3628
329;721;15336;3614
342;720;15342;3596
341;721;15343;3595
354;735;15345;3566
321;732;15355;3592
308;710;15396;3586
346;683;15418;3553
367;673;15437;3523
350;695;15443;3512
349;682;15462;3507
336;691;15463;3510
340;689;15463;3508
333;709;15430;3528
335;704;15438;3523
338;713;15439;3510
337;709;15444;3510
342;714;15442;3502
341;704;15461;3494
342;717;15456;3485
311;713;15480;3496
291;705;15477;3527
305;690;15486;3519
307;679;15482;3532
331;680;15470;3519
317;684;15468;3531
328;685;15463;3524
334;675;15469;3522
358;685;15445;3512
391;676;15436;3497
368;701;15417;3514
372;702;15406;3520
360;726;15413;3501
345;761;15379;3515
362;771;15367;3500
375;762;15332;3531
362;796;15324;3518
359;804;15309;3528
370;797;15332;3501
371;790;15358;3481
368;765;15388;3479
366;760;15396;3478
376;744;15420;3460
349;755;15446;3450
347;772;15436;3445
348;777;15449;3426
364;764;15455;3417
367;750;15483;3400
372;745;15501;3382
347;747;15510;3396
372;739;15523;3366
358;748;15501;3393
312;784;15500;3404
331;773;15508;3388
330;781;15484;3405
337;777;15491;3395
333;768;15490;3409
322;752;15495;3431
327;726;15514;3433
346;747;15494;3413
334;746;15497;3423
333;753;15487;3427
335;749;15492;3424
326;760;15459;3455
319;753;15457;3471
349;733;15463;3455
339;740;15454;3467
334;732;15458;3476
358;726;15450;3466
341;732;15461;3466
320;749;15470;3461
332;723;15492;3453
310;739;15493;3458
332;722;15494;3452
317;716;15501;3466
327;691;15489;3493
327;692;15465;3516
305;702;15467;3526
301;673;15497;3529
282;672;15483;3563
309;668;15470;3553
291;666;15479;3564
307;660;15466;3567
293;666;15472;3569
301;650;15476;3573
298;648;15466;3588
314;632;15438;3616
316;633;15420;3631
297;645;15413;3645
308;646;15396;3650
313;670;15394;3623
329;648;15399;3624
314;626;15410;3650
320;621;15413;3646
305;645;15394;3656
316;651;15363;3670
322;658;15366;3654
327;632;15355;3686
320;632;15345;3703
334;626;15353;3687
315;656;15328;3701
337;657;15327;3679
314;655;15335;3696
317;654;15317;3712
335;651;15293;3721
348;642;15295;3715
309;656;15290;3745
319;654;15269;3758
320;673;15255;3752
312;672;15241;3775
311;676;15258;3755
302;672;15254;3772
303;652;15254;3791
331;656;15226;3787
329;664;15192;3815
323;650;15218;3809
333;642;15215;3810
366;642;15206;3786
352;657;15225;3766
342;667;15220;3771
352;658;15214;3776
343;681;15201;3775
370;685;15199;3746
363;689;15216;3732
354;691;15229;3726
359;687;15238;3716
347;699;15240;3714
320;737;15227;3716
309;729;15233;3729
324;734;15204;3738
342;731;15196;3731
320;746;15201;3733
315;748;15219;3718
329;729;15251;3691
359;711;15242;3688
333;709;15247;3711
330;724;15255;3691
346;706;15267;3681
333;690;15287;3690
353;684;15303;3660
352;702;15305;3641
340;721;15303;3636
344;702;15339;3615
346;723;15321;3610
362;727;15315;3596
354;720;15325;3601
338;735;15318;3609
368;722;15311;3599
353;728;15306;3613
343;742;15312;3603
363;727;15321;3589
343;736;15349;3572
339;751;15338;3572
337;763;15353;3547
328;761;15378;3533
381;731;15401;3487
380;737;15433;3450
380;734;15450;3436
369;741;15460;3430
371;752;15445;3432
344;786;15452;3418
333;780;15459;3428
326;774;15468;3432
333;776;15467;3424
318;762;15494;3426
335;743;15497;3425
337;751;15495;3417
327;742;15509;3422
349;736;15507;3408
340;743;15500;3417
348;728;15501;3423
342;728;15496;3434
333;739;15486;3442
353;735;15476;3436
355;736;15479;3430
347;740;15453;3460
346;722;15451;3481
340;716;15443;3501
345;719;15427;3509
340;732;15418;3510
337;730;15404;3529
344;702;15422;3532
326;706;15436;3532
334;696;15442;3528
329;699;15451;3521
327;690;15478;3505
331;683;15493;3493
331;686;15477;3506
349;701;15451;3499
301;727;15447;3525
300;723;15443;3534
298;703;15453;3546
315;706;15433;3546
303;727;15443;3527
319;724;15434;3523
314;720;15444;3522
323;708;15472;3497
322;696;15476;3506
318;705;15466;3511
324;711;15486;3479
297;719;15481;3503
313;705;15472;3510
330;701;15464;3505
328;694;15461;3517
333;686;15453;3528
328;683;15459;3530
343;688;15439;3530
342;718;15413;3527
332;706;15391;3571
329;699;15401;3571
317;712;15385;3586
313;705;15373;3609
325;705;15350;3620
312;723;15345;3620
316;728;15329;3627
332;704;15308;3656
312;695;15313;3680
335;688;15311;3666
332;691;15294;3683
350;668;15307;3675
334;674;15308;3684
339;673;15303;3685
319;690;15292;3699
317;702;15278;3703
327;701;15288;3684
337;699;15286;3678
327;703;15287;3683
316;693;15300;3691
333;694;15299;3674
334;717;15263;3686
327;728;15252;3693
334;706;15270;3690
336;694;15274;3696
310;685;15300;3705
326;653;15307;3714
322;658;15291;3729
312;680;15279;3729
318;671;15255;3756
325;670;15256;3749
315;693;15236;3756
329;685;15222;3764
348;669;15242;3741
335;669;15238;3758
318;692;15230;3760
318;687;15233;3762
335;675;15223;3767
335;681;15219;3765
326;690;15226;3758
345;684;15240;3731
325;678;15250;3747
335;676;15256;3733
340;648;15250;3762
328;681;15215;3776
350;663;15224;3763
363;653;15226;3758
369;669;15214;3748
352;681;15197;3770
347;672;15213;3768
348;686;15192;3774
332;691;15185;3792
343;694;15181;3782
337;698;15185;3780
346;704;15177;3773
349;712;15172;3767
381;715;15163;3741
365;741;15142;3752
380;732;15152;3736
352;748;15140;3760
379;747;15140;3734
387;752;15141;3720
385;760;15150;3705
397;763;15159;3681
381;760;15158;3701
368;759;15173;3700
345;750;15184;3721
366;718;15218;3698
394;724;15218;3664
382;735;15246;3637
375;731;15252;3642
367;744;15257;3632
347;777;15270;3606
349;769;15273;3609
362;763;15262;3613
355;766;15280;3599
351;767;15298;3584
359;753;15300;3588
360;750;15295;3595
369;748;15307;3576
390;748;15318;3544
390;764;15323;3523
356;793;15338;3513
336;796;15353;3515
350;774;15370;3506
352;766;15395;3487
357;739;15421;3483
356;733;15423;3488
358;750;15428;3464
360;757;15437;3446
375;760;15448;3417
350;778;15442;3430
342;765;15470;3423
349;760;15460;3431
340;756;15475;3429
338;760;15459;3443
342;763;15451;3444
342;774;15432;3452
331;746;15474;3449
318;721;15487;3474
309;717;15497;3477
303;721;15492;3484
323;705;15491;3481
324;697;15477;3502
329;692;15472;3507
344;700;15442;3514
352;715;15429;3504
336;722;15441;3501
359;687;15459;3495
361;668;15469;3502
355;676;15463;3506
341;665;15462;3532
333;696;15431;3540
337;692;15422;3549
341;681;15438;3540
326;699;15423;3552
354;700;15404;3542
353;710;15407;3530
346;721;15412;3521
324;729;15414;3533
330;724;15405;3541
328;748;15402;3522
325;735;15415;3525
333;736;15404;3527
342;720;15413;3525
360;695;15404;3541
342;697;15426;3535
324;718;15423;3535
333;717;15414;3536
342;708;15404;3546
335;739;15357;3569
367;734;15333;3566
346;745;15336;3573
340;749;15337;3574
347;763;15327;3563
362;759;15332;3547
359;760;15334;3547
365;771;15329;3535
372;773;15335;3520
381;770;15358;3491
353;793;15343;3511
357;798;15359;3486
371;788;15356;3485
376;774;15363;3487
351;783;15359;3507
344;793;15352;3511
362;776;15378;3484
343;782;15389;3486
325;781;15397;3497
332;753;15418;3497
356;751;15424;3469
370;738;15440;3452
362;762;15426;3450
350;754;15421;3475
334;773;15428;3465
357;771;15424;3448
355;762;15416;3467
356;760;15406;3478
357;744;15409;3490
331;782;15411;3476
325;790;15408;3477
340;764;15432;3464
337;764;15415;3484
367;723;15449;3461
348;748;15442;3462
354;736;15453;3457
337;744;15452;3467
351;705;15478;3466
351;709;15483;3457
343;701;15489;3467
323;709;15494;3474
322;678;15518;3482
337;670;15522;3471
318;655;15536;3491
294;659;15520;3527
294;659;15489;3558
311;661;15460;3568
312;642;15453;3593
310;611;15463;3616
320;607;15445;3628
278;625;15427;3670
275;609;15421;3695
276;599;15434;3691
270;596;15434;3700
259;599;15424;3718
265;616;15396;3723
280;612;15394;3714
