0;20;0;19980
16;20;0;19964
26;21;3;19950
31;27;6;19936
47;32;8;19913
57;43;12;19888
92;51;17;19840
109;78;21;19792
163;100;30;19707
206;144;40;19610
275;185;58;19482
349;234;83;19334
449;310;115;19126
587;392;154;18867
737;515;209;18539
968;648;273;18111
1194;838;340;17628
1486;1054;469;16991
1802;1346;604;16248
2226;1671;780;15323
2634;2098;1016;14252
3155;2521;1302;13022
3640;3067;1621;11672
3917;3705;2050;10328
4230;4374;2507;8889
4504;5032;3055;7409
4644;5575;3753;6028
4536;6216;4439;4809
4276;6662;5269;3793
3896;6970;6179;2955
3452;7155;7130;2263
3009;7175;8074;1742
2586;7080;8993;1341
2173;6892;9902;1033
1781;6578;10821;820
1447;6193;11657;703
1182;5715;12489;614
972;5291;13209;528
793;4861;13868;478
637;4458;14457;448
530;4012;15022;436
419;3643;15506;432
352;3287;15931;430
290;2965;16317;428
244;2642;16690;424
219;2340;17017;424
184;2080;17301;435
167;1867;17504;462
150;1671;17695;484
133;1485;17876;506
124;1339;18012;525
115;1180;18145;560
99;1042;18248;611
93;925;18317;665
87;833;18372;708
84;737;18438;741
71;659;18486;784
70;580;18520;830
55;512;18555;878
52;460;18551;937
53;417;18539;991
57;385;18531;1027
47;346;18528;1079
46;315;18522;1117
44;283;18506;1167
29;255;18480;1236
29;226;18456;1289
27;212;18426;1335
30;182;18398;1390
33;166;18374;1427
32;140;18339;1489
32;125;18302;1541
22;119;18247;1612
26;109;18204;1661
20;100;18173;1707
14;97;18131;1758
14;85;18076;1825
22;73;18041;1864
22;68;17986;1924
21;66;17930;1983
17;60;17873;2050
16;59;17825;2100
11;56;17768;2165
12;48;17705;2235
17;42;17651;2290
17;38;17604;2341
17;35;17566;2382
11;38;17508;2443
8;40;17457;2495
13;32;17402;2553
12;31;17357;2600
15;29;17306;2650
12;30;17243;2715
12;26;17199;2763
9;27;17159;2805
13;25;17120;2842
16;23;17070;2891
15;27;17021;2937
12;27;16985;2976
10;27;16943;3020
9;25;16902;3064
8;23;16861;3108
6;26;16822;3146
10;24;16781;3185
10;19;16738;3233
9;16;16700;3275
9;17;16662;3312
4;18;16622;3356
2;17;16587;3394
6;14;16544;3436
6;13;16488;3493
7;14;16451;3528
6;16;16400;3578
5;17;16343;3635
8;16;16297;3679
7;16;16243;3734
9;17;16184;3790
8;18;16139;3835
8;20;16089;3883
7;20;16053;3920
10;22;16008;3960
10;24;15957;4009
13;23;15911;4053
12;22;15875;4091
8;27;15816;4149
8;31;15764;4197
10;32;15736;4222
13;29;15684;4274
10;31;15648;4311
9;28;15602;4361
12;29;15556;4403
14;30;15512;4444
15;31;15461;4493
11;31;15398;4560
10;36;15351;4603
16;32;15308;4644
15;36;15254;4695
18;35;15218;4729
20;35;15191;4754
25;31;15159;4785
28;32;15124;4816
23;32;15088;4857
23;37;15044;4896
21;43;15006;4930
25;44;14964;4967
22;45;14925;5008
22;43;14883;5052
24;46;14840;5090
23;49;14809;5119
26;54;14766;5154
26;53;14732;5189
30;55;14699;5216
32;53;14659;5256
21;62;14620;5297
25;62;14587;5326
40;66;14546;5348
44;71;14508;5377
43;78;14489;5390
36;81;14479;5404
46;79;14450;5425
55;81;14420;5444
42;89;14398;5471
61;88;14383;5468
69;89;14355;5487
58;98;14322;5522
61;100;14279;5560
69;92;14264;5575
80;102;14242;5576
77;99;14216;5608
82;107;14182;5629
77;114;14148;5661
81;117;14121;5681
89;127;14099;5685
91;138;14086;5685
109;145;14062;5684
117;160;14035;5688
116;173;14021;5690
112;185;14012;5691
132;186;13992;5690
139;206;13970;5685
146;219;13972;5663
147;241;13959;5653
150;244;13945;5661
155;256;13938;5651
170;261;13937;5632
175;285;13922;5618
172;307;13912;5609
183;310;13902;5605
188;312;13907;5593
205;320;13902;5573
221;346;13895;5538
229;360;13888;5523
229;387;13886;5498
252;388;13893;5467
259;410;13887;5444
285;420;13899;5396
300;453;13906;5341
310;473;13927;5290
325;474;13964;5237
339;501;13989;5171
329;540;14018;5113
343;566;14034;5057
346;594;14065;4995
346;604;14106;4944
370;619;14125;4886
382;648;14144;4826
395;663;14185;4757
389;691;14223;4697
376;723;14282;4619
393;728;14311;4568
408;733;14350;4509
461;729;14390;4420
428;774;14432;4366
416;792;14500;4292
429;794;14547;4230
436;791;14620;4153
435;813;14693;4059
425;824;14750;4001
419;824;14822;3935
439;838;14863;3860
449;834;14920;3797
445;862;14970;3723
441;874;15027;3658
428;886;15077;3609
442;901;15128;3529
442;888;15205;3465
429;908;15250;3413
408;917;15292;3383
403;900;15368;3329
416;888;15423;3273
396;893;15481;3230
392;885;15539;3184
384;885;15578;3153
372;886;15632;3110
379;860;15710;3051
384;845;15765;3006
357;860;15803;2980
348;842;15856;2954
343;839;15881;2937
335;818;15918;2929
335;787;15959;2919
339;795;15977;2889
338;768;16015;2879
319;756;16037;2888
306;757;16059;2878
294;733;16097;2876
291;719;16112;2878
277;699;16138;2886
279;665;16146;2910
270;646;16175;2909
258;629;16197;2916
257;599;16220;2924
228;605;16207;2960
223;590;16200;2987
224;584;16203;2989
241;572;16208;2979
244;571;16188;2997
235;574;16172;3019
224;570;16165;3041
242;537;16172;3049
241;564;16125;3070
227;569;16103;3101
229;547;16114;3110
226;537;16114;3123
214;515;16114;3157
229;501;16099;3171
225;490;16065;3220
226;487;16049;3238
219;468;16044;3269
207;472;16041;3280
219;475;16035;3271
219;469;16012;3300
206;459;16014;3321
198;466;15993;3343
201;455;15975;3369
212;453;15951;3384
215;444;15922;3419
203;444;15919;3434
195;444;15878;3483
210;452;15833;3505
224;430;15822;3524
215;433;15769;3583
225;446;15725;3604
224;460;15685;3631
228;473;15669;3630
212;478;15653;3657
226;482;15625;3667
230;469;15631;3670
248;471;15594;3687
251;485;15561;3703
241;487;15552;3720
241;509;15528;3722
261;494;15529;3716
239;513;15509;3739
243;515;15491;3751
230;520;15506;3744
241;522;15481;3756
234;525;15446;3795
239;509;15432;3820
245;498;15417;3840
249;517;15379;3855
248;524;15355;3873
245;531;15328;3896
258;528;15323;3891
254;528;15310;3908
263;538;15295;3904
253;552;15286;3909
275;545;15277;3903
281;547;15265;3907
285;534;15263;3918
288;515;15247;3950
287;531;15216;3966
292;564;15169;3975
307;557;15170;3966
308;559;15164;3969
315;573;15146;3966
306;594;15128;3972
287;609;15112;3992
315;618;15089;3978
315;610;15085;3990
309;614;15098;3979
318;604;15095;3983
310;607;15082;4001
304;606;15100;3990
307;623;15084;3986
323;624;15057;3996
306;619;15046;4029
317;624;15027;4032
316;632;15011;4041
313;656;15014;4017
321;655;15016;4008
341;650;15030;3979
353;641;15030;3976
361;632;15035;3972
353;661;15022;3964
325;668;15031;3976
327;673;15013;3987
323;681;15011;3985
335;669;15032;3964
345;679;15027;3949
368;673;15035;3924
369;675;15024;3932
367;720;15031;3882
350;724;15033;3893
353;732;15065;3850
360;733;15041;3866
351;742;15046;3861
387;735;15047;3831
420;729;15042;3809
418;755;15040;3787
416;759;15054;3771
412;794;15043;3751
409;793;15058;3740
387;810;15089;3714
401;787;15133;3679
422;777;15168;3633
402;785;15178;3635
390;784;15195;3631
398;791;15197;3614
394;795;15208;3603
413;792;15221;3574
409;801;15225;3565
375;823;15243;3559
394;811;15263;3532
382;841;15251;3526
389;820;15281;3510
403;798;15328;3471
402;813;15331;3454
371;801;15374;3454
353;791;15421;3435
368;768;15451;3413
369;765;15463;3403
360;775;15450;3415
322;769;15474;3435
336;744;15472;3448
339;752;15486;3423
340;750;15505;3405
348;748;15495;3409
327;773;15489;3411
345;747;15503;3405
339;749;15515;3397
328;736;15508;3428
310;738;15499;3453
320;741;15494;3445
324;721;15507;3448
306;736;15487;3471
318;724;15491;3467
339;714;15494;3453
329;695;15512;3464
356;676;15521;3447
351;686;15501;3462
354;679;15496;3471
360;673;15502;3465
334;702;15510;3454
317;718;15510;3455
311;717;15502;3470
312;707;15493;3488
310;685;15515;3490
324;678;15520;3478
301;681;15523;3495
299;687;15521;3493
301;681;15534;3484
285;676;15524;3515
282;664;15518;3536
280;654;15510;3556
294;635;15497;3574
309;629;15490;3572
298;633;15478;3591
302;620;15481;3597
318;607;15484;3591
317;602;15472;3609
320;607;15443;3630
314;620;15425;3641
293;627;15429;3651
293;624;15421;3662
305;611;15409;3675
305;607;15412;3676
319;596;15402;3683
310;588;15386;3716
301;590;15375;3734
310;596;15371;3723
314;610;15356;3720
308;610;15357;3725
312;621;15325;3742
308;615;15329;3748
314;603;15337;3746
309;619;15332;3740
328;618;15335;3719
321;614;15342;3723
305;630;15336;3729
307;629;15327;3737
333;619;15312;3736
316;635;15308;3741
300;654;15281;3765
308;657;15250;3785
308;661;15235;3796
337;639;15233;3791
312;658;15225;3805
337;661;15213;3789
338;666;15222;3774
312;688;15228;3772
329;677;15238;3756
345;693;15220;3742
345;710;15214;3731
354;716;15234;3696
351;695;15265;3689
334;709;15287;3670
338;720;15298;3644
347;712;15317;3624
312;722;15318;3648
341;695;15325;3639
349;705;15311;3635
350;702;15330;3618
357;719;15350;3574
364;725;15346;3565
366;737;15358;3539
364;741;15375;3520
344;752;15379;3525
331;784;15378;3507
324;777;15403;3496
329;778;15414;3479
328;778;15429;3465
338;760;15437;3465
335;760;15441;3464
315;758;15450;3477
341;728;15468;3463
356;705;15509;3430
364;696;15512;3428
345;699;15508;3448
361;689;15523;3427
349;680;15517;3454
374;682;15507;3437
347;685;15507;3461
328;711;15500;3461
311;723;15507;3459
321;720;15482;3477
340;709;15488;3463
324;719;15502;3455
321;716;15505;3458
312;714;15505;3469
333;681;15527;3459
332;687;15541;3440
317;707;15524;3452
310;705;15531;3454
312;707;15519;3462
310;695;15520;3475
332;681;15520;3467
336;679;15518;3467
323;693;15506;3478
318;690;15513;3479
313;703;15513;3471
290;713;15521;3476
295;705;15508;3492
313;702;15483;3502
337;688;15486;3489
320;687;15503;3490
320;694;15481;3505
325;699;15472;3504
323;693;15479;3505
319;678;15515;3488
306;678;15523;3493
297;687;15545;3471
313;689;15516;3482
322;672;15530;3476
303;683;15530;3484
315;672;15537;3476
329;647;15547;3477
306;660;15527;3507
319;668;15521;3492
318;650;15532;3500
314;641;15537;3508
325;633;15528;3514
325;637;15518;3520
307;665;15491;3537
315;676;15470;3539
325;667;15482;3526
324;667;15480;3529
322;676;15482;3520
307;699;15485;3509
307;700;15481;3512
310;685;15484;3521
318;680;15464;3538
325;681;15448;3546
325;649;15471;3555
334;652;15465;3549
349;639;15455;3557
335;662;15440;3563
319;677;15444;3560
315;668;15450;3567
324;665;15437;3574
318;686;15427;3569
310;685;15422;3583
315;678;15433;3574
317;692;15437;3554
348;688;15442;3522
346;658;15453;3543
326;677;15440;3557
347;663;15426;3564
323;699;15431;3547
334;690;15429;3547
340;700;15417;3543
352;692;15395;3561
333;717;15365;3585
334;714;15381;3571
348;707;15384;3561
364;690;15382;3564
351;698;15379;3572
342;712;15360;3586
352;679;15398;3571
348;693;15388;3571
342;717;15380;3561
353;716;15365;3566
348;717;15371;3564
360;702;15347;3591
360;702;15351;3587
343;705;15367;3585
336;693;15369;3602
343;700;15350;3607
336;718;15341;3605
320;735;15337;3608
332;728;15333;3607
323;728;15333;3616
331;721;15319;3629
328;705;15341;3626
335;687;15371;3607
344;690;15356;3610
336;710;15352;3602
358;716;15333;3593
354;719;15335;3592
329;721;15352;3598
327;716;15358;3599
316;730;15337;3617
328;703;15359;3610
321;705;15359;3615
342;698;15359;3601
341;699;15367;3593
356;720;15333;3591
368;738;15323;3571
330;774;15298;3598
343;746;15315;3596
348;756;15292;3604
347;760;15285;3608
342;752;15293;3613
364;743;15293;3600
364;747;15275;3614
370;757;15274;3599
393;769;15263;3575
365;778;15280;3577
374;773;15286;3567
388;753;15293;3566
366;745;15316;3573
369;753;15307;3571
375;751;15315;3559
369;726;15344;3561
348;766;15331;3555
331;757;15348;3564
331;751;15336;3582
340;728;15344;3588
346;738;15347;3569
333;728;15369;3570
340;731;15362;3567
359;689;15381;3571
353;690;15358;3599
350;690;15358;3602
341;689;15370;3600
326;700;15362;3612
320;711;15354;3615
322;719;15340;3619
351;707;15341;3601
343;718;15356;3583
323;718;15353;3606
331;709;15343;3617
342;709;15353;3596
340;715;15361;3584
354;709;15375;3562
342;713;15381;3564
322;715;15371;3592
354;687;15378;3581
337;697;15369;3597
329;684;15390;3597
307;665;15422;3606
309;672;15404;3615
323;685;15362;3630
326;677;15360;3637
330;667;15361;3642
343;670;15348;3639
326;664;15359;3651
326;646;15358;3670
312;658;15342;3688
316;646;15335;3703
314;654;15303;3729
359;647;15278;3716
331;653;15264;3752
336;643;15287;3734
332;641;15274;3753
338;660;15260;3742
351;675;15244;3730
355;673;15243;3729
353;665;15237;3745
332;682;15240;3746
343;678;15248;3731
349;673;15246;3732
376;672;15245;3707
355;701;15235;3709
352;692;15241;3715
358;697;15243;3702
366;699;15232;3703
337;713;15235;3715
330;715;15243;3712
346;700;15258;3696
336;729;15233;3702
323;724;15246;3707
329;729;15243;3699
349;723;15240;3688
366;723;15245;3666
388;703;15259;3650
380;708;15263;3649
356;723;15270;3651
347;748;15283;3622
359;738;15298;3605
369;741;15298;3592
353;745;15301;3601
345;731;15317;3607
377;719;15324;3580
379;716;15309;3596
384;707;15323;3586
362;712;15340;3586
342;745;15320;3593
361;733;15331;3575
355;712;15345;3588
359;715;15347;3579
341;733;15341;3585
327;744;15358;3571
348;728;15370;3554
355;727;15369;3549
372;724;15373;3531
366;720;15382;3532
368;723;15364;3545
369;720;15381;3530
361;731;15376;3532
370;744;15349;3537
360;742;15357;3541
349;760;15371;3520
338;769;15366;3527
341;771;15384;3504
385;772;15379;3464
369;784;15390;3457
382;763;15425;3430
377;790;15427;3406
370;781;15431;3418
346;795;15429;3430
342;756;15452;3450
342;746;15481;3431
340;734;15494;3432
329;736;15482;3453
319;726;15491;3464
316;730;15485;3469
329;717;15480;3474
342;732;15467;3459
328;734;15487;3451
316;748;15485;3451
335;751;15475;3439
338;722;15493;3447
355;718;15487;3440
353;701;15492;3454
349;688;15502;3461
351;710;15502;3437
341;724;15498;3437
329;731;15517;3423
311;725;15521;3443
319;720;15521;3440
308;725;15508;3459
309;705;15513;3473
336;685;15515;3464
325;689;15523;3463
321;693;15506;3480
317;709;15490;3484
314;696;15499;3491
306;683;15507;3504
315;674;15486;3525
305;663;15482;3550
296;679;15470;3555
287;677;15475;3561
299;662;15479;3560
323;633;15485;3559
330;636;15489;3545
321;632;15471;3576
313;634;15473;3580
324;623;15493;3560
319;635;15479;3567
