0;20;0;19980
7;20;0;19973
20;17;4;19959
32;25;4;19939
44;32;6;19918
67;36;11;19886
82;46;16;19856
113;60;20;19807
138;81;29;19752
168;98;37;19697
193;136;54;19617
252;155;80;19513
322;211;93;19374
431;273;121;19175
533;361;160;18946
669;463;212;18656
841;588;297;18274
1078;727;380;17815
1332;952;468;17248
1671;1177;603;16549
2099;1472;765;15664
2509;1898;959;14634
2948;2353;1213;13486
3311;2871;1539;12279
3792;3354;1958;10896
4091;4010;2395;9504
4408;4653;2919;8020
4565;5240;3514;6681
4566;5848;4182;5404
4461;6319;4940;4280
4147;6767;5763;3323
3764;7023;6626;2587
3246;7176;7568;2010
2806;7120;8510;1564
2381;6979;9402;1238
2013;6679;10312;996
1640;6334;11242;784
1318;5977;12047;658
1076;5544;12825;555
877;5110;13523;490
704;4668;14168;460
600;4284;14693;423
486;3871;15215;428
394;3499;15690;417
321;3130;16122;427
270;2789;16510;431
244;2479;16832;445
194;2216;17116;474
173;2019;17300;508
147;1800;17527;526
128;1616;17709;547
119;1434;17861;586
114;1279;17987;620
106;1120;18107;667
108;985;18204;703
92;891;18261;756
81;797;18312;810
88;713;18336;863
78;635;18383;904
74;577;18392;957
77;523;18405;995
68;474;18404;1054
64;411;18414;1111
66;379;18388;1167
66;335;18392;1207
59;314;18370;1257
45;287;18356;1312
51;242;18344;1363
56;212;18319;1413
46;191;18289;1474
40;183;18249;1528
38;160;18200;1602
42;156;18144;1658
46;135;18095;1724
47;121;18057;1775
36;115;18013;1836
32;109;17957;1902
32;107;17908;1953
32;101;17870;1997
30;103;17808;2059
28;89;17757;2126
26;84;17714;2176
23;75;17663;2239
22;67;17611;2300
24;62;17564;2350
19;64;17495;2422
19;55;17455;2471
19;54;17391;2536
16;52;17335;2597
19;47;17300;2634
19;42;17249;2690
20;43;17210;2727
15;46;17144;2795
17;43;17088;2852
17;38;17037;2908
12;37;16983;2968
10;41;16932;3017
9;40;16894;3057
14;36;16849;3101
12;38;16794;3156
11;39;16759;3191
17;39;16713;3231
15;43;16659;3283
20;43;16611;3326
15;43;16574;3368
13;43;16535;3409
13;43;16483;3461
11;44;16442;3503
11;43;16399;3547
12;42;16357;3589
12;40;16319;3629
9;38;16278;3675
9;32;16226;3733
9;31;16178;3782
11;28;16127;3834
13;27;16071;3889
8;28;16017;3947
12;24;15973;3991
9;25;15928;4038
7;26;15888;4079
4;27;15841;4128
7;23;15803;4167
14;18;15771;4197
15;17;15724;4244
14;19;15683;4284
15;23;15628;4334
16;27;15576;4381
17;29;15533;4421
14;30;15490;4466
12;30;15447;4511
15;26;15409;4550
13;32;15365;4590
18;28;15330;4624
25;24;15296;4655
19;35;15258;4688
21;32;15213;4734
23;27;15172;4778
27;25;15139;4809
24;28;15100;4848
24;27;15063;4886
26;26;15023;4925
23;27;14984;4966
23;34;14942;5001
20;35;14921;5024
26;31;14883;5060
24;34;14841;5101
26;33;14794;5147
27;33;14758;5182
19;38;14723;5220
19;35;14689;5257
21;33;14657;5289
20;35;14633;5312
21;39;14600;5340
26;39;14559;5376
36;36;14524;5404
35;44;14487;5434
36;45;14436;5483
35;48;14390;5527
37;57;14348;5558
40;58;14318;5584
37;58;14286;5619
48;60;14246;5646
46;63;14206;5685
49;65;14174;5712
45;75;14141;5739
39;80;14117;5764
38;81;14101;5780
42;78;14068;5812
41;77;14044;5838
45;83;14013;5859
43;89;13983;5885
54;93;13953;5900
56;95;13928;5921
63;97;13899;5941
69;101;13871;5959
70;108;13851;5971
79;114;13829;5978
94;120;13794;5992
93;132;13767;6008
102;130;13755;6013
103;143;13734;6020
104;151;13726;6019
110;154;13718;6018
122;162;13680;6036
129;168;13654;6049
119;189;13633;6059
121;202;13604;6073
151;206;13584;6059
147;236;13554;6063
158;258;13539;6045
168;265;13541;6026
187;276;13537;6000
198;291;13536;5975
214;306;13537;5943
223;335;13519;5923
216;369;13515;5900
230;389;13502;5879
243;417;13500;5840
254;423;13527;5796
278;438;13546;5738
312;443;13576;5669
319;473;13597;5611
336;483;13621;5560
321;522;13660;5497
338;536;13684;5442
349;569;13696;5386
368;558;13741;5333
390;574;13758;5278
409;584;13789;5218
411;626;13813;5150
416;649;13867;5068
437;679;13910;4974
413;740;13941;4906
445;731;14004;4820
462;749;14056;4733
478;769;14112;4641
463;833;14139;4565
484;834;14200;4482
508;836;14270;4386
492;875;14328;4305
503;893;14390;4214
526;909;14447;4118
531;916;14517;4036
520;976;14568;3936
528;974;14654;3844
507;989;14741;3763
493;1021;14823;3663
473;1007;14913;3607
497;976;15000;3527
475;987;15073;3465
458;1005;15119;3418
469;970;15216;3345
453;976;15284;3287
434;973;15363;3230
440;943;15459;3158
417;941;15520;3122
417;942;15575;3066
391;899;15652;3058
368;906;15707;3019
352;889;15756;3003
358;845;15804;2993
344;804;15853;2999
348;790;15887;2975
336;781;15922;2961
347;773;15956;2924
343;788;15970;2899
328;772;16008;2892
305;752;16060;2883
290;754;16055;2901
289;743;16078;2890
290;733;16068;2909
284;737;16067;2912
301;700;16094;2905
306;665;16104;2925
294;669;16117;2920
280;655;16136;2929
268;639;16151;2942
263;616;16176;2945
250;586;16154;3010
234;570;16166;3030
214;566;16162;3058
208;552;16140;3100
228;529;16115;3128
229;522;16089;3160
221;524;16069;3186
221;498;16070;3211
230;502;16064;3204
247;508;16009;3236
232;506;15996;3266
198;507;15971;3324
230;494;15957;3319
219;497;15947;3337
217;490;15929;3364
210;487;15916;3387
202;483;15917;3398
196;479;15902;3423
200;467;15890;3443
204;463;15859;3474
199;457;15842;3502
202;420;15826;3552
222;424;15788;3566
229;435;15768;3568
229;430;15740;3601
215;431;15719;3635
207;419;15701;3673
202;427;15665;3706
206;431;15639;3724
231;421;15631;3717
229;418;15589;3764
229;422;15552;3797
242;429;15524;3805
242;442;15506;3810
251;449;15486;3814
245;460;15463;3832
259;463;15432;3846
254;452;15424;3870
255;452;15405;3888
229;471;15395;3905
237;465;15365;3933
250;454;15351;3945
246;467;15323;3964
244;473;15301;3982
237;488;15282;3993
260;468;15259;4013
248;474;15248;4030
258;472;15227;4043
254;495;15189;4062
263;480;15177;4080
265;480;15153;4102
275;501;15115;4109
252;516;15080;4152
255;515;15074;4156
256;538;15029;4177
281;534;15016;4169
277;547;14993;4183
280;560;14970;4190
273;547;14975;4205
302;555;14951;4192
311;572;14932;4185
306;589;14911;4194
323;604;14904;4169
341;618;14905;4136
337;630;14913;4120
315;662;14901;4122
324;655;14912;4109
338;679;14902;4081
372;660;14910;4058
369;688;14906;4037
382;703;14902;4013
384;721;14900;3995
394;716;14924;3966
369;733;14933;3965
382;753;14924;3941
389;763;14934;3914
405;763;14944;3888
440;762;14960;3838
446;765;14962;3827
433;797;14951;3819
409;815;14986;3790
367;823;15025;3785
389;802;15077;3732
370;825;15082;3723
393;802;15130;3675
386;813;15137;3664
407;814;15168;3611
434;822;15178;3566
431;813;15203;3553
423;829;15216;3532
428;852;15223;3497
427;848;15267;3458
420;834;15302;3444
441;830;15317;3412
439;831;15335;3395
430;840;15339;3391
412;838;15362;3388
404;811;15395;3390
382;800;15416;3402
397;771;15430;3402
365;802;15419;3414
356;789;15441;3414
377;780;15444;3399
349;770;15446;3435
357;760;15432;3451
378;753;15443;3426
363;749;15448;3440
375;743;15445;3437
350;751;15440;3459
339;771;15433;3457
330;756;15465;3449
331;746;15467;3456
356;751;15457;3436
350;747;15477;3426
348;754;15457;3441
323;776;15450;3451
338;767;15460;3435
334;755;15454;3457
324;743;15465;3468
356;718;15442;3484
343;714;15437;3506
338;725;15424;3513
324;725;15428;3523
324;736;15416;3524
334;730;15395;3541
341;693;15445;3521
326;694;15436;3544
327;679;15450;3544
292;698;15454;3556
303;686;15467;3544
296;678;15468;3558
308;700;15440;3552
320;686;15419;3575
338;685;15412;3565
333;698;15386;3583
350;680;15373;3597
339;683;15380;3598
350;686;15374;3590
365;668;15394;3573
369;665;15383;3583
346;692;15372;3590
346;693;15344;3617
347;730;15322;3601
367;703;15308;3622
361;713;15284;3642
359;709;15303;3629
335;724;15314;3627
346;691;15342;3621
341;705;15332;3622
351;709;15337;3603
364;697;15357;3582
371;716;15347;3566
384;707;15367;3542
364;739;15373;3524
369;715;15384;3532
362;719;15380;3539
336;704;15403;3557
340;698;15406;3556
328;725;15379;3568
291;740;15375;3594
287;728;15384;3601
309;702;15415;3574
307;686;15409;3598
301;675;15400;3624
306;658;15408;3628
316;647;15398;3639
333;623;15402;3642
323;652;15361;3664
318;653;15350;3679
336;647;15328;3689
338;652;15323;3687
348;638;15329;3685
341;635;15333;3691
325;640;15316;3719
300;688;15283;3729
321;693;15267;3719
330;696;15240;3734
326;681;15255;3738
335;671;15253;3741
347;676;15256;3721
349;670;15245;3736
367;673;15245;3715
367;666;15251;3716
365;669;15257;3709
344;680;15254;3722
344;682;15234;3740
328;683;15213;3776
347;670;15225;3758
366;681;15213;3740
351;693;15222;3734
350;709;15202;3739
356;703;15207;3734
362;707;15198;3733
341;709;15199;3751
350;702;15190;3758
347;700;15204;3749
340;702;15205;3753
351;695;15208;3746
364;692;15205;3739
359;671;15245;3725
343;691;15243;3723
347;694;15225;3734
372;666;15228;3734
363;675;15254;3708
359;667;15270;3704
338;695;15258;3709
362;681;15284;3673
357;682;15306;3655
371;663;15321;3645
355;682;15304;3659
343;675;15315;3667
333;676;15320;3671
323;676;15338;3663
320;685;15316;3679
298;672;15337;3693
293;656;15335;3716
288;660;15343;3709
278;665;15343;3714
286;655;15333;3726
306;639;15341;3714
322;648;15352;3678
313;653;15347;3687
299;655;15345;3701
311;653;15334;3702
324;659;15326;3691
344;635;15327;3694
332;639;15319;3710
311;659;15309;3721
331;634;15287;3748
336;646;15276;3742
338;672;15263;3727
330;686;15257;3727
314;701;15256;3729
326;683;15274;3717
346;683;15265;3706
344;680;15269;3707
364;675;15268;3693
370;684;15265;3681
375;695;15249;3681
367;695;15263;3675
360;685;15277;3678
355;693;15289;3663
347;700;15291;3662
341;717;15268;3674
327;717;15280;3676
352;728;15273;3647
374;719;15286;3621
362;725;15297;3616
353;742;15283;3622
360;732;15281;3627
357;742;15278;3623
345;749;15301;3605
338;740;15303;3619
324;731;15324;3621
340;722;15325;3613
371;711;15331;3587
354;717;15349;3580
363;698;15348;3591
361;711;15338;3590
340;709;15346;3605
348;718;15349;3585
343;706;15372;3579
325;724;15368;3583
351;715;15370;3564
326;719;15367;3588
328;717;15374;3581
339;705;15375;3581
322;717;15382;3579
316;702;15393;3589
332;691;15410;3567
310;709;15406;3575
325;683;15413;3579
331;696;15394;3579
317;702;15401;3580
314;699;15400;3587
306;688;15395;3611
318;700;15394;3588
313;704;15383;3600
326;696;15394;3584
329;695;15376;3600
321;710;15357;3612
352;694;15360;3594
348;698;15357;3597
355;705;15355;3585
360;704;15356;3580
362;720;15358;3560
360;717;15362;3561
354;716;15360;3570
353;731;15349;3567
349;735;15352;3564
356;731;15361;3552
353;735;15367;3545
370;730;15360;3540
382;739;15350;3529
371;726;15376;3527
365;719;15380;3536
352;721;15375;3552
354;725;15377;3544
340;733;15370;3557
325;730;15356;3589
346;706;15358;3590
348;696;15364;3592
356;683;15375;3586
362;691;15368;3579
347;700;15365;3588
342;706;15354;3598
337;724;15340;3599
371;711;15342;3576
373;712;15329;3586
350;702;15350;3598
355;699;15349;3597
360;702;15338;3600
356;699;15332;3613
349;699;15318;3634
346;716;15317;3621
361;687;15309;3643
359;680;15316;3645
346;679;15314;3661
336;674;15315;3675
348;656;15322;3674
362;651;15282;3705
352;648;15265;3735
338;672;15234;3756
351;671;15239;3739
348;680;15236;3736
335;713;15198;3754
341;701;15193;3765
339;700;15185;3776
340;710;15174;3776
355;707;15172;3766
367;706;15164;3763
363;706;15168;3763
365;715;15157;3763
373;717;15146;3764
387;714;15155;3744
377;711;15163;3749
347;737;15143;3773
358;724;15143;3775
354;732;15143;3771
367;735;15139;3759
365;760;15129;3746
389;753;15146;3712
396;726;15164;3714
407;729;15156;3708
394;740;15171;3695
372;757;15164;3707
370;745;15193;3692
339;758;15207;3696
350;759;15196;3695
364;759;15197;3680
323;785;15194;3698
338;777;15174;3711
345;767;15187;3701
363;750;15181;3706
368;747;15210;3675
356;736;15209;3699
351;737;15209;3703
341;764;15214;3681
345;764;15214;3677
357;754;15216;3673
372;748;15227;3653
387;754;15240;3619
385;747;15273;3595
376;766;15272;3586
371;756;15304;3569
379;740;15308;3573
382;740;15305;3573
359;738;15306;3597
350;726;15325;3599
353;715;15323;3609
349;716;15300;3635
306;729;15308;3657
309;710;15311;3670
324;715;15298;3663
346;711;15274;3669
334;704;15268;3694
347;710;15227;3716
364;710;15206;3720
340;724;15195;3741
356;720;15188;3736
351;726;15188;3735
359;721;15186;3734
371;724;15183;3722
365;741;15183;3711
379;729;15217;3675
371;742;15217;3670
372;725;15229;3674
383;726;15243;3648
403;729;15235;3633
394;734;15252;3620
391;731;15252;3626
379;735;15226;3660
373;746;15196;3685
381;744;15203;3672
397;769;15199;3635
388;774;15198;3640
389;764;15206;3641
382;765;15204;3649
374;794;15188;3644
371;787;15201;3641
373;798;15222;3607
373;785;15243;3599
404;766;15248;3582
385;783;15256;3576
352;808;15270;3570
365;800;15289;3546
363;791;15323;3523
377;795;15312;3516
406;783;15300;3511
397;792;15322;3489
381;801;15315;3503
381;794;15331;3494
389;786;15348;3477
376;772;15388;3464
401;746;15392;3461
357;769;15391;3483
346;784;15387;3483
377;762;15400;3461
361;779;15406;3454
363;765;15408;3464
365;751;15411;3473
354;752;15424;3470
364;728;15451;3457
357;704;15480;3459
353;690;15489;3468
351;697;15471;3481
335;701;15472;3492
327;716;15464;3493
329;702;15466;3503
325;703;15451;3521
314;697;15433;3556
344;677;15405;3574
347;689;15385;3579
354;703;15386;3557
328;732;15369;3571
337;714;15359;3590
343;703;15376;3578
346;694;15396;3564
371;692;15384;3553
357;700;15385;3558
362;695;15382;3561
354;701;15374;3571
362;706;15367;3565
346;723;15350;3581
334;727;15356;3583
340;731;15353;3576
357;727;15364;3552
339;750;15361;3550
355;739;15365;3541
340;738;15354;3568
347;723;15361;3569
336;720;15353;3591
331;736;15350;3583
341;737;15355;3567
350;715;15371;3564
328;730;15373;3569
327;720;15381;3572
318;693;15378;3611
320;689;15369;3622
313;677;15371;3639
298;685;15375;3642
351;681;15365;3603
346;695;15359;3600
344;691;15361;3604
327;699;15349;3625
319;706;15345;3630
340;718;15315;3627
320;715;15327;3638
316;727;15319;3638
341;726;15313;3620
336;721;15313;3630
315;732;15303;3650
