0;20;0;19980
16;20;0;19964
45;21;2;19932
44;27;7;19922
54;33;11;19902
75;50;12;19863
94;67;19;19820
117;91;25;19767
174;109;37;19680
222;142;46;19590
287;184;68;19461
394;227;93;19286
493;295;128;19084
630;384;159;18827
778;498;218;18506
974;639;283;18104
1218;812;375;17595
1461;1061;466;17012
1770;1348;615;16267
2230;1651;778;15341
2603;2066;996;14335
3050;2511;1285;13154
3485;3032;1639;11844
3825;3668;2051;10456
4225;4257;2553;8965
4445;4926;3116;7513
4555;5552;3735;6158
4442;6082;4481;4995
4275;6574;5249;3902
3971;6875;6142;3012
3561;7107;7015;2317
3120;7161;7943;1776
2641;7052;8928;1379
2239;6873;9819;1069
1794;6616;10693;897
1491;6243;11522;744
1257;5822;12291;630
974;5426;13024;576
790;4998;13701;511
660;4559;14325;456
503;4156;14901;440
428;3728;15417;427
356;3365;15842;437
297;3048;16213;442
264;2735;16564;437
219;2424;16912;445
188;2153;17202;457
172;1920;17428;480
142;1706;17633;519
126;1501;17844;529
113;1335;18003;549
111;1196;18096;597
88;1077;18204;631
94;924;18321;661
89;829;18370;712
79;749;18414;758
71;674;18467;788
61;601;18502;836
69;523;18517;891
60;488;18511;941
64;446;18502;988
70;406;18471;1053
71;352;18475;1102
59;326;18447;1168
51;305;18433;1211
55;274;18407;1264
52;246;18366;1336
47;225;18333;1395
37;200;18304;1459
32;188;18268;1512
35;163;18225;1577
35;145;18178;1642
27;136;18133;1704
26;123;18096;1755
25;112;18054;1809
25;103;18014;1858
25;94;17967;1914
26;90;17919;1965
25;80;17874;2021
20;82;17822;2076
25;72;17781;2122
22;73;17738;2167
21;68;17689;2222
25;62;17644;2269
19;55;17604;2322
17;55;17554;2374
20;50;17499;2431
20;40;17454;2486
17;42;17409;2532
21;44;17342;2593
20;43;17288;2649
18;41;17230;2711
17;43;17180;2760
14;44;17134;2808
12;43;17090;2855
16;38;17047;2899
16;38;16996;2950
14;36;16958;2992
14;37;16903;3046
10;41;16846;3103
8;41;16798;3153
4;42;16746;3208
6;40;16683;3271
9;32;16649;3310
10;29;16603;3358
13;27;16559;3401
10;25;16506;3459
8;27;16454;3511
8;28;16408;3556
8;25;16371;3596
9;20;16326;3645
9;19;16271;3701
8;18;16225;3749
9;16;16191;3784
14;18;16148;3820
12;19;16103;3866
10;22;16044;3924
7;21;15995;3977
6;19;15942;4033
6;18;15895;4081
4;19;15862;4115
7;16;15813;4164
7;18;15760;4215
13;17;15714;4256
14;13;15681;4292
13;16;15638;4333
14;13;15610;4363
15;18;15556;4411
18;19;15513;4450
15;24;15464;4497
15;24;15418;4543
17;24;15373;4586
18;28;15331;4623
18;28;15295;4659
17;32;15259;4692
19;31;15217;4733
23;24;15185;4768
20;31;15143;4806
18;28;15108;4846
20;33;15069;4878
17;38;15030;4915
19;33;14992;4956
17;33;14960;4990
22;33;14910;5035
15;35;14864;5086
12;31;14837;5120
17;29;14802;5152
20;31;14765;5184
21;33;14728;5218
26;37;14677;5260
28;38;14631;5303
26;43;14600;5331
21;50;14556;5373
32;46;14520;5402
34;49;14474;5443
35;54;14433;5478
38;53;14399;5510
36;54;14374;5536
44;52;14332;5572
38;57;14300;5605
38;60;14262;5640
37;66;14220;5677
41;64;14190;5705
38;64;14147;5751
39;67;14117;5777
44;65;14085;5806
43;73;14052;5832
42;74;14024;5860
52;80;14002;5866
61;82;13967;5890
66;82;13935;5917
63;90;13901;5946
65;100;13878;5957
73;104;13848;5975
78;114;13812;5996
75;118;13796;6011
77;124;13767;6032
101;123;13752;6024
104;130;13726;6040
106;140;13709;6045
120;145;13691;6044
119;151;13681;6049
111;169;13664;6056
125;181;13644;6050
135;199;13630;6036
138;211;13614;6037
165;223;13599;6013
172;248;13573;6007
170;268;13564;5998
181;290;13547;5982
206;299;13538;5957
215;306;13555;5924
227;328;13553;5892
250;348;13562;5840
268;367;13582;5783
269;403;13577;5751
279;430;13592;5699
323;437;13613;5627
316;486;13633;5565
321;492;13662;5525
338;530;13668;5464
369;570;13672;5389
380;615;13711;5294
387;635;13748;5230
382;683;13789;5146
396;705;13843;5056
406;741;13892;4961
403;765;13946;4886
429;782;14003;4786
467;800;14058;4675
456;827;14108;4609
492;826;14174;4508
476;875;14214;4435
498;906;14283;4313
493;905;14360;4242
486;933;14425;4156
477;930;14507;4086
467;964;14567;4002
489;962;14637;3912
491;962;14725;3822
505;928;14813;3754
496;940;14885;3679
484;944;14939;3633
510;965;15006;3519
518;947;15107;3428
480;952;15173;3395
471;951;15241;3337
457;946;15308;3289
448;975;15340;3237
431;972;15403;3194
434;956;15449;3161
427;969;15511;3093
430;960;15583;3027
408;947;15643;3002
407;920;15699;2974
410;903;15749;2938
421;899;15793;2887
409;908;15836;2847
399;900;15878;2823
403;883;15931;2783
369;879;15990;2762
350;863;16041;2746
360;822;16090;2728
368;760;16159;2713
368;740;16201;2691
323;746;16251;2680
323;718;16295;2664
291;717;16291;2701
292;715;16296;2697
285;693;16314;2708
278;673;16322;2727
251;658;16326;2765
260;636;16306;2798
251;606;16318;2825
241;586;16325;2848
241;560;16332;2867
243;546;16320;2891
239;544;16309;2908
232;550;16282;2936
231;549;16270;2950
215;520;16275;2990
200;506;16279;3015
211;478;16274;3037
207;476;16248;3069
199;460;16241;3100
188;476;16195;3141
203;465;16179;3153
210;456;16179;3155
202;454;16143;3201
180;451;16126;3243
183;439;16111;3267
194;426;16080;3300
192;417;16048;3343
195;394;16037;3374
195;396;16012;3397
166;392;15990;3452
168;391;15938;3503
176;383;15884;3557
170;390;15867;3573
161;381;15839;3619
178;362;15812;3648
180;356;15760;3704
168;364;15706;3762
172;368;15641;3819
159;377;15606;3858
179;385;15563;3873
172;393;15525;3910
180;391;15498;3931
203;362;15470;3965
198;393;15417;3992
231;382;15369;4018
223;404;15331;4042
226;400;15304;4070
236;406;15254;4104
234;412;15203;4151
231;421;15180;4168
233;438;15148;4181
249;453;15099;4199
231;454;15084;4231
261;447;15069;4223
276;444;15045;4235
252;473;15017;4258
270;462;14991;4277
266;470;14949;4315
270;476;14927;4327
279;489;14909;4323
282;505;14891;4322
273;531;14878;4318
265;527;14909;4299
282;515;14909;4294
293;533;14889;4285
299;550;14866;4285
308;556;14852;4284
304;568;14847;4281
297;588;14851;4264
302;600;14841;4257
298;604;14845;4253
304;601;14853;4242
300;618;14829;4253
325;616;14827;4232
330;636;14809;4225
333;644;14827;4196
335;663;14831;4171
344;669;14829;4158
343;674;14841;4142
355;662;14880;4103
382;674;14866;4078
382;707;14865;4046
391;691;14882;4036
371;705;14874;4050
392;718;14868;4022
398;719;14879;4004
408;703;14911;3978
396;710;14926;3968
382;734;14909;3975
403;719;14926;3952
400;734;14915;3951
387;750;14937;3926
388;759;14938;3915
386;748;14971;3895
394;759;14987;3860
422;749;14998;3831
418;768;15007;3807
411;778;15011;3800
376;791;15039;3794
378;790;15051;3781
404;783;15080;3733
389;795;15101;3715
375;816;15115;3694
376;816;15121;3687
388;822;15124;3666
406;807;15136;3651
398;812;15155;3635
399;831;15159;3611
396;817;15182;3605
409;808;15205;3578
395;832;15219;3554
426;821;15220;3533
421;841;15234;3504
412;836;15237;3515
410;850;15248;3492
412;856;15254;3478
386;866;15284;3464
367;865;15291;3477
384;845;15336;3435
401;842;15355;3402
402;841;15366;3391
377;859;15377;3387
365;849;15403;3383
385;825;15414;3376
380;834;15416;3370
371;839;15426;3364
395;819;15433;3353
384;825;15459;3332
389;820;15469;3322
385;809;15486;3320
367;812;15488;3333
372;797;15499;3332
387;778;15505;3330
377;782;15517;3324
379;773;15526;3322
378;789;15535;3298
364;798;15534;3304
377;808;15529;3286
359;808;15544;3289
350;804;15552;3294
368;805;15550;3277
368;799;15563;3270
348;799;15565;3288
360;810;15535;3295
355;794;15564;3287
353;801;15565;3281
318;819;15558;3305
363;781;15565;3291
358;776;15577;3289
346;775;15592;3287
338;776;15598;3288
333;759;15604;3304
336;739;15610;3315
330;733;15606;3331
328;740;15594;3338
319;744;15591;3346
332;751;15586;3331
323;745;15591;3341
325;725;15585;3365
297;712;15611;3380
292;702;15600;3406
302;669;15608;3421
305;641;15601;3453
278;636;15626;3460
270;633;15606;3491
293;607;15592;3508
300;620;15553;3527
291;631;15540;3538
275;635;15511;3579
276;640;15489;3595
279;628;15491;3602
260;599;15496;3645
266;590;15468;3676
271;592;15443;3694
305;579;15418;3698
329;564;15395;3712
331;572;15366;3731
315;571;15346;3768
308;569;15353;3770
296;566;15348;3790
306;564;15344;3786
297;570;15312;3821
307;584;15291;3818
280;581;15288;3851
295;565;15276;3864
314;553;15253;3880
292;588;15218;3902
286;592;15222;3900
298;596;15201;3905
307;599;15181;3913
300;617;15142;3941
315;630;15115;3940
302;667;15076;3955
319;650;15046;3985
339;630;15061;3970
343;639;15064;3954
349;646;15053;3952
348;643;15062;3947
354;654;15053;3939
340;692;15050;3918
345;677;15065;3913
340;696;15055;3909
349;706;15050;3895
350;709;15080;3861
354;730;15065;3851
365;735;15049;3851
381;728;15074;3817
372;740;15099;3789
378;748;15112;3762
395;745;15128;3732
377;787;15134;3702
382;778;15145;3695
394;792;15160;3654
381;800;15156;3663
378;809;15161;3652
387;807;15192;3614
384;808;15217;3591
385;818;15222;3575
387;816;15253;3544
373;808;15277;3542
386;813;15296;3505
377;823;15332;3468
376;820;15342;3462
377;827;15376;3420
377;846;15391;3386
380;832;15430;3358
384;844;15435;3337
364;831;15476;3329
358;825;15475;3342
355;820;15465;3360
374;807;15479;3340
356;809;15499;3336
342;794;15521;3343
327;788;15553;3332
347;774;15577;3302
356;750;15598;3296
348;773;15600;3279
348;757;15616;3279
326;787;15620;3267
332;774;15638;3256
335;756;15652;3257
344;734;15669;3253
320;744;15670;3266
335;722;15676;3267
322;722;15688;3268
337;706;15684;3273
340;695;15690;3275
337;664;15723;3276
312;676;15725;3287
290;668;15728;3314
289;661;15710;3340
288;662;15700;3350
306;636;15696;3362
299;630;15678;3393
300;631;15671;3398
303;629;15649;3419
289;627;15629;3455
276;634;15622;3468
277;642;15601;3480
294;635;15568;3503
288;640;15556;3516
292;638;15546;3524
300;627;15559;3514
291;630;15556;3523
295;621;15554;3530
267;643;15540;3550
261;642;15528;3569
271;612;15538;3579
258;614;15541;3587
267;609;15535;3589
288;613;15510;3589
289;617;15493;3601
290;603;15493;3614
300;587;15494;3619
295;595;15476;3634
300;584;15483;3633
295;586;15476;3643
280;604;15446;3670
267;591;15443;3699
271;588;15433;3708
278;600;15430;3692
295;590;15404;3711
278;594;15396;3732
297;581;15406;3716
275;603;15383;3739
282;608;15324;3786
300;602;15316;3782
308;599;15293;3800
312;590;15267;3831
316;594;15240;3850
318;601;15221;3860
322;601;15227;3850
318;610;15214;3858
306;630;15190;3874
328;636;15160;3876
316;649;15125;3910
304;662;15112;3922
317;646;15095;3942
325;653;15065;3957
332;654;15055;3959
344;649;15022;3985
349;653;15007;3991
341;676;14996;3987
355;656;15032;3957
336;675;15032;3957
350;668;15041;3941
350;659;15031;3960
349;672;15019;3960
334;688;14995;3983
353;683;14989;3975
383;676;14986;3955
374;705;14970;3951
377;713;14961;3949
360;728;14971;3941
370;726;14984;3920
395;725;14981;3899
387;726;14973;3914
387;740;14964;3909
394;738;14979;3889
406;754;14969;3871
401;773;14982;3844
394;773;14986;3847
376;796;14987;3841
378;795;15006;3821
392;796;15020;3792
388;790;15034;3788
386;788;15045;3781
368;784;15052;3796
372;761;15085;3782
388;762;15088;3762
379;790;15089;3742
394;781;15077;3748
394;775;15084;3747
376;781;15114;3729
387;788;15109;3716
414;781;15127;3678
394;801;15140;3665
402;798;15157;3643
410;792;15159;3639
379;808;15163;3650
372;831;15148;3649
386;796;15163;3655
386;805;15176;3633
366;795;15204;3635
389;791;15230;3590
376;796;15239;3589
361;802;15256;3581
379;808;15256;3557
371;802;15260;3567
362;793;15298;3547
361;788;15299;3552
341;780;15326;3553
340;762;15368;3530
337;765;15363;3535
347;757;15383;3513
342;753;15393;3512
322;737;15406;3535
323;735;15398;3544
346;715;15412;3527
320;735;15404;3541
348;724;15412;3516
359;725;15406;3510
338;735;15405;3522
351;730;15403;3516
346;726;15401;3527
350;716;15400;3534
335;703;15405;3557
339;689;15419;3553
344;703;15393;3560
321;713;15365;3601
322;708;15361;3609
334;709;15353;3604
335;700;15369;3596
345;720;15346;3589
342;710;15348;3600
327;729;15338;3606
322;727;15321;3630
334;716;15309;3641
324;733;15310;3633
322;719;15317;3642
323;728;15321;3628
335;734;15298;3633
336;727;15310;3627
363;720;15287;3630
341;740;15280;3639
350;748;15281;3621
353;751;15275;3621
348;756;15271;3625
371;749;15289;3591
344;763;15284;3609
347;760;15287;3606
373;751;15287;3589
376;758;15284;3582
354;760;15270;3616
356;756;15280;3608
340;771;15280;3609
332;789;15279;3600
337;745;15308;3610
329;734;15311;3626
343;733;15300;3624
346;750;15298;3606
355;750;15274;3621
375;739;15277;3609
359;753;15282;3606
370;767;15261;3602
364;761;15270;3605
352;771;15272;3605
380;738;15285;3597
352;731;15280;3637
361;744;15270;3625
350;761;15260;3629
344;764;15268;3624
363;752;15257;3628
359;756;15283;3602
376;757;15241;3626
372;758;15238;3632
369;751;15242;3638
351;749;15256;3644
348;747;15259;3646
353;746;15250;3651
345;761;15240;3654
332;742;15244;3682
357;733;15234;3676
344;731;15231;3694
369;713;15234;3684
384;720;15205;3691
349;747;15206;3698
359;732;15207;3702
379;728;15182;3711
343;743;15197;3717
377;718;15208;3697
361;734;15216;3689
352;741;15217;3690
361;720;15214;3705
342;735;15219;3704
354;735;15200;3711
367;736;15212;3685
369;731;15226;3674
358;711;15245;3686
380;701;15248;3671
363;685;15250;3702
367;693;15243;3697
367;705;15226;3702
353;732;15217;3698
356;699;15231;3714
376;708;15212;3704
376;715;15223;3686
371;728;15208;3693
382;739;15202;3677
369;741;15219;3671
390;716;15265;3629
381;751;15240;3628
401;759;15226;3614
408;762;15205;3625
389;766;15204;3641
367;781;15241;3611
373;781;15247;3599
366;787;15254;3593
396;797;15238;3569
373;793;15260;3574
390;795;15276;3539
387;810;15289;3514
380;824;15290;3506
392;807;15296;3505
377;829;15301;3493
376;826;15320;3478
391;802;15345;3462
392;791;15365;3452
366;803;15379;3452
378;781;15392;3449
366;772;15413;3449
355;774;15430;3441
364;780;15434;3422
366;787;15433;3414
390;785;15429;3396
368;808;15432;3392
376;796;15443;3385
365;785;15451;3399
352;790;15464;3394
344;783;15480;3393
344;788;15494;3374
355;788;15495;3362
348;777;15513;3362
338;760;15523;3379
