0;20;0;19980
17;20;0;19963
34;24;0;19942
45;25;4;19926
52;39;5;19904
64;49;9;19878
91;66;14;19829
126;73;26;19775
159;92;41;19708
192;125;54;19629
279;162;72;19487
354;223;88;19335
453;277;124;19146
556;359;163;18922
696;460;218;18626
885;585;280;18250
1105;791;343;17761
1386;954;478;17182
1657;1224;614;16505
2071;1532;775;15622
2581;1913;956;14550
3000;2407;1191;13402
3393;2995;1493;12119
3829;3549;1912;10710
4155;4206;2385;9254
4433;4827;2931;7809
4503;5426;3594;6477
4433;5959;4353;5255
4273;6427;5123;4177
3990;6785;5965;3260
3611;6989;6862;2538
3125;7140;7762;1973
2684;7099;8670;1547
2303;6883;9598;1216
1900;6639;10488;973
1576;6318;11315;791
1280;5957;12113;650
1038;5478;12922;562
841;5026;13645;488
684;4643;14256;417
534;4232;14832;402
435;3835;15331;399
325;3446;15813;416
264;3059;16278;399
229;2749;16620;402
198;2453;16924;425
180;2184;17190;446
146;1922;17450;482
128;1686;17680;506
113;1487;17866;534
100;1320;18010;570
88;1174;18114;624
82;1039;18212;667
96;912;18306;686
93;840;18352;715
89;763;18401;747
76;685;18444;795
64;611;18495;830
65;533;18523;879
57;477;18526;940
57;433;18530;980
53;388;18517;1042
51;356;18512;1081
53;324;18482;1141
43;296;18475;1186
49;268;18444;1239
42;236;18425;1297
33;218;18398;1351
30;206;18367;1397
25;185;18337;1453
24;168;18288;1520
25;147;18243;1585
27;128;18199;1646
28;108;18175;1689
33;100;18141;1726
30;99;18078;1793
34;91;18025;1850
27;87;17978;1908
27;76;17939;1958
26;72;17883;2019
29;66;17836;2069
27;61;17798;2114
22;60;17746;2172
25;57;17690;2228
22;55;17631;2292
19;53;17583;2345
12;54;17540;2394
13;49;17493;2445
12;49;17450;2489
12;49;17390;2549
13;45;17341;2601
15;41;17303;2641
14;38;17249;2699
10;35;17204;2751
8;37;17153;2802
10;34;17109;2847
9;35;17058;2898
8;33;17012;2947
9;33;16957;3001
10;28;16909;3053
15;27;16846;3112
17;29;16789;3165
12;32;16753;3203
10;31;16709;3250
12;28;16658;3302
15;24;16610;3351
16;25;16565;3394
18;24;16514;3444
15;29;16474;3482
16;29;16432;3523
17;33;16391;3559
19;32;16358;3591
17;30;16318;3635
13;33;16268;3686
12;34;16220;3734
18;34;16177;3771
14;34;16132;3820
15;32;16093;3860
13;33;16058;3896
11;33;16015;3941
14;29;15968;3989
9;31;15934;4026
8;29;15898;4065
8;26;15861;4105
11;24;15804;4161
10;24;15761;4205
12;21;15710;4257
12;21;15683;4284
10;24;15642;4324
13;21;15592;4374
12;26;15546;4416
11;25;15503;4461
15;23;15466;4496
11;26;15409;4554
10;28;15370;4592
9;26;15325;4640
12;26;15279;4683
12;21;15244;4723
10;19;15202;4769
7;21;15160;4812
7;23;15123;4847
11;23;15090;4876
10;27;15055;4908
17;26;15016;4941
15;25;14982;4978
20;23;14937;5020
16;28;14891;5065
16;36;14850;5098
18;36;14812;5134
21;37;14773;5169
24;40;14715;5221
26;43;14681;5250
28;44;14647;5281
28;49;14613;5310
30;47;14575;5348
34;46;14539;5381
39;56;14501;5404
45;61;14468;5426
44;68;14441;5447
44;68;14415;5473
36;77;14371;5516
33;86;14337;5544
38;81;14296;5585
38;77;14262;5623
43;81;14226;5650
41;79;14190;5690
46;84;14155;5715
50;85;14120;5745
54;82;14090;5774
58;83;14064;5795
60;83;14040;5817
54;88;14018;5840
54;102;13996;5848
58;104;13963;5875
49;114;13932;5905
48;113;13913;5926
44;111;13883;5962
57;113;13859;5971
73;109;13837;5981
86;110;13815;5989
97;116;13788;5999
88;135;13763;6014
88;145;13740;6027
85;158;13719;6038
108;154;13714;6024
126;157;13703;6014
134;158;13692;6016
130;169;13663;6038
128;182;13649;6041
132;194;13638;6036
130;208;13628;6034
138;225;13620;6017
154;243;13617;5986
151;252;13604;5993
152;265;13602;5981
170;276;13603;5951
195;281;13604;5920
209;302;13595;5894
210;314;13589;5887
227;331;13583;5859
243;343;13584;5830
251;365;13598;5786
260;395;13611;5734
287;403;13635;5675
302;431;13642;5625
314;453;13656;5577
323;469;13679;5529
338;474;13700;5488
337;504;13724;5435
377;511;13763;5349
372;550;13789;5289
360;604;13804;5232
370;638;13828;5164
405;657;13870;5068
433;674;13903;4990
441;701;13943;4915
455;725;14002;4818
436;772;14041;4751
444;778;14117;4661
459;778;14183;4580
467;797;14234;4502
467;807;14309;4417
441;837;14362;4360
459;844;14428;4269
472;877;14460;4191
485;885;14527;4103
486;893;14591;4030
488;899;14662;3951
496;890;14760;3854
501;902;14823;3774
514;915;14901;3670
483;941;14981;3595
478;930;15071;3521
481;945;15130;3444
473;970;15171;3386
462;963;15236;3339
458;965;15303;3274
446;973;15352;3229
428;957;15427;3188
415;950;15490;3145
403;940;15540;3117
395;915;15612;3078
374;914;15659;3053
384;890;15719;3007
350;891;15748;3011
338;879;15806;2977
335;858;15861;2946
317;850;15902;2931
296;842;15938;2924
296;802;15987;2915
275;807;15998;2920
276;773;16045;2906
254;760;16075;2911
272;726;16109;2893
283;699;16138;2880
270;686;16163;2881
261;675;16189;2875
258;660;16200;2882
249;645;16211;2895
244;632;16210;2914
271;625;16200;2904
264;619;16205;2912
250;625;16211;2914
244;610;16211;2935
230;598;16218;2954
221;587;16225;2967
219;569;16237;2975
223;542;16217;3018
211;537;16221;3031
210;528;16197;3065
222;500;16171;3107
223;495;16148;3134
213;502;16136;3149
221;481;16112;3186
209;475;16096;3220
211;472;16088;3229
197;461;16056;3286
198;445;16047;3310
189;427;16022;3362
195;427;15986;3392
200;414;15958;3428
214;408;15927;3451
221;403;15882;3494
202;403;15854;3541
212;402;15846;3540
210;396;15811;3583
213;385;15771;3631
200;373;15765;3662
202;383;15732;3683
210;386;15693;3711
210;391;15663;3736
189;397;15624;3790
169;406;15586;3839
179;401;15561;3859
183;408;15499;3910
205;411;15475;3909
206;410;15450;3934
223;416;15418;3943
216;433;15374;3977
214;427;15353;4006
222;434;15329;4015
238;424;15315;4023
241;425;15295;4039
231;448;15248;4073
217;476;15219;4088
223;481;15205;4091
235;472;15200;4093
248;469;15162;4121
216;495;15133;4156
236;500;15101;4163
250;511;15090;4149
262;520;15060;4158
265;505;15060;4170
266;529;15032;4173
272;528;15036;4164
270;536;15023;4171
269;546;15007;4178
271;551;15017;4161
276;561;14994;4169
309;552;14996;4143
310;560;14984;4146
290;585;14966;4159
282;589;14968;4161
312;591;14959;4138
342;595;14958;4105
340;588;14964;4108
354;593;14975;4078
346;606;14973;4075
353;606;14979;4062
367;628;14984;4021
371;647;14977;4005
359;658;14984;3999
362;663;14991;3984
369;680;14990;3961
366;684;14991;3959
357;693;15004;3946
360;700;15005;3935
380;693;15033;3894
380;679;15049;3892
384;685;15059;3872
372;700;15074;3854
352;705;15088;3855
349;733;15072;3846
364;715;15090;3831
363;721;15101;3815
340;733;15101;3826
327;733;15107;3833
319;741;15113;3827
343;711;15137;3809
357;729;15128;3786
353;728;15155;3764
341;726;15183;3750
343;740;15195;3722
328;744;15202;3726
343;738;15226;3693
330;739;15252;3679
355;731;15269;3645
353;725;15288;3634
346;758;15274;3622
378;735;15295;3592
374;739;15304;3583
349;740;15339;3572
317;756;15333;3594
337;747;15335;3581
339;716;15377;3568
388;690;15373;3549
358;709;15400;3533
335;714;15420;3531
348;712;15424;3516
352;726;15421;3501
354;728;15427;3491
346;716;15440;3498
349;715;15440;3496
338;717;15433;3512
341;707;15442;3510
335;704;15450;3511
341;711;15432;3516
330;727;15420;3523
346;733;15400;3521
329;739;15413;3519
331;735;15410;3524
332;748;15394;3526
333;749;15375;3543
322;757;15370;3551
332;723;15380;3565
341;706;15378;3575
323;706;15372;3599
326;707;15363;3604
335;715;15358;3592
357;706;15357;3580
351;696;15359;3594
339;707;15330;3624
316;719;15309;3656
329;689;15338;3644
334;697;15326;3643
350;718;15307;3625
341;717;15296;3646
314;731;15289;3666
338;711;15310;3641
336;712;15337;3615
332;718;15339;3611
329;700;15328;3643
296;707;15329;3668
319;701;15354;3626
314;704;15343;3639
317;684;15335;3664
334;660;15333;3673
343;652;15335;3670
331;682;15311;3676
346;660;15322;3672
326;667;15311;3696
309;678;15319;3694
319;662;15303;3716
332;647;15308;3713
299;648;15321;3732
298;677;15303;3722
314;661;15323;3702
309;680;15291;3720
319;685;15282;3714
331;669;15283;3717
321;657;15294;3728
319;654;15319;3708
330;643;15322;3705
341;638;15316;3705
332;646;15299;3723
330;644;15281;3745
287;670;15265;3778
283;655;15268;3794
293;635;15287;3785
286;617;15299;3798
290;592;15308;3810
284;603;15293;3820
288;610;15283;3819
293;598;15280;3829
293;611;15254;3842
286;614;15261;3839
295;631;15250;3824
292;642;15229;3837
296;649;15213;3842
319;636;15202;3843
330;654;15186;3830
322;642;15195;3841
321;659;15189;3831
300;658;15214;3828
319;649;15204;3828
306;656;15211;3827
327;648;15210;3815
311;659;15201;3829
305;669;15205;3821
321;662;15217;3800
315;657;15210;3818
328;670;15199;3803
325;666;15227;3782
316;668;15224;3792
297;675;15226;3802
303;678;15223;3796
298;661;15243;3798
300;650;15256;3794
307;650;15253;3790
322;652;15236;3790
311;649;15247;3793
333;666;15222;3779
355;648;15223;3774
346;649;15231;3774
353;653;15238;3756
343;662;15240;3755
336;681;15230;3753
332;705;15227;3736
325;705;15240;3730
342;702;15240;3716
324;712;15237;3727
336;686;15257;3721
338;684;15256;3722
296;712;15256;3736
303;699;15269;3729
307;676;15304;3713
315;672;15302;3711
318;662;15292;3728
341;641;15300;3718
325;657;15309;3709
310;647;15298;3745
312;658;15272;3758
317;647;15290;3746
326;647;15275;3752
326;639;15295;3740
319;642;15301;3738
308;655;15304;3733
326;640;15310;3724
325;647;15307;3721
309;663;15315;3713
311;666;15310;3713
304;645;15340;3711
318;649;15311;3722
317;670;15286;3727
335;655;15312;3698
315;687;15308;3690
320;669;15308;3703
341;658;15320;3681
351;639;15325;3685
334;640;15313;3713
331;656;15297;3716
338;652;15297;3713
309;694;15269;3728
328;675;15269;3728
335;697;15253;3715
343;681;15243;3733
330;681;15262;3727
308;680;15249;3763
331;670;15238;3761
336;683;15238;3743
362;681;15242;3715
328;701;15230;3741
339;694;15251;3716
348;698;15233;3721
367;685;15238;3710
360;700;15250;3690
355;704;15256;3685
334;719;15253;3694
354;735;15237;3674
326;764;15234;3676
325;745;15268;3662
323;726;15289;3662
319;716;15290;3675
340;700;15305;3655
343;701;15323;3633
343;708;15332;3617
357;704;15344;3595
342;723;15354;3581
318;722;15371;3589
319;703;15397;3581
316;706;15389;3589
352;702;15383;3563
332;721;15372;3575
353;710;15373;3564
349;726;15379;3546
329;742;15401;3528
330;746;15407;3517
342;717;15443;3498
332;709;15444;3515
319;741;15435;3505
328;712;15445;3515
303;727;15443;3527
313;724;15456;3507
332;718;15460;3490
328;721;15481;3470
325;732;15470;3473
324;690;15498;3488
313;703;15502;3482
321;690;15491;3498
310;690;15487;3513
303;692;15484;3521
311;679;15493;3517
308;659;15494;3539
324;646;15501;3529
324;645;15499;3532
307;644;15519;3530
304;647;15483;3566
307;650;15457;3586
333;657;15424;3586
321;675;15421;3583
320;673;15405;3602
299;668;15393;3640
304;653;15391;3652
300;659;15381;3660
308;656;15372;3664
315;647;15373;3665
335;621;15384;3660
339;617;15374;3670
331;630;15351;3688
334;616;15360;3690
336;630;15344;3690
327;655;15326;3692
321;670;15337;3672
320;658;15334;3688
307;677;15332;3684
318;654;15348;3680
322;656;15327;3695
303;689;15304;3704
313;667;15325;3695
325;675;15334;3666
331;672;15320;3677
331;678;15301;3690
318;659;15309;3714
324;655;15289;3732
311;649;15261;3779
311;665;15252;3772
328;662;15239;3771
324;661;15242;3773
341;669;15221;3769
327;677;15213;3783
323;697;15198;3782
346;699;15176;3779
362;678;15193;3767
358;688;15214;3740
319;721;15212;3748
331;708;15213;3748
329;702;15215;3754
356;695;15207;3742
354;706;15200;3740
348;716;15197;3739
371;722;15182;3725
355;730;15174;3741
365;748;15170;3717
377;742;15171;3710
369;748;15188;3695
365;729;15191;3715
341;728;15186;3745
359;696;15215;3730
333;714;15216;3737
343;703;15217;3737
336;723;15212;3729
325;720;15234;3721
327;703;15244;3726
325;713;15246;3716
347;690;15256;3707
324;684;15270;3722
326;691;15255;3728
325;697;15239;3739
310;719;15226;3745
322;704;15245;3729
340;699;15256;3705
352;698;15261;3689
362;691;15248;3699
359;698;15254;3689
344;698;15234;3724
364;681;15237;3718
354;687;15231;3728
338;720;15235;3707
355;710;15230;3705
356;692;15226;3726
345;700;15232;3723
344;694;15237;3725
325;712;15221;3742
316;708;15227;3749
324;693;15235;3748
333;712;15229;3726
359;696;15255;3690
338;712;15246;3704
307;733;15239;3721
324;699;15239;3738
318;685;15258;3739
323;666;15289;3722
320;652;15286;3742
335;661;15272;3732
343;660;15255;3742
336;655;15263;3746
329;647;15252;3772
333;650;15233;3784
320;686;15226;3768
333;699;15219;3749
311;705;15228;3756
332;687;15213;3768
342;681;15188;3789
350;689;15192;3769
340;696;15185;3779
371;703;15173;3753
391;694;15174;3741
380;704;15181;3735
393;702;15185;3720
376;716;15188;3720
369;717;15201;3713
377;721;15208;3694
380;734;15209;3677
383;759;15201;3657
385;742;15250;3623
361;764;15254;3621
356;777;15273;3594
363;794;15255;3588
365;824;15262;3549
374;837;15258;3531
385;823;15283;3509
380;812;15329;3479
379;813;15338;3470
385;815;15337;3463
367;817;15338;3478
377;838;15335;3450
399;801;15352;3448
381;787;15371;3461
360;802;15410;3428
328;792;15413;3467
328;779;15451;3442
347;759;15452;3442
340;761;15465;3434
340;771;15465;3424
358;759;15471;3412
350;756;15457;3437
345;738;15464;3453
354;728;15450;3468
367;712;15447;3474
348;750;15434;3468
371;745;15445;3439
356;783;15430;3431
352;768;15451;3429
344;752;15448;3456
365;748;15444;3443
352;764;15451;3433
365;752;15441;3442
342;770;15444;3444
331;769;15467;3433
330;753;15487;3430
327;729;15479;3465
324;709;15484;3483
318;714;15481;3487
319;687;15504;3490
319;664;15504;3513
334;654;15519;3493
326;667;15504;3503
325;671;15498;3506
303;671;15507;3519
297;655;15514;3534
300;655;15526;3519
308;648;15529;3515
298;631;15541;3530
311;617;15539;3533
307;622;15512;3559
309;635;15491;3565
303;629;15493;3575
299;630;15506;3565
295;629;15511;3565
278;637;15495;3590
304;620;15480;3596
313;604;15484;3599
291;635;15475;3599
287;619;15470;3624
296;613;15457;3634
307;613;15463;3617
300;620;15454;3626
299;625;15447;3629
320;624;15456;3600
300;637;15435;3628
