0;20;0;19980
14;20;0;19966
23;23;0;19954
26;25;7;19942
41;28;10;19921
58;40;12;19890
92;50;20;19838
125;65;29;19781
152;87;36;19725
181;126;43;19650
225;160;59;19556
309;219;72;19400
419;274;97;19210
541;364;134;18961
691;475;183;18651
913;634;229;18224
1176;787;306;17731
1447;1009;406;17138
1789;1265;545;16401
2114;1604;728;15554
2558;2027;933;14482
3040;2507;1208;13245
3476;3005;1537;11982
3898;3558;1953;10591
4244;4247;2413;9096
4441;4900;2962;7697
4538;5511;3633;6318
4540;6030;4352;5078
4339;6534;5124;4003
3994;6905;5969;3132
3562;7067;6891;2480
3102;7185;7778;1935
2658;7076;8759;1507
2244;6853;9710;1193
1895;6527;10641;937
1575;6198;11462;765
1299;5864;12192;645
1043;5440;12970;547
829;4996;13685;490
670;4521;14360;449
534;4078;14964;424
430;3707;15453;410
383;3310;15908;399
317;2993;16295;395
249;2696;16628;427
214;2433;16909;444
191;2173;17183;453
166;1931;17429;474
136;1747;17611;506
115;1551;17786;548
113;1384;17934;569
115;1229;18050;606
104;1094;18164;638
103;985;18240;672
99;893;18287;721
91;801;18365;743
94;711;18427;768
75;633;18460;832
68;571;18489;872
65;513;18494;928
62;455;18519;964
67;408;18521;1004
64;378;18507;1051
59;346;18495;1100
56;312;18486;1146
45;279;18475;1201
46;248;18452;1254
47;217;18429;1307
44;205;18367;1384
44;180;18335;1441
50;156;18310;1484
42;149;18257;1552
32;146;18208;1614
31;136;18175;1658
23;122;18129;1726
27;110;18080;1783
22;106;18038;1834
22;97;17998;1883
22;81;17959;1938
17;79;17924;1980
18;72;17872;2038
15;65;17827;2093
13;60;17782;2145
12;60;17727;2201
12;56;17684;2248
14;49;17623;2314
14;43;17570;2373
11;43;17524;2422
9;43;17479;2469
14;37;17423;2526
15;36;17373;2576
15;32;17335;2618
15;35;17291;2659
14;37;17236;2713
15;35;17184;2766
15;33;17131;2821
18;27;17089;2866
14;26;17035;2925
12;23;16989;2976
11;20;16948;3021
11;19;16903;3067
12;19;16849;3120
11;17;16799;3173
10;17;16740;3233
11;17;16687;3285
11;16;16644;3329
10;15;16592;3383
9;14;16542;3435
9;13;16485;3493
8;12;16441;3539
5;15;16381;3599
4;14;16342;3640
6;13;16300;3681
5;15;16249;3731
6;12;16206;3776
5;12;16163;3820
3;13;16118;3866
3;11;16078;3908
6;10;16022;3962
9;6;15968;4017
8;5;15915;4072
5;8;15865;4122
6;10;15811;4173
7;10;15767;4216
7;8;15723;4262
7;4;15688;4301
3;8;15642;4347
4;7;15595;4394
2;8;15545;4445
2;7;15498;4493
2;5;15456;4537
1;6;15420;4573
1;4;15380;4615
1;3;15343;4653
1;4;15295;4700
3;3;15247;4747
3;3;15209;4785
3;3;15163;4831
2;4;15122;4872
2;4;15069;4925
1;4;15032;4963
1;2;14968;5029
1;2;14924;5073
0;3;14885;5112
0;3;14842;5155
0;1;14797;5202
0;0;14754;5246
0;0;14713;5287
0;0;14676;5324
0;0;14640;5360
0;0;14603;5397
0;0;14567;5433
0;0;14523;5477
0;0;14475;5525
0;0;14437;5563
0;0;14394;5606
0;0;14357;5643
0;0;14320;5680
0;0;14282;5718
0;0;14236;5764
0;0;14185;5815
0;0;14140;5860
0;0;14109;5891
0;0;14083;5917
0;0;14043;5957
0;0;13998;6002
0;0;13955;6045
0;0;13923;6077
0;0;13876;6124
0;0;13831;6169
0;0;13793;6207
0;0;13763;6237
0;0;13723;6277
0;0;13683;6317
0;0;13646;6354
0;0;13608;6392
0;0;13567;6433
0;0;13522;6478
0;0;13486;6514
0;0;13448;6552
0;0;13410;6590
0;0;13369;6631
0;0;13327;6673
0;0;13287;6713
0;0;13244;6756
0;0;13209;6791
0;0;13164;6836
0;0;13122;6878
0;0;13092;6908
0;0;13056;6944
0;0;13018;6982
0;0;12984;7016
0;0;12947;7053
0;0;12911;7089
0;0;12872;7128
0;0;12837;7163
0;0;12789;7211
0;0;12743;7257
0;0;12708;7292
0;0;12675;7325
0;0;12628;7372
0;0;12587;7413
0;0;12554;7446
0;0;12503;7497
0;0;12457;7543
0;0;12418;7582
0;0;12373;7627
0;0;12336;7664
0;0;12300;7700
0;0;12257;7743
0;0;12222;7778
0;0;12193;7807
0;0;12161;7839
0;0;12135;7865
0;0;12101;7899
0;0;12070;7930
0;0;12032;7968
0;0;11995;8005
0;0;11959;8041
0;0;11920;8080
0;0;11889;8111
0;0;11849;8151
0;0;11812;8188
0;0;11775;8225
0;0;11738;8262
0;0;11700;8300
0;0;11656;8344
0;0;11621;8379
0;0;11583;8417
0;0;11545;8455
0;0;11516;8484
0;0;11481;8519
0;0;11445;8555
0;0;11405;8595
0;0;11373;8627
0;0;11338;8662
0;0;11311;8689
0;0;11279;8721
0;0;11253;8747
0;0;11225;8775
0;0;11199;8801
0;0;11171;8829
0;0;11148;8852
0;0;11112;8888
0;0;11077;8923
0;0;11051;8949
0;0;11021;8979
0;0;10991;9009
0;0;10964;9036
0;0;10936;9064
0;0;10904;9096
0;0;10870;9130
0;0;10835;9165
0;0;10811;9189
0;0;10782;9218
0;0;10751;9249
0;0;10727;9273
0;0;10694;9306
0;0;10668;9332
0;0;10639;9361
0;0;10600;9400
0;0;10570;9430
0;0;10538;9462
0;0;10499;9501
0;0;10464;9536
0;0;10433;9567
0;0;10405;9595
0;0;10374;9626
0;0;10349;9651
0;0;10319;9681
0;0;10298;9702
0;0;10263;9737
0;0;10220;9780
0;0;10190;9810
0;0;10158;9842
0;0;10133;9867
0;0;10107;9893
0;0;10080;9920
0;0;10058;9942
0;0;10027;9973
0;0;9995;10005
0;0;9962;10038
0;0;9934;10066
0;0;9899;10101
0;0;9882;10118
0;0;9856;10144
0;0;9829;10171
0;0;9806;10194
0;0;9789;10211
0;0;9761;10239
0;0;9735;10265
0;0;9700;10300
0;0;9673;10327
0;0;9650;10350
0;0;9631;10369
0;0;9605;10395
0;0;9583;10417
0;0;9567;10433
0;0;9548;10452
0;0;9525;10475
0;0;9501;10499
0;0;9479;10521
0;0;9449;10551
0;0;9421;10579
0;0;9406;10594
0;0;9379;10621
0;0;9349;10651
0;0;9327;10673
0;0;9294;10706
0;0;9271;10729
0;0;9245;10755
0;0;9210;10790
0;0;9190;10810
0;0;9159;10841
0;0;9143;10857
0;0;9123;10877
0;0;9098;10902
0;0;9071;10929
0;0;9047;10953
0;0;9023;10977
0;0;9001;10999
0;0;8977;11023
0;0;8945;11055
0;0;8929;11071
0;0;8903;11097
0;0;8880;11120
0;0;8856;11144
0;0;8825;11175
0;0;8807;11193
0;0;8774;11226
0;0;8746;11254
0;0;8723;11277
0;0;8700;11300
0;0;8678;11322
0;0;8665;11335
0;0;8640;11360
0;0;8623;11377
0;0;8597;11403
0;0;8577;11423
0;0;8551;11449
0;0;8530;11470
0;0;8512;11488
0;0;8477;11523
0;0;8446;11554
0;0;8424;11576
0;0;8394;11606
0;0;8371;11629
0;0;8346;11654
0;0;8326;11674
0;0;8302;11698
0;0;8286;11714
0;0;8267;11733
0;0;8248;11752
0;0;8225;11775
0;0;8199;11801
0;0;8180;11820
0;0;8159;11841
0;0;8135;11865
0;0;8117;11883
0;0;8097;11903
0;0;8080;11920
0;0;8067;11933
0;0;8046;11954
0;0;8029;11971
0;0;8004;11996
0;0;7986;12014
0;0;7960;12040
0;0;7932;12068
0;0;7905;12095
0;0;7882;12118
0;0;7859;12141
0;0;7835;12165
0;0;7812;12188
0;0;7791;12209
0;0;7769;12231
0;0;7743;12257
0;0;7725;12275
0;0;7699;12301
0;0;7675;12325
0;0;7656;12344
0;0;7637;12363
0;0;7612;12388
0;0;7594;12406
0;0;7571;12429
0;0;7551;12449
0;0;7526;12474
0;0;7499;12501
0;0;7483;12517
0;0;7460;12540
0;0;7442;12558
0;0;7417;12583
0;0;7402;12598
0;0;7390;12610
0;0;7369;12631
0;0;7344;12656
0;0;7323;12677
0;0;7301;12699
0;0;7278;12722
0;0;7258;12742
0;0;7241;12759
0;0;7218;12782
0;0;7196;12804
0;0;7176;12824
0;0;7156;12844
0;0;7138;12862
0;0;7119;12881
0;0;7103;12897
0;0;7078;12922
0;0;7056;12944
0;0;7032;12968
0;0;7018;12982
0;0;7004;12996
0;0;6983;13017
0;0;6965;13035
0;0;6950;13050
0;0;6924;13076
0;0;6903;13097
0;0;6878;13122
0;0;6859;13141
0;0;6842;13158
0;0;6831;13169
0;0;6810;13190
0;0;6783;13217
0;0;6757;13243
0;0;6740;13260
0;0;6717;13283
0;0;6700;13300
0;0;6684;13316
0;0;6666;13334
0;0;6639;13361
0;0;6609;13391
0;0;6591;13409
0;0;6575;13425
0;0;6550;13450
0;0;6537;13463
0;0;6514;13486
0;0;6494;13506
0;0;6480;13520
0;0;6463;13537
0;0;6446;13554
0;0;6424;13576
0;0;6409;13591
0;0;6392;13608
0;0;6370;13630
0;0;6357;13643
0;0;6346;13654
0;0;6330;13670
0;0;6310;13690
0;0;6293;13707
0;0;6272;13728
0;0;6252;13748
0;0;6232;13768
0;0;6212;13788
0;0;6194;13806
0;0;6178;13822
0;0;6161;13839
0;0;6147;13853
0;0;6136;13864
0;0;6121;13879
0;0;6106;13894
0;0;6090;13910
0;0;6080;13920
0;0;6066;13934
0;0;6050;13950
0;0;6037;13963
0;0;6024;13976
0;0;6006;13994
0;0;5994;14006
0;0;5982;14018
0;0;5966;14034
0;0;5939;14061
0;0;5922;14078
0;0;5908;14092
0;0;5896;14104
0;0;5881;14119
0;0;5864;14136
0;0;5847;14153
0;0;5831;14169
0;0;5815;14185
0;0;5800;14200
0;0;5779;14221
0;0;5760;14240
0;0;5751;14249
0;0;5733;14267
0;0;5713;14287
0;0;5701;14299
0;0;5686;14314
0;0;5676;14324
0;0;5649;14351
0;0;5628;14372
0;0;5608;14392
0;0;5595;14405
0;0;5573;14427
0;0;5557;14443
0;0;5547;14453
0;0;5526;14474
0;0;5512;14488
0;0;5494;14506
0;0;5480;14520
0;0;5466;14534
0;0;5448;14552
0;0;5439;14561
0;0;5424;14576
0;0;5406;14594
0;0;5393;14607
0;0;5376;14624
0;0;5362;14638
0;0;5354;14646
0;0;5344;14656
0;0;5330;14670
0;0;5316;14684
0;0;5303;14697
0;0;5291;14709
0;0;5277;14723
0;0;5264;14736
0;0;5251;14749
0;0;5237;14763
0;0;5218;14782
0;0;5203;14797
0;0;5195;14805
0;0;5186;14814
0;0;5169;14831
0;0;5159;14841
0;0;5141;14859
0;0;5123;14877
0;0;5101;14899
0;0;5088;14912
0;0;5079;14921
0;0;5064;14936
0;0;5041;14959
0;0;5028;14972
0;0;5004;14996
0;0;4984;15016
0;0;4973;15027
0;0;4955;15045
0;0;4938;15062
0;0;4925;15075
0;0;4912;15088
0;0;4900;15100
0;0;4888;15112
0;0;4873;15127
0;0;4860;15140
0;0;4838;15162
0;0;4824;15176
0;0;4814;15186
0;0;4798;15202
0;0;4777;15223
0;0;4762;15238
0;0;4753;15247
0;0;4747;15253
0;0;4734;15266
0;0;4719;15281
0;0;4703;15297
0;0;4694;15306
0;0;4675;15325
0;0;4662;15338
0;0;4648;15352
0;0;4632;15368
0;0;4621;15379
0;0;4607;15393
0;0;4592;15408
0;0;4579;15421
0;0;4561;15439
0;0;4544;15456
0;0;4529;15471
0;0;4514;15486
0;0;4500;15500
0;0;4487;15513
0;0;4478;15522
0;0;4464;15536
0;0;4449;15551
0;0;4439;15561
0;0;4432;15568
0;0;4412;15588
0;0;4399;15601
0;0;4386;15614
0;0;4378;15622
0;0;4369;15631
0;0;4354;15646
0;0;4346;15654
0;0;4331;15669
0;0;4318;15682
0;0;4301;15699
0;0;4289;15711
0;0;4279;15721
0;0;4267;15733
0;0;4256;15744
0;0;4242;15758
0;0;4228;15772
0;0;4222;15778
0;0;4210;15790
0;0;4202;15798
0;0;4192;15808
0;0;4183;15817
0;0;4176;15824
0;0;4171;15829
0;0;4158;15842
0;0;4144;15856
0;0;4128;15872
0;0;4120;15880
0;0;4108;15892
0;0;4098;15902
0;0;4089;15911
0;0;4079;15921
0;0;4069;15931
0;0;4050;15950
0;0;4038;15962
0;0;4030;15970
0;0;4022;15978
0;0;4012;15988
0;0;4000;16000
0;0;3991;16009
0;0;3983;16017
0;0;3977;16023
0;0;3968;16032
0;0;3956;16044
0;0;3945;16055
0;0;3934;16066
0;0;3926;16074
0;0;3912;16088
0;0;3903;16097
0;0;3892;16108
0;0;3877;16123
0;0;3871;16129
0;0;3862;16138
0;0;3852;16148
0;0;3840;16160
0;0;3831;16169
0;0;3817;16183
0;0;3803;16197
0;0;3792;16208
0;0;3783;16217
0;0;3774;16226
0;0;3770;16230
0;0;3758;16242
0;0;3746;16254
0;0;3736;16264
0;0;3730;16270
0;0;3722;16278
0;0;3715;16285
0;0;3702;16298
0;0;3692;16308
0;0;3686;16314
0;0;3680;16320
0;0;3672;16328
0;0;3668;16332
0;0;3657;16343
0;0;3645;16355
0;0;3638;16362
0;0;3628;16372
0;0;3621;16379
0;0;3613;16387
0;0;3605;16395
0;0;3598;16402
0;0;3591;16409
0;0;3589;16411
0;0;3576;16424
0;0;3565;16435
0;0;3556;16444
0;0;3547;16453
0;0;3536;16464
0;0;3529;16471
0;0;3518;16482
0;0;3510;16490
0;0;3500;16500
0;0;3487;16513
0;0;3476;16524
0;0;3466;16534
0;0;3458;16542
0;0;3449;16551
0;0;3441;16559
0;0;3431;16569
0;0;3421;16579
0;0;3411;16589
0;0;3399;16601
0;0;3390;16610
0;0;3379;16621
0;0;3370;16630
0;0;3366;16634
0;0;3358;16642
0;0;3343;16657
0;0;3336;16664
0;0;3324;16676
0;0;3314;16686
0;0;3306;16694
0;0;3301;16699
0;0;3294;16706
0;0;3286;16714
0;0;3280;16720
0;0;3265;16735
0;0;3251;16749
0;0;3238;16762
0;0;3228;16772
0;0;3222;16778
0;0;3214;16786
0;0;3206;16794
0;0;3198;16802
0;0;3186;16814
0;0;3182;16818
0;0;3171;16829
0;0;3166;16834
0;0;3161;16839
0;0;3152;16848
0;0;3142;16858
0;0;3134;16866
0;0;3126;16874
0;0;3117;16883
0;0;3111;16889
0;0;3099;16901
0;0;3089;16911
0;0;3083;16917
0;0;3071;16929
0;0;3064;16936
0;0;3058;16942
0;0;3048;16952
0;0;3038;16962
0;0;3031;16969
0;0;3019;16981
0;0;3006;16994
0;0;2999;17001
0;0;2987;17013
0;0;2978;17022
0;0;2972;17028
0;0;2959;17041
0;0;2953;17047
0;0;2947;17053
0;0;2932;17068
0;0;2924;17076
0;0;2917;17083
0;0;2909;17091
