0;20;0;19980
16;20;0;19964
32;21;4;19943
53;26;6;19915
66;35;11;19888
92;44;15;19849
114;59;20;19807
154;77;26;19743
173;125;31;19671
232;160;47;19561
313;204;63;19420
408;255;100;19237
495;350;125;19030
646;448;165;18741
842;562;232;18364
1025;752;299;17924
1296;941;403;17360
1597;1199;532;16672
2006;1490;709;15795
2418;1863;910;14809
2855;2280;1172;13693
3285;2770;1476;12469
3785;3341;1839;11035
4146;3980;2261;9613
4369;4648;2772;8211
4622;5201;3421;6756
4601;5809;4091;5499
4402;6310;4844;4444
4166;6738;5652;3444
3831;7048;6494;2627
3383;7195;7418;2004
2905;7133;8402;1560
2397;7006;9330;1267
2040;6732;10230;998
1707;6431;11059;803
1378;6076;11869;677
1128;5611;12682;579
905;5193;13384;518
746;4740;14046;468
578;4364;14605;453
479;3956;15125;440
377;3555;15615;453
318;3193;16042;447
251;2855;16446;448
218;2506;16803;473
193;2251;17064;492
157;1991;17336;516
149;1767;17555;529
126;1576;17731;567
108;1418;17889;585
97;1246;18025;632
80;1096;18147;677
78;963;18237;722
65;863;18302;770
65;765;18349;821
77;665;18391;867
70;592;18418;920
75;515;18451;959
58;453;18470;1019
57;420;18450;1073
55;371;18451;1123
48;336;18437;1179
51;304;18434;1211
51;266;18414;1269
49;238;18410;1303
46;210;18370;1374
39;202;18325;1434
37;176;18312;1475
33;168;18270;1529
24;163;18228;1585
27;149;18182;1642
19;145;18130;1706
22;126;18076;1776
27;105;18021;1847
22;103;17985;1890
26;93;17938;1943
24;85;17897;1994
23;77;17844;2056
29;65;17802;2104
23;70;17753;2154
19;67;17706;2208
18;62;17661;2259
15;52;17618;2315
13;49;17572;2366
5;45;17528;2422
9;42;17483;2466
7;43;17429;2521
11;39;17370;2580
14;33;17327;2626
17;26;17278;2679
13;27;17218;2742
11;28;17159;2802
11;27;17117;2845
14;24;17066;2896
13;27;17023;2937
12;28;16975;2985
10;30;16937;3023
10;30;16894;3066
14;26;16843;3117
13;26;16807;3154
13;26;16744;3217
11;25;16706;3258
16;24;16659;3301
18;26;16612;3344
15;30;16573;3382
14;29;16523;3434
16;28;16474;3482
14;30;16421;3535
13;30;16371;3586
9;32;16328;3631
9;30;16278;3683
9;28;16231;3732
10;27;16194;3769
13;28;16151;3808
12;27;16107;3854
11;26;16063;3900
16;25;16022;3937
14;28;15977;3981
15;25;15936;4024
15;24;15889;4072
14;26;15848;4112
14;22;15809;4155
16;23;15778;4183
16;24;15725;4235
14;26;15680;4280
13;30;15632;4325
15;28;15589;4368
15;26;15555;4404
20;27;15510;4443
21;27;15462;4490
20;28;15422;4530
16;31;15374;4579
16;32;15335;4617
21;25;15305;4649
22;29;15272;4677
18;31;15222;4729
22;29;15181;4768
24;31;15133;4812
20;35;15088;4857
24;35;15054;4887
23;36;15010;4931
26;36;14965;4973
26;37;14931;5006
30;41;14896;5033
28;41;14869;5062
28;40;14843;5089
35;42;14798;5125
34;43;14761;5162
37;38;14738;5187
31;43;14701;5225
31;45;14653;5271
29;43;14621;5307
25;48;14585;5342
31;43;14554;5372
33;43;14525;5399
37;48;14480;5435
46;48;14440;5466
44;53;14405;5498
41;59;14378;5522
41;61;14343;5555
55;66;14307;5572
60;67;14265;5608
60;70;14229;5641
51;85;14191;5673
56;90;14169;5685
69;96;14135;5700
72;95;14124;5709
71;108;14092;5729
79;106;14064;5751
92;112;14041;5755
87;133;14015;5765
91;139;13992;5778
96;142;13960;5802
93;154;13939;5814
99;155;13917;5829
113;161;13890;5836
129;166;13877;5828
131;175;13864;5830
131;187;13851;5831
147;193;13831;5829
163;204;13818;5815
163;228;13805;5804
159;241;13803;5797
172;261;13790;5777
194;278;13785;5743
207;276;13783;5734
207;285;13773;5735
210;302;13773;5715
218;305;13785;5692
223;324;13786;5667
216;347;13768;5669
237;355;13784;5624
263;368;13776;5593
260;397;13775;5568
292;429;13771;5508
286;469;13777;5468
335;487;13798;5380
331;525;13815;5329
340;555;13828;5277
381;596;13845;5178
374;610;13888;5128
385;636;13931;5048
403;643;13990;4964
394;683;14024;4899
419;694;14056;4831
434;722;14093;4751
419;732;14150;4699
441;759;14200;4600
443;772;14244;4541
447;816;14290;4447
436;866;14344;4354
472;872;14423;4233
481;875;14495;4149
464;892;14560;4084
439;909;14629;4023
446;932;14668;3954
459;959;14717;3865
457;984;14791;3768
489;971;14877;3663
488;971;14956;3585
481;981;15034;3504
489;949;15127;3435
478;968;15191;3363
471;952;15280;3297
474;933;15343;3250
460;959;15390;3191
443;951;15462;3144
426;934;15537;3103
427;918;15595;3060
392;922;15655;3031
396;917;15718;2969
401;890;15759;2950
374;861;15828;2937
376;837;15876;2911
339;840;15932;2889
354;798;15990;2858
351;797;16002;2850
324;789;16038;2849
315;759;16095;2831
291;730;16155;2824
286;712;16171;2831
284;692;16194;2830
281;673;16201;2845
270;656;16217;2857
266;623;16250;2861
262;605;16257;2876
258;603;16267;2872
269;572;16260;2899
246;575;16257;2922
242;554;16266;2938
229;538;16268;2965
234;538;16246;2982
237;509;16262;2992
231;500;16232;3037
220;514;16221;3045
214;500;16203;3083
211;467;16208;3114
224;470;16181;3125
184;480;16165;3171
187;479;16139;3195
199;467;16123;3211
169;462;16094;3275
160;455;16066;3319
174;447;16023;3356
180;432;16013;3375
178;430;15982;3410
159;438;15957;3446
175;414;15934;3477
163;407;15911;3519
177;393;15858;3572
177;388;15844;3591
169;393;15818;3620
183;373;15791;3653
180;365;15777;3678
170;372;15758;3700
156;368;15728;3748
179;363;15685;3773
185;361;15661;3793
189;369;15641;3801
180;391;15592;3837
196;383;15564;3857
192;368;15544;3896
194;368;15527;3911
209;353;15491;3947
200;362;15456;3982
192;367;15418;4023
191;355;15396;4058
188;365;15364;4083
196;368;15314;4122
219;359;15277;4145
202;391;15260;4147
200;414;15223;4163
215;416;15191;4178
225;402;15161;4212
241;402;15130;4227
256;423;15104;4217
263;438;15070;4229
245;470;15068;4217
266;477;15060;4197
245;501;15044;4210
251;493;15028;4228
254;510;14985;4251
268;522;14964;4246
281;539;14944;4236
296;543;14935;4226
263;579;14911;4247
262;599;14886;4253
293;561;14894;4252
293;573;14881;4253
307;577;14877;4239
320;593;14856;4231
325;582;14861;4232
334;583;14856;4227
318;612;14832;4238
304;629;14831;4236
317;648;14818;4217
328;641;14825;4206
321;659;14809;4211
336;654;14813;4197
350;665;14829;4156
355;679;14821;4145
365;701;14799;4135
369;701;14836;4094
396;688;14858;4058
409;695;14864;4032
409;686;14907;3998
416;684;14919;3981
399;702;14933;3966
376;729;14934;3961
396;739;14926;3939
389;757;14928;3926
393;762;14935;3910
390;793;14945;3872
385;790;14960;3865
385;786;14992;3837
385;781;15001;3833
348;800;15023;3829
367;795;15042;3796
406;770;15078;3746
379;787;15081;3753
387;782;15094;3737
400;790;15090;3720
394;801;15084;3721
399;778;15098;3725
386;769;15116;3729
383;799;15134;3684
393;788;15164;3655
406;767;15182;3645
400;774;15183;3643
395;772;15191;3642
380;784;15201;3635
361;787;15208;3644
377;756;15227;3640
380;749;15244;3627
391;751;15249;3609
372;783;15239;3606
376;790;15258;3576
393;765;15273;3569
387;770;15261;3582
368;760;15286;3586
368;772;15292;3568
376;758;15313;3553
375;746;15313;3566
371;754;15314;3561
374;750;15316;3560
360;770;15310;3560
339;774;15324;3563
364;772;15329;3535
363;781;15333;3523
347;794;15354;3505
352;778;15382;3488
362;768;15397;3473
361;784;15384;3471
380;788;15399;3433
361;787;15401;3451
374;774;15405;3447
341;762;15426;3471
351;767;15429;3453
341;766;15431;3462
340;762;15446;3452
344;743;15456;3457
358;740;15463;3439
354;727;15470;3449
332;734;15467;3467
346;701;15487;3466
353;706;15482;3459
359;698;15464;3479
322;702;15475;3501
324;688;15478;3510
330;690;15472;3508
321;676;15480;3523
342;692;15449;3517
325;717;15430;3528
321;706;15440;3533
324;694;15462;3520
335;695;15452;3518
337;700;15460;3503
319;697;15478;3506
331;678;15488;3503
318;677;15499;3506
332;675;15472;3521
329;686;15438;3547
321;688;15450;3541
345;678;15445;3532
329;686;15436;3549
324;685;15431;3560
315;698;15396;3591
310;689;15396;3605
308;663;15418;3611
319;660;15384;3637
339;678;15360;3623
334;685;15346;3635
338;681;15342;3639
357;676;15345;3622
330;713;15329;3628
326;708;15336;3630
338;699;15332;3631
345;696;15321;3638
343;688;15328;3641
345;699;15332;3624
346;687;15333;3634
344;701;15320;3635
335;708;15325;3632
347;695;15329;3629
326;716;15305;3653
329;722;15292;3657
333;720;15288;3659
331;724;15298;3647
325;725;15301;3649
365;683;15306;3646
364;698;15303;3635
361;696;15300;3643
348;697;15299;3656
347;711;15289;3653
342;722;15291;3645
355;709;15302;3634
342;707;15325;3626
343;697;15331;3629
339;708;15334;3619
342;702;15355;3601
327;701;15371;3601
340;714;15366;3580
326;726;15370;3578
345;713;15378;3564
354;705;15368;3573
335;707;15362;3596
322;717;15375;3586
334;690;15398;3578
335;671;15410;3584
348;663;15409;3580
357;651;15417;3575
356;635;15423;3586
347;641;15440;3572
333;649;15421;3597
312;665;15415;3608
326;664;15405;3605
336;675;15377;3612
325;665;15389;3621
320;667;15382;3631
339;646;15393;3622
351;645;15387;3617
353;658;15366;3623
331;669;15384;3616
324;683;15354;3639
321;678;15358;3643
340;672;15342;3646
337;674;15333;3656
332;681;15347;3640
336;679;15337;3648
333;680;15342;3645
335;682;15334;3649
327;679;15352;3642
331;689;15343;3637
340;703;15349;3608
325;688;15374;3613
345;673;15391;3591
343;687;15396;3574
325;677;15408;3590
332;683;15401;3584
331;671;15408;3590
331;668;15411;3590
357;668;15403;3572
335;694;15403;3568
333;700;15392;3575
352;700;15380;3568
338;717;15379;3566
327;709;15415;3549
349;703;15419;3529
352;683;15431;3534
338;683;15416;3563
339;692;15423;3546
339;693;15417;3551
352;673;15440;3535
357;670;15434;3539
334;687;15414;3565
336;699;15392;3573
339;692;15412;3557
345;681;15424;3550
332;673;15430;3565
329;670;15432;3569
311;662;15433;3594
298;652;15449;3601
318;631;15439;3612
283;622;15463;3632
279;606;15482;3633
258;599;15508;3635
286;571;15497;3646
296;589;15462;3653
274;605;15448;3673
281;582;15429;3708
261;594;15398;3747
284;580;15376;3760
280;568;15390;3762
300;563;15390;3747
302;533;15383;3782
299;557;15348;3796
292;538;15345;3825
286;541;15336;3837
281;548;15313;3858
277;555;15299;3869
304;548;15279;3869
292;566;15261;3881
290;571;15246;3893
292;564;15241;3903
302;554;15244;3900
299;557;15223;3921
309;563;15198;3930
298;566;15173;3963
301;560;15161;3978
301;536;15168;3995
291;537;15158;4014
281;554;15135;4030
292;565;15083;4060
271;570;15070;4089
294;566;15061;4079
293;575;15055;4077
312;585;15026;4077
321;602;15002;4075
336;630;14970;4064
333;642;14974;4051
320;660;14970;4050
350;660;14940;4050
356;677;14946;4021
355;686;14917;4042
345;711;14911;4033
355;720;14909;4016
354;749;14878;4019
374;756;14885;3985
391;756;14895;3958
380;746;14906;3968
381;737;14913;3969
403;728;14935;3934
404;749;14941;3906
410;766;14968;3856
418;773;14984;3825
429;773;14995;3803
392;789;15013;3806
412;798;15024;3766
411;807;15032;3750
390;833;15036;3741
380;846;15054;3720
372;846;15081;3701
395;825;15067;3713
401;830;15085;3684
388;850;15105;3657
411;845;15108;3636
392;876;15089;3643
383;890;15093;3634
395;897;15119;3589
382;914;15150;3554
395;898;15206;3501
390;879;15254;3477
410;858;15285;3447
409;857;15273;3461
411;848;15306;3435
399;843;15338;3420
413;817;15357;3413
381;846;15352;3421
385;832;15369;3414
397;813;15398;3392
376;818;15408;3398
413;790;15406;3391
402;785;15425;3388
375;775;15435;3415
349;765;15456;3430
341;763;15430;3466
328;747;15424;3501
326;734;15425;3515
322;731;15428;3519
336;726;15444;3494
340;719;15435;3506
354;735;15414;3497
344;711;15437;3508
365;702;15431;3502
352;732;15421;3495
358;706;15434;3502
331;726;15436;3507
319;725;15444;3512
331;716;15440;3513
366;692;15434;3508
378;692;15430;3500
375;712;15430;3483
335;731;15428;3506
320;732;15414;3534
330;729;15427;3514
317;738;15399;3546
337;709;15416;3538
345;697;15413;3545
322;714;15406;3558
327;717;15413;3543
328;719;15414;3539
320;711;15413;3556
330;716;15416;3538
342;720;15401;3537
339;712;15402;3547
328;704;15415;3553
323;706;15412;3559
347;687;15416;3550
316;707;15384;3593
331;695;15402;3572
334;684;15392;3590
328;668;15400;3604
349;651;15399;3601
379;658;15381;3582
367;666;15387;3580
379;657;15386;3578
365;669;15388;3578
337;699;15385;3579
341;676;15414;3569
341;674;15389;3596
300;697;15386;3617
298;695;15372;3635
300;701;15370;3629
312;694;15358;3636
318;674;15360;3648
333;670;15335;3662
320;672;15330;3678
334;672;15324;3670
312;681;15311;3696
322;669;15298;3711
316;675;15275;3734
340;665;15262;3733
343;653;15256;3748
309;685;15253;3753
343;680;15236;3741
330;694;15233;3743
336;710;15232;3722
334;723;15240;3703
339;719;15246;3696
348;696;15254;3702
356;696;15260;3688
370;692;15260;3678
378;713;15268;3641
396;742;15264;3598
385;754;15256;3605
378;788;15233;3601
368;797;15233;3602
370;811;15244;3575
372;789;15266;3573
362;782;15268;3588
370;770;15263;3597
381;748;15300;3571
402;756;15303;3539
376;775;15316;3533
387;784;15317;3512
360;758;15326;3556
382;778;15330;3510
365;803;15334;3498
385;793;15351;3471
398;784;15369;3449
396;797;15378;3429
387;782;15392;3439
401;776;15392;3431
407;796;15374;3423
388;803;15393;3416
387;797;15403;3413
390;819;15398;3393
402;814;15416;3368
387;793;15436;3384
380;805;15451;3364
378;795;15448;3379
386;771;15486;3357
373;778;15507;3342
370;772;15550;3308
367;768;15550;3315
355;775;15560;3310
353;752;15566;3329
353;737;15584;3326
364;733;15593;3310
368;743;15597;3292
344;751;15555;3350
355;729;15557;3359
368;724;15560;3348
349;737;15553;3361
341;726;15574;3359
330;721;15550;3399
306;725;15550;3419
304;724;15550;3422
314;693;15575;3418
296;703;15574;3427
295;694;15568;3443
297;690;15565;3448
302;697;15550;3451
305;679;15562;3454
305;679;15560;3456
309;657;15574;3460
311;669;15549;3471
305;687;15541;3467
297;682;15551;3470
312;680;15549;3459
323;663;15549;3465
325;661;15536;3478
307;668;15534;3491
321;673;15531;3475
326;660;15530;3484
310;661;15507;3522
315;633;15519;3533
317;625;15511;3547
291;626;15512;3571
287;641;15484;3588
287;641;15464;3608
300;628;15435;3637
311;624;15423;3642
299;612;15414;3675
296;618;15395;3691
279;620;15370;3731
297;606;15345;3752
290;597;15365;3748
298;595;15342;3765
296;597;15311;3796
