0;20;0;19980
23;20;0;19957
34;25;2;19939
49;26;6;19919
58;39;8;19895
63;50;12;19875
95;58;19;19828
107;89;24;19780
154;109;34;19703
213;138;51;19598
275;188;68;19469
373;250;87;19290
467;339;124;19070
638;418;172;18772
859;520;225;18396
1007;705;281;18007
1252;910;370;17468
1598;1127;492;16783
1960;1454;639;15947
2378;1835;818;14969
2802;2311;1040;13847
3320;2766;1346;12568
3728;3322;1716;11234
4223;3914;2141;9722
4494;4593;2653;8260
4717;5204;3274;6805
4683;5851;3924;5542
4465;6427;4683;4425
4156;6800;5569;3475
3743;7085;6462;2710
3322;7203;7388;2087
2891;7181;8326;1602
2444;7013;9294;1249
2033;6805;10162;1000
1641;6515;11019;825
1368;6075;11877;680
1102;5658;12667;573
858;5182;13437;523
707;4751;14064;478
587;4342;14630;441
471;3908;15198;423
368;3488;15724;420
314;3086;16169;431
262;2741;16556;441
240;2432;16895;433
185;2206;17138;471
157;1958;17383;502
159;1756;17554;531
148;1560;17735;557
133;1373;17907;587
122;1211;18045;622
108;1096;18135;661
95;965;18251;689
92;866;18314;728
97;761;18377;765
81;684;18426;809
73;607;18461;859
68;546;18479;907
58;478;18506;958
53;428;18508;1011
58;379;18509;1054
56;333;18489;1122
42;308;18467;1183
50;278;18449;1223
50;249;18438;1263
45;230;18409;1316
34;210;18401;1355
40;191;18357;1412
40;174;18318;1468
35;158;18288;1519
34;150;18241;1575
36;125;18213;1626
21;119;18180;1680
21;113;18129;1737
22;97;18086;1795
33;94;18038;1835
36;83;18006;1875
36;78;17965;1921
30;74;17919;1977
25;73;17882;2020
22;66;17832;2080
13;68;17786;2133
12;67;17746;2175
14;59;17699;2228
12;57;17646;2285
9;50;17607;2334
13;38;17556;2393
12;33;17505;2450
7;37;17451;2505
7;33;17385;2575
9;28;17335;2628
13;27;17282;2678
6;28;17237;2729
10;27;17179;2784
9;26;17118;2847
11;23;17070;2896
16;22;17027;2935
18;22;16972;2988
12;25;16927;3036
14;26;16883;3077
11;27;16830;3132
13;25;16781;3181
11;25;16724;3240
11;24;16678;3287
12;23;16632;3333
11;21;16595;3373
11;24;16551;3414
9;24;16507;3460
16;22;16456;3506
15;21;16419;3545
15;23;16365;3597
15;27;16314;3644
15;28;16272;3685
16;29;16219;3736
15;24;16182;3779
11;25;16139;3825
14;23;16089;3874
15;24;16055;3906
17;26;16021;3936
20;25;15977;3978
22;28;15932;4018
19;33;15896;4052
20;34;15850;4096
17;36;15803;4144
14;39;15754;4193
15;41;15706;4238
22;37;15673;4268
28;36;15633;4303
29;36;15578;4357
32;34;15544;4390
33;35;15490;4442
31;37;15451;4481
31;38;15407;4524
34;39;15368;4559
31;44;15330;4595
29;46;15284;4641
29;47;15241;4683
31;48;15192;4729
33;54;15156;4757
30;60;15109;4801
36;57;15085;4822
38;60;15042;4860
41;65;15012;4882
41;69;14978;4912
37;68;14937;4958
37;64;14913;4986
32;72;14880;5016
39;71;14841;5049
42;73;14802;5083
42;77;14764;5117
49;78;14732;5141
54;80;14677;5189
53;87;14652;5208
53;86;14617;5244
56;91;14585;5268
61;90;14541;5308
61;89;14504;5346
65;100;14472;5363
64;106;14438;5392
59;118;14404;5419
79;110;14383;5428
86;122;14355;5437
82;126;14339;5453
83;136;14322;5459
87;146;14289;5478
96;154;14261;5489
97;166;14230;5507
102;167;14211;5520
104;177;14202;5517
101;194;14186;5519
116;192;14162;5530
118;205;14151;5526
142;207;14143;5508
162;208;14126;5504
151;215;14129;5505
146;240;14113;5501
156;246;14104;5494
161;267;14099;5473
185;284;14084;5447
180;301;14077;5442
208;311;14077;5404
204;339;14061;5396
220;335;14075;5370
206;376;14059;5359
210;382;14080;5328
235;386;14086;5293
234;405;14092;5269
269;406;14092;5233
280;427;14109;5184
302;442;14123;5133
301;464;14128;5107
309;486;14130;5075
336;499;14150;5015
367;510;14174;4949
362;525;14200;4913
371;545;14230;4854
383;573;14260;4784
378;606;14295;4721
380;649;14311;4660
394;649;14367;4590
406;660;14426;4508
432;649;14502;4417
440;683;14540;4337
439;721;14575;4265
449;735;14621;4195
432;759;14667;4142
444;760;14716;4080
446;792;14763;3999
449;820;14813;3918
444;822;14863;3871
450;827;14919;3804
460;841;14958;3741
455;839;15023;3683
443;861;15062;3634
438;858;15131;3573
433;875;15164;3528
453;854;15222;3471
446;848;15278;3428
426;871;15333;3370
430;880;15389;3301
419;869;15455;3257
413;845;15515;3227
405;854;15576;3165
399;841;15638;3122
385;845;15674;3096
369;839;15730;3062
356;841;15779;3024
345;813;15843;2999
344;811;15879;2966
328;827;15909;2936
314;824;15920;2942
315;796;15965;2924
315;765;16000;2920
304;760;16021;2915
305;717;16059;2919
317;687;16104;2892
307;688;16125;2880
310;655;16160;2875
306;636;16178;2880
264;660;16175;2901
251;669;16143;2937
270;639;16142;2949
276;627;16150;2947
265;630;16147;2958
260;615;16157;2968
262;608;16152;2978
261;597;16151;2991
256;606;16133;3005
262;593;16117;3028
253;595;16117;3035
249;591;16134;3026
235;593;16136;3036
230;556;16144;3070
234;554;16150;3062
219;553;16150;3078
240;529;16147;3084
216;520;16142;3122
225;509;16141;3125
219;502;16125;3154
216;494;16105;3185
211;492;16092;3205
201;477;16076;3246
200;462;16052;3286
197;460;16024;3319
193;456;16000;3351
195;443;15970;3392
218;432;15948;3402
217;431;15934;3418
215;428;15912;3445
202;437;15863;3498
188;437;15845;3530
200;430;15814;3556
210;431;15781;3578
195;446;15747;3612
210;451;15715;3624
209;453;15686;3652
217;460;15657;3666
215;460;15633;3692
221;458;15595;3726
239;458;15572;3731
243;446;15555;3756
252;436;15551;3761
244;461;15525;3770
239;476;15507;3778
233;483;15485;3799
262;480;15459;3799
267;510;15427;3796
280;503;15421;3796
263;520;15402;3815
263;525;15392;3820
263;520;15374;3843
263;544;15350;3843
276;531;15344;3849
266;534;15336;3864
280;528;15300;3892
286;531;15270;3913
284;541;15252;3923
288;544;15245;3923
267;562;15241;3930
298;549;15244;3909
298;555;15224;3923
307;554;15210;3929
291;557;15209;3943
299;570;15210;3921
296;577;15204;3923
291;585;15184;3940
292;581;15184;3943
308;577;15166;3949
311;576;15167;3946
320;570;15165;3945
302;574;15170;3954
298;577;15150;3975
312;577;15148;3963
312;593;15125;3970
303;592;15112;3993
287;601;15085;4027
277;610;15067;4046
308;582;15055;4055
298;610;15030;4062
326;606;15016;4052
331;609;15020;4040
330;624;15002;4044
333;617;15015;4035
340;630;14974;4056
346;649;14967;4038
343;657;14969;4031
356;668;14968;4008
358;661;14974;4007
359;677;14975;3989
363;690;14972;3975
379;701;14975;3945
384;706;14995;3915
390;725;14983;3902
369;751;14968;3912
386;738;14979;3897
393;739;14975;3893
407;750;14993;3850
404;743;15017;3836
394;759;15032;3815
373;768;15058;3801
386;773;15084;3757
391;778;15098;3733
406;754;15116;3724
419;730;15138;3713
400;758;15141;3701
397;780;15131;3692
384;799;15138;3679
379;815;15177;3629
385;799;15187;3629
388;782;15217;3613
362;790;15229;3619
371;753;15279;3597
362;768;15288;3582
366;765;15307;3562
361;755;15321;3563
353;744;15328;3575
382;723;15351;3544
388;717;15362;3533
355;740;15358;3547
360;736;15382;3522
392;725;15392;3491
380;748;15374;3498
377;752;15378;3493
360;756;15410;3474
349;739;15430;3482
339;737;15443;3481
329;719;15451;3501
318;722;15453;3507
328;709;15463;3500
302;721;15463;3514
319;741;15442;3498
354;729;15443;3474
346;721;15448;3485
354;735;15443;3468
341;733;15437;3489
332;735;15463;3470
333;727;15470;3470
320;709;15489;3482
306;707;15498;3489
306;693;15501;3500
275;692;15507;3526
279;667;15514;3540
284;638;15525;3553
303;622;15509;3566
302;600;15534;3564
284;586;15530;3600
267;574;15509;3650
266;565;15504;3665
284;576;15483;3657
286;583;15472;3659
273;606;15455;3666
262;597;15462;3679
259;590;15453;3698
273;568;15457;3702
275;573;15439;3713
289;572;15396;3743
276;581;15359;3784
296;548;15368;3788
292;542;15337;3829
276;554;15332;3838
275;547;15334;3844
292;541;15326;3841
319;537;15311;3833
338;563;15281;3818
320;579;15254;3847
305;605;15223;3867
301;620;15187;3892
322;605;15184;3889
325;618;15162;3895
327;628;15154;3891
328;639;15141;3892
340;642;15119;3899
318;674;15117;3891
343;661;15132;3864
365;665;15128;3842
381;662;15120;3837
380;679;15122;3819
363;686;15110;3841
361;686;15110;3843
338;716;15113;3833
339;712;15118;3831
328;727;15135;3810
351;700;15165;3784
362;683;15181;3774
353;696;15173;3778
350;717;15179;3754
361;725;15168;3746
381;699;15187;3733
372;695;15209;3724
352;689;15240;3719
375;685;15231;3709
371;684;15241;3704
350;720;15245;3685
353;711;15261;3675
374;716;15259;3651
389;721;15266;3624
376;730;15288;3606
377;727;15299;3597
368;744;15307;3581
367;771;15298;3564
383;768;15314;3535
373;765;15328;3534
350;785;15335;3530
362;786;15325;3527
381;760;15366;3493
366;771;15350;3513
360;775;15347;3518
361;766;15368;3505
364;755;15397;3484
371;776;15396;3457
351;766;15418;3465
350;760;15416;3474
370;755;15415;3460
384;747;15423;3446
367;748;15435;3450
357;743;15450;3450
358;746;15455;3441
365;732;15455;3448
365;737;15471;3427
359;730;15480;3431
345;718;15511;3426
330;732;15505;3433
310;736;15525;3429
315;697;15547;3441
311;691;15548;3450
306;688;15531;3475
302;693;15528;3477
294;689;15537;3480
279;685;15520;3516
291;647;15535;3527
307;644;15531;3518
294;648;15530;3528
304;654;15515;3527
304;629;15500;3567
309;645;15467;3579
305;632;15454;3609
298;646;15446;3610
307;641;15442;3610
318;640;15436;3606
317;637;15427;3619
306;627;15442;3625
321;637;15437;3605
313;637;15435;3615
328;639;15411;3622
338;640;15395;3627
340;641;15378;3641
342;650;15375;3633
350;663;15371;3616
336;686;15358;3620
327;670;15381;3622
314;664;15375;3647
306;670;15380;3644
310;661;15389;3640
335;656;15385;3624
338;624;15396;3642
324;628;15391;3657
331;619;15382;3668
321;635;15372;3672
324;639;15355;3682
333;630;15354;3683
312;613;15391;3684
314;619;15388;3679
336;608;15391;3665
335;625;15359;3681
307;646;15364;3683
304;642;15369;3685
323;639;15354;3684
320;656;15341;3683
351;658;15336;3655
333;669;15336;3662
334;682;15320;3664
328;693;15314;3665
343;698;15319;3640
335;682;15323;3660
338;676;15330;3656
333;676;15324;3667
335;682;15313;3670
334;694;15308;3664
334;695;15300;3671
336;687;15293;3684
334;686;15287;3693
332;689;15297;3682
326;681;15304;3689
344;684;15292;3680
323;693;15290;3694
348;682;15282;3688
347;672;15299;3682
360;675;15294;3671
364;674;15294;3668
364;687;15288;3661
350;668;15327;3655
360;670;15308;3662
356;688;15296;3660
381;678;15285;3656
358;684;15283;3675
370;674;15277;3679
353;667;15289;3691
340;699;15251;3710
330;708;15236;3726
322;712;15231;3735
327;704;15236;3733
346;706;15231;3717
348;707;15215;3730
354;689;15230;3727
344;679;15234;3743
346;694;15232;3728
343;708;15219;3730
348;708;15213;3731
368;680;15242;3710
373;704;15223;3700
368;725;15228;3679
352;740;15236;3672
334;735;15244;3687
330;743;15212;3715
337;742;15216;3705
355;749;15206;3690
357;744;15222;3677
367;737;15239;3657
360;740;15219;3681
381;723;15226;3670
362;743;15228;3667
367;729;15239;3665
355;737;15253;3655
363;718;15266;3653
329;726;15280;3665
343;722;15288;3647
338;714;15310;3638
313;734;15330;3623
331;727;15325;3617
317;723;15322;3638
319;709;15343;3629
326;699;15352;3623
318;708;15354;3620
338;696;15330;3636
348;698;15329;3625
330;683;15334;3653
329;666;15351;3654
337;656;15341;3666
339;663;15331;3667
330;672;15314;3684
320;677;15307;3696
353;661;15314;3672
367;674;15311;3648
368;672;15323;3637
350;682;15333;3635
365;661;15335;3639
366;679;15301;3654
378;683;15290;3649
361;675;15301;3663
338;664;15312;3686
345;671;15303;3681
341;666;15300;3693
352;664;15305;3679
350;682;15279;3689
368;683;15286;3663
355;689;15278;3678
350;698;15272;3680
360;722;15256;3662
359;732;15246;3663
349;735;15250;3666
374;728;15259;3639
358;734;15273;3635
369;726;15289;3616
379;725;15290;3606
386;744;15266;3604
382;743;15279;3596
381;739;15286;3594
364;752;15288;3596
367;738;15296;3599
390;729;15300;3581
402;744;15294;3560
413;746;15284;3557
388;754;15271;3587
365;782;15258;3595
360;776;15274;3590
343;768;15305;3584
354;743;15314;3589
338;744;15306;3612
362;742;15319;3577
363;738;15343;3556
361;733;15356;3550
354;734;15339;3573
326;752;15314;3608
324;759;15303;3614
347;752;15316;3585
358;738;15320;3584
342;727;15318;3613
360;722;15320;3598
386;716;15342;3556
386;709;15350;3555
335;720;15367;3578
355;698;15348;3599
336;711;15342;3611
347;720;15323;3610
346;721;15319;3614
348;721;15310;3621
334;711;15323;3632
344;713;15330;3613
335;715;15312;3638
317;709;15336;3638
321;703;15312;3664
337;701;15295;3667
347;694;15289;3670
336;725;15269;3670
327;746;15272;3655
354;720;15261;3665
333;715;15281;3671
348;686;15302;3664
354;694;15296;3656
344;695;15287;3674
334;692;15308;3666
311;704;15272;3713
323;705;15253;3719
324;692;15264;3720
350;694;15245;3711
342;698;15232;3728
358;662;15247;3733
348;670;15250;3732
356;682;15236;3726
348;685;15233;3734
343;688;15224;3745
334;694;15225;3747
332;679;15237;3752
336;668;15252;3744
336;683;15257;3724
338;680;15262;3720
349;676;15254;3721
325;708;15246;3721
324;701;15240;3735
329;691;15253;3727
336;692;15248;3724
347;687;15249;3717
356;691;15229;3724
367;687;15224;3722
355;694;15225;3726
339;686;15237;3738
350;676;15239;3735
354;676;15252;3718
351;679;15257;3713
352;708;15234;3706
353;710;15244;3693
353;707;15255;3685
329;712;15263;3696
318;710;15277;3695
322;699;15270;3709
358;695;15252;3695
366;697;15248;3689
362;705;15254;3679
373;705;15269;3653
378;699;15279;3644
363;716;15271;3650
358;735;15275;3632
364;732;15288;3616
359;744;15294;3603
356;739;15320;3585
375;733;15329;3563
382;737;15330;3551
381;747;15316;3556
377;757;15318;3548
368;772;15330;3530
386;776;15324;3514
389;781;15323;3507
390;784;15347;3479
409;765;15361;3465
390;773;15352;3485
368;790;15352;3490
370;777;15376;3477
376;762;15377;3485
345;757;15397;3501
316;747;15423;3514
336;729;15416;3519
353;717;15423;3507
341;753;15391;3515
342;755;15399;3504
342;768;15391;3499
345;746;15415;3494
347;724;15435;3494
336;732;15407;3525
355;724;15411;3510
362;701;15426;3511
352;713;15441;3494
334;733;15425;3508
332;721;15443;3504
343;703;15467;3487
338;701;15450;3511
333;716;15419;3532
330;722;15418;3530
345;713;15417;3525
360;715;15422;3503
375;714;15409;3502
