0;20;0;19980
19;20;0;19961
21;26;3;19950
34;34;3;19929
41;45;5;19909
64;55;8;19873
89;63;17;19831
116;76;24;19784
150;99;30;19721
199;121;45;19635
251;166;61;19522
329;220;80;19371
437;277;110;19176
546;372;151;18931
656;480;199;18665
846;603;256;18295
1134;765;331;17770
1466;987;415;17132
1774;1283;539;16404
2158;1604;715;15523
2673;1967;925;14435
3104;2443;1161;13292
3605;2958;1478;11959
3987;3599;1848;10566
4363;4252;2346;9039
4575;4915;2895;7615
4692;5549;3542;6217
4571;6174;4271;4984
4345;6676;5061;3918
3912;7027;5952;3109
3532;7142;6932;2394
3145;7206;7856;1793
2684;7190;8768;1358
2217;6996;9699;1088
1845;6672;10582;901
1546;6296;11439;719
1213;5886;12286;615
976;5427;13070;527
818;4904;13815;463
669;4436;14465;430
542;4038;15020;400
440;3641;15531;388
344;3305;15969;382
279;2952;16366;403
249;2635;16696;420
204;2352;17001;443
179;2035;17320;466
153;1820;17545;482
135;1598;17742;525
137;1428;17882;553
123;1282;18006;589
114;1175;18070;641
95;1054;18167;684
91;924;18270;715
83;816;18345;756
84;736;18371;809
91;660;18400;849
89;587;18430;894
77;550;18443;930
61;506;18454;979
51;454;18463;1032
50;399;18462;1089
52;352;18473;1123
51;318;18448;1183
45;289;18424;1242
45;252;18414;1289
53;228;18388;1331
48;205;18361;1386
43;196;18308;1453
38;188;18254;1520
40;167;18229;1564
36;154;18198;1612
28;142;18161;1669
21;130;18115;1734
27;116;18061;1796
26;103;18017;1854
20;102;17975;1903
19;95;17933;1953
15;92;17873;2020
23;86;17835;2056
27;75;17782;2116
31;68;17735;2166
25;71;17681;2223
22;58;17649;2271
19;50;17611;2320
21;45;17567;2367
23;43;17522;2412
21;42;17465;2472
12;50;17410;2528
13;48;17357;2582
15;41;17301;2643
13;43;17251;2693
12;44;17201;2743
13;40;17152;2795
8;41;17109;2842
9;35;17057;2899
7;34;17010;2949
6;27;16972;2995
7;26;16915;3052
11;22;16870;3097
12;22;16814;3152
14;23;16760;3203
12;27;16710;3251
13;24;16640;3323
12;28;16589;3371
12;29;16543;3416
11;28;16500;3461
11;31;16456;3502
10;30;16403;3557
12;31;16350;3607
17;31;16320;3632
21;29;16260;3690
20;30;16213;3737
18;31;16158;3793
18;31;16110;3841
15;30;16069;3886
16;30;16012;3942
13;34;15965;3988
17;33;15907;4043
14;34;15867;4085
15;36;15820;4129
15;35;15776;4174
16;34;15723;4227
11;36;15681;4272
14;35;15645;4306
17;35;15598;4350
18;29;15550;4403
14;35;15506;4445
16;35;15473;4476
15;36;15430;4519
17;37;15400;4546
15;40;15355;4590
14;42;15310;4634
18;40;15270;4672
15;34;15234;4717
14;39;15201;4746
15;42;15151;4792
21;41;15102;4836
26;41;15066;4867
28;41;15029;4902
28;46;14992;4934
24;47;14950;4979
25;49;14913;5013
19;57;14873;5051
23;47;14839;5091
24;50;14791;5135
36;48;14759;5157
39;48;14722;5191
41;50;14684;5225
47;49;14664;5240
48;59;14626;5267
47;62;14583;5308
51;70;14548;5331
53;78;14510;5359
55;81;14485;5379
55;85;14452;5408
56;84;14422;5438
51;96;14382;5471
65;88;14363;5484
63;101;14327;5509
69;110;14298;5523
82;115;14261;5542
91;123;14237;5549
86;145;14215;5554
96;149;14195;5560
113;154;14166;5567
112;154;14161;5573
112;170;14131;5587
106;184;14110;5600
117;193;14099;5591
130;191;14080;5599
117;210;14056;5617
130;221;14043;5606
146;232;14035;5587
145;249;14027;5579
156;263;14013;5568
165;267;14007;5561
177;263;14014;5546
175;281;14018;5526
211;300;14006;5483
217;309;14015;5459
224;326;14016;5434
254;330;14027;5389
240;354;14028;5378
252;382;14027;5339
252;409;14028;5311
285;427;14024;5264
303;430;14058;5209
303;473;14073;5151
295;508;14093;5104
314;522;14121;5043
338;527;14143;4992
355;550;14172;4923
336;577;14208;4879
359;566;14263;4812
365;599;14287;4749
389;611;14319;4681
420;615;14354;4611
401;653;14386;4560
399;691;14417;4493
426;705;14471;4398
431;728;14518;4323
407;745;14574;4274
398;777;14612;4213
406;785;14663;4146
437;777;14707;4079
443;790;14755;4012
438;812;14815;3935
435;820;14882;3863
417;809;14970;3804
410;820;15026;3744
406;846;15064;3684
404;848;15111;3637
397;853;15187;3563
391;850;15245;3514
427;830;15292;3451
398;822;15358;3422
396;836;15387;3381
381;832;15421;3366
400;802;15485;3313
389;818;15536;3257
377;822;15579;3222
383;826;15624;3167
360;842;15668;3130
358;842;15707;3093
366;824;15742;3068
375;790;15782;3053
357;803;15805;3035
382;763;15851;3004
347;778;15884;2991
334;775;15913;2978
337;744;15950;2969
329;736;15996;2939
310;721;16025;2944
289;711;16059;2941
288;686;16095;2931
296;700;16077;2927
290;701;16099;2910
267;691;16100;2942
245;682;16104;2969
248;656;16099;2997
229;626;16128;3017
235;603;16125;3037
222;585;16116;3077
240;559;16115;3086
237;551;16108;3104
246;535;16101;3118
249;530;16102;3119
248;542;16074;3136
263;532;16068;3137
242;535;16073;3150
219;549;16065;3167
229;525;16054;3192
254;529;16034;3183
239;536;16021;3204
236;528;16019;3217
249;509;16019;3223
241;498;16003;3258
228;512;15958;3302
237;486;15963;3314
236;494;15944;3326
230;486;15935;3349
240;463;15940;3357
224;470;15909;3397
236;444;15890;3430
208;453;15856;3483
204;448;15845;3503
214;454;15803;3529
227;442;15792;3539
239;437;15762;3562
242;436;15732;3590
224;440;15733;3603
191;454;15712;3643
203;429;15705;3663
216;413;15687;3684
225;406;15664;3705
230;405;15627;3738
229;410;15588;3773
219;406;15573;3802
225;413;15538;3824
220;426;15483;3871
226;423;15466;3885
223;423;15447;3907
210;440;15414;3936
215;445;15387;3953
235;453;15349;3963
252;456;15314;3978
264;466;15284;3986
255;465;15257;4023
243;490;15247;4020
246;504;15229;4021
275;503;15209;4013
271;518;15199;4012
287;506;15187;4020
276;506;15188;4030
261;507;15172;4060
265;503;15160;4072
269;488;15164;4079
264;506;15133;4097
270;504;15114;4112
271;511;15094;4124
249;528;15067;4156
269;534;15045;4152
277;551;15004;4168
273;565;14982;4180
266;560;14968;4206
306;570;14942;4182
299;584;14924;4193
297;605;14909;4189
315;600;14918;4167
324;588;14926;4162
328;606;14909;4157
322;641;14881;4156
356;640;14871;4133
362;660;14870;4108
359;652;14871;4118
348;672;14884;4096
347;667;14892;4094
369;653;14894;4084
364;673;14893;4070
356;674;14910;4060
363;679;14910;4048
385;669;14938;4008
379;681;14914;4026
380;685;14937;3998
367;710;14937;3986
350;724;14939;3987
368;726;14942;3964
351;744;14962;3943
380;743;14964;3913
392;736;14973;3899
366;770;14995;3869
373;784;14997;3846
360;806;14992;3842
354;795;15032;3819
377;795;15043;3785
365;791;15055;3789
380;803;15075;3742
393;809;15085;3713
404;820;15099;3677
417;831;15122;3630
389;843;15147;3621
389;836;15182;3593
401;832;15196;3571
406;827;15223;3544
383;845;15233;3539
391;845;15246;3518
389;829;15273;3509
417;833;15259;3491
400;838;15305;3457
414;843;15318;3425
382;844;15368;3406
368;843;15391;3398
363;826;15401;3410
389;813;15417;3381
383;813;15423;3381
388;802;15460;3350
378;791;15469;3362
354;790;15518;3338
345;790;15535;3330
334;798;15532;3336
345;789;15531;3335
337;795;15529;3339
334;765;15563;3338
316;750;15583;3351
302;739;15582;3377
327;733;15577;3363
321;727;15571;3381
317;724;15596;3363
327;704;15615;3354
327;697;15621;3355
340;670;15622;3368
336;673;15608;3383
322;699;15595;3384
319;691;15593;3397
306;698;15591;3405
314;697;15561;3428
314;660;15583;3443
308;639;15585;3468
312;650;15565;3473
333;654;15547;3466
327;653;15534;3486
340;641;15515;3504
320;661;15495;3524
325;652;15488;3535
335;655;15479;3531
340;655;15463;3542
340;642;15474;3544
307;683;15453;3557
304;655;15484;3557
294;666;15463;3577
319;664;15453;3564
307;664;15422;3607
312;655;15430;3603
325;649;15417;3609
326;646;15400;3628
333;665;15373;3629
348;642;15377;3633
320;648;15369;3663
313;670;15340;3677
303;664;15327;3706
300;665;15327;3708
306;662;15328;3704
309;677;15327;3687
302;681;15337;3680
332;661;15328;3679
314;666;15335;3685
345;656;15327;3672
345;640;15332;3683
349;639;15346;3666
348;635;15338;3679
340;650;15301;3709
343;656;15294;3707
322;681;15268;3729
321;677;15267;3735
332;675;15272;3721
344;657;15285;3714
321;663;15274;3742
310;654;15274;3762
335;637;15279;3749
324;639;15278;3759
323;659;15265;3753
318;660;15268;3754
319;663;15274;3744
329;666;15274;3731
323;652;15281;3744
331;657;15285;3727
344;641;15293;3722
349;652;15301;3698
323;658;15292;3727
331;661;15280;3728
343;664;15272;3721
354;657;15273;3716
330;675;15264;3731
342;668;15269;3721
321;676;15261;3742
338;686;15234;3742
342;688;15233;3737
336;697;15235;3732
311;688;15254;3747
355;672;15259;3714
359;685;15261;3695
340;691;15251;3718
342;710;15235;3713
338;707;15239;3716
345;726;15229;3700
354;745;15220;3681
349;749;15241;3661
358;741;15261;3640
372;721;15282;3625
364;725;15306;3605
379;709;15311;3601
362;719;15315;3604
348;733;15343;3576
353;735;15340;3572
356;732;15379;3533
350;736;15368;3546
352;734;15384;3530
347;725;15385;3543
358;706;15412;3524
356;708;15409;3527
344;723;15395;3538
325;722;15401;3552
334;705;15422;3539
344;703;15414;3539
363;693;15399;3545
332;703;15412;3553
357;696;15418;3529
376;681;15434;3509
363;723;15420;3494
366;750;15420;3464
368;753;15433;3446
359;724;15450;3467
371;730;15440;3459
329;728;15464;3479
331;726;15454;3489
335;714;15465;3486
321;718;15475;3486
322;717;15469;3492
315;702;15476;3507
320;697;15489;3494
306;702;15471;3521
309;700;15470;3521
299;693;15479;3529
299;697;15486;3518
304;689;15464;3543
309;677;15452;3562
311;676;15444;3569
317;661;15464;3558
325;659;15482;3534
339;664;15484;3513
332;665;15469;3534
327;693;15436;3544
352;668;15445;3535
355;685;15418;3542
358;682;15417;3543
345;689;15430;3536
341;686;15420;3553
337;688;15413;3562
336;668;15427;3569
322;689;15415;3574
323;689;15427;3561
314;678;15454;3554
301;685;15445;3569
308;689;15439;3564
326;676;15444;3554
328;683;15438;3551
327;676;15443;3554
340;660;15434;3566
320;666;15436;3578
337;644;15447;3572
342;644;15447;3567
322;654;15448;3576
323;654;15433;3590
323;631;15431;3615
335;625;15437;3603
330;620;15434;3616
325;614;15443;3618
316;626;15444;3614
321;626;15433;3620
350;602;15431;3617
329;604;15421;3646
323;610;15417;3650
291;631;15387;3691
286;631;15382;3701
289;646;15355;3710
309;628;15373;3690
307;622;15375;3696
306;641;15331;3722
314;643;15325;3718
317;646;15315;3722
311;639;15310;3740
322;646;15302;3730
326;661;15305;3708
330;687;15285;3698
341;678;15288;3693
316;702;15276;3706
314;699;15281;3706
323;689;15269;3719
338;680;15260;3722
332;679;15272;3717
330;692;15263;3715
334;708;15231;3727
317;698;15236;3749
331;700;15235;3734
337;703;15224;3736
353;682;15228;3737
327;713;15228;3732
336;687;15242;3735
341;698;15249;3712
339;700;15248;3713
358;693;15244;3705
355;686;15242;3717
355;699;15225;3721
337;691;15233;3739
343;695;15243;3719
359;677;15230;3734
348;700;15223;3729
347;688;15214;3751
354;695;15210;3741
340;717;15198;3745
352;705;15214;3729
352;709;15211;3728
366;690;15228;3716
341;712;15224;3723
366;702;15235;3697
373;729;15238;3660
343;745;15241;3671
352;741;15254;3653
327;743;15290;3640
324;713;15308;3655
310;709;15311;3670
314;715;15316;3655
309;709;15336;3646
337;683;15334;3646
343;678;15328;3651
324;684;15333;3659
319;704;15306;3671
329;692;15288;3691
323;679;15293;3705
315;677;15273;3735
325;653;15253;3769
332;663;15231;3774
348;661;15230;3761
318;665;15230;3787
333;641;15227;3799
322;645;15229;3804
306;655;15216;3823
315;636;15216;3833
321;647;15203;3829
318;664;15184;3834
323;660;15154;3863
322;638;15153;3887
331;642;15142;3885
321;659;15108;3912
333;630;15133;3904
308;643;15131;3918
319;642;15101;3938
329;650;15075;3946
331;671;15041;3957
323;680;15036;3961
327;686;15016;3971
345;694;14998;3963
332;685;15017;3966
346;693;14983;3978
347;711;14974;3968
350;689;14993;3968
373;686;14993;3948
366;694;14985;3955
379;715;14978;3928
380;722;14998;3900
367;718;14999;3916
376;710;15002;3912
366;714;15021;3899
377;727;15025;3871
373;734;15033;3860
390;747;15012;3851
391;744;15006;3859
380;751;15004;3865
369;768;14999;3864
375;791;15013;3821
410;801;15004;3785
413;791;15025;3771
407;781;15055;3757
400;809;15059;3732
423;788;15069;3720
389;796;15079;3736
400;799;15095;3706
405;802;15110;3683
369;815;15119;3697
376;800;15124;3700
379;772;15160;3689
394;761;15174;3671
400;768;15170;3662
397;772;15178;3653
402;780;15197;3621
414;766;15189;3631
389;792;15200;3619
386;791;15202;3621
393;792;15199;3616
371;805;15206;3618
380;801;15239;3580
396;794;15251;3559
383;807;15266;3544
380;809;15272;3539
380;803;15278;3539
358;814;15278;3550
365;800;15291;3544
354;798;15293;3555
353;768;15315;3564
358;757;15336;3549
348;747;15349;3556
341;759;15343;3557
353;760;15324;3563
355;746;15333;3566
343;749;15325;3583
380;744;15315;3561
364;740;15324;3572
352;728;15345;3575
365;714;15354;3567
363;709;15355;3573
343;717;15364;3576
337;726;15347;3590
332;743;15359;3566
333;723;15358;3586
339;707;15372;3582
350;696;15392;3562
352;691;15411;3546
361;699;15407;3533
345;702;15414;3539
320;682;15427;3571
325;685;15418;3572
334;661;15435;3570
322;660;15425;3593
310;679;15413;3598
294;678;15403;3625
316;681;15388;3615
306;660;15397;3637
296;659;15400;3645
296;655;15406;3643
301;643;15389;3667
321;625;15400;3654
322;607;15388;3683
341;606;15381;3672
337;613;15372;3678
329;613;15372;3686
311;639;15362;3688
313;631;15350;3706
296;657;15338;3709
292;659;15325;3724
294;648;15303;3755
287;636;15310;3767
287;629;15305;3779
285;629;15303;3783
301;619;15290;3790
318;613;15282;3787
307;627;15266;3800
317;606;15266;3811
323;604;15234;3839
316;617;15211;3856
337;594;15221;3848
348;615;15196;3841
340;642;15165;3853
324;652;15173;3851
308;643;15169;3880
313;610;15197;3880
310;627;15185;3878
308;638;15169;3885
300;619;15194;3887
298;618;15208;3876
291;611;15196;3902
281;623;15179;3917
283;636;15157;3924
311;616;15168;3905
321;613;15164;3902
325;627;15141;3907
321;638;15131;3910
308;662;15108;3922
306;658;15100;3936
303;656;15098;3943
312;665;15100;3923
305;682;15076;3937
311;678;15064;3947
283;678;15079;3960
302;664;15060;3974
323;658;15042;3977
332;666;15027;3975
355;638;15020;3987
348;659;15020;3973
325;670;15028;3977
