0;20;0;19980
13;20;0;19967
22;20;5;19953
31;22;6;19941
38;30;9;19923
54;32;14;19900
70;44;16;19870
84;60;23;19833
113;79;32;19776
155;99;45;19701
201;133;61;19605
257;182;76;19485
367;214;109;19310
444;291;140;19125
583;386;172;18859
720;508;217;18555
919;652;286;18143
1171;817;373;17639
1477;1051;475;16997
1783;1330;625;16262
2155;1640;807;15398
2629;1996;1037;14338
3130;2465;1306;13099
3613;3040;1617;11730
4096;3612;2039;10253
4397;4246;2511;8846
4578;4922;3049;7451
4620;5613;3713;6054
4545;6150;4447;4858
4290;6659;5236;3815
3918;7015;6076;2991
3509;7179;7006;2306
3042;7229;7933;1796
2602;7089;8897;1412
2186;6878;9822;1114
1839;6550;10744;867
1492;6247;11558;703
1214;5864;12330;592
1013;5379;13088;520
820;4929;13782;469
665;4516;14382;437
559;4063;14960;418
450;3666;15484;400
370;3326;15914;390
303;2974;16319;404
250;2649;16686;415
218;2360;16996;426
168;2131;17252;449
154;1915;17459;472
132;1702;17677;489
123;1532;17820;525
124;1348;17961;567
111;1194;18087;608
105;1067;18200;628
90;960;18276;674
83;847;18355;715
77;762;18418;743
63;680;18463;794
60;595;18500;845
54;530;18513;903
50;477;18516;957
46;408;18556;990
34;378;18524;1064
38;334;18503;1125
45;286;18503;1166
38;275;18462;1225
46;250;18413;1291
48;220;18375;1357
45;205;18332;1418
47;185;18302;1466
43;172;18269;1516
51;155;18239;1555
51;140;18200;1609
58;127;18169;1646
47;129;18130;1694
39;127;18087;1747
36;122;18044;1798
26;117;18005;1852
23;102;17976;1899
23;97;17927;1953
21;95;17886;1998
21;86;17844;2049
24;80;17794;2102
24;82;17745;2149
17;82;17706;2195
20;71;17672;2237
18;65;17638;2279
18;55;17597;2330
17;52;17542;2389
13;52;17499;2436
12;50;17450;2488
14;46;17393;2547
12;43;17344;2601
13;45;17299;2643
13;46;17250;2691
12;45;17186;2757
11;44;17132;2813
6;41;17083;2870
8;37;17030;2925
7;35;16985;2973
12;26;16948;3014
9;29;16904;3058
8;30;16848;3114
8;26;16796;3170
8;27;16751;3214
8;26;16697;3269
8;26;16638;3328
8;23;16587;3382
10;22;16544;3424
11;17;16486;3486
11;20;16443;3526
13;22;16394;3571
13;22;16359;3606
12;24;16294;3670
10;27;16246;3717
9;26;16206;3759
10;25;16167;3798
11;22;16118;3849
14;22;16082;3882
16;20;16041;3923
18;21;15991;3970
17;22;15945;4016
16;23;15901;4060
17;20;15852;4111
18;24;15812;4146
18;27;15770;4185
20;25;15729;4226
17;29;15695;4259
17;27;15672;4284
12;29;15630;4329
13;29;15580;4378
21;24;15532;4423
23;25;15484;4468
18;31;15450;4501
23;30;15410;4537
24;29;15374;4573
24;31;15336;4609
23;31;15284;4662
22;34;15235;4709
21;35;15178;4766
25;34;15141;4800
19;38;15091;4852
26;37;15044;4893
32;35;15007;4926
25;42;14973;4960
32;39;14945;4984
26;45;14904;5025
30;45;14875;5050
31;50;14836;5083
36;51;14810;5103
44;51;14771;5134
41;59;14731;5169
40;65;14686;5209
52;69;14666;5213
54;69;14640;5237
51;70;14622;5257
44;75;14596;5285
39;80;14582;5299
35;84;14559;5322
47;84;14540;5329
47;89;14508;5356
59;88;14483;5370
59;97;14455;5389
58;101;14428;5413
59;105;14406;5430
63;101;14380;5456
65;106;14345;5484
76;108;14307;5509
86;104;14280;5530
90;119;14248;5543
89;127;14222;5562
95;133;14198;5574
101;141;14173;5585
104;146;14150;5600
105;157;14125;5613
117;163;14106;5614
110;178;14073;5639
122;186;14044;5648
140;199;14024;5637
146;209;14015;5630
162;212;13996;5630
165;237;13970;5628
178;251;13954;5617
188;275;13937;5600
194;290;13921;5595
209;307;13917;5567
220;334;13909;5537
228;361;13911;5500
224;364;13922;5490
245;364;13936;5455
248;368;13946;5438
249;396;13948;5407
271;402;13965;5362
279;407;13986;5328
299;441;13985;5275
317;452;14002;5229
318;500;14004;5178
348;518;14024;5110
350;549;14050;5051
372;566;14080;4982
367;594;14132;4907
403;594;14183;4820
427;620;14209;4744
426;659;14243;4672
435;680;14297;4588
401;706;14358;4535
410;734;14392;4464
404;757;14453;4386
410;775;14505;4310
422;778;14567;4233
436;793;14632;4139
458;793;14692;4057
447;810;14738;4005
469;837;14793;3901
464;876;14860;3800
482;874;14913;3731
472;898;14966;3664
457;898;15041;3604
448;909;15100;3543
462;889;15176;3473
428;905;15252;3415
403;926;15313;3358
413;904;15386;3297
415;894;15448;3243
409;885;15514;3192
392;866;15579;3163
389;853;15621;3137
379;870;15641;3110
381;852;15683;3084
372;857;15723;3048
363;832;15787;3018
351;836;15819;2994
345;832;15860;2963
347;820;15885;2948
343;783;15925;2949
341;788;15930;2941
351;766;15968;2915
324;787;15989;2900
325;781;16029;2865
343;754;16067;2836
306;751;16105;2838
300;758;16110;2832
304;720;16141;2835
278;728;16172;2822
278;703;16194;2825
291;685;16213;2811
278;683;16224;2815
290;675;16236;2799
278;656;16234;2832
265;647;16235;2853
267;633;16235;2865
271;629;16231;2869
291;615;16236;2858
269;597;16253;2881
256;579;16270;2895
267;572;16249;2912
244;574;16245;2937
242;556;16243;2959
251;543;16249;2957
253;516;16244;2987
254;503;16240;3003
252;487;16228;3033
251;474;16228;3047
241;495;16210;3054
232;506;16178;3084
216;508;16148;3128
215;500;16131;3154
219;480;16127;3174
224;486;16086;3204
214;473;16084;3229
213;459;16073;3255
201;453;16044;3302
204;442;16015;3339
221;428;15991;3360
217;430;15971;3382
201;440;15946;3413
203;447;15898;3452
214;434;15888;3464
220;424;15860;3496
201;424;15859;3516
196;443;15813;3548
206;437;15786;3571
212;434;15745;3609
226;426;15707;3641
223;425;15672;3680
213;430;15644;3713
212;434;15619;3735
199;447;15577;3777
217;444;15551;3788
228;447;15516;3809
238;443;15496;3823
237;451;15468;3844
227;447;15447;3879
257;418;15432;3893
250;440;15396;3914
242;435;15379;3944
256;439;15335;3970
250;471;15289;3990
267;465;15247;4021
259;483;15236;4022
267;502;15220;4011
256;507;15198;4039
249;514;15171;4066
276;525;15130;4069
298;537;15105;4060
318;531;15107;4044
313;550;15097;4040
287;577;15088;4048
303;555;15105;4037
281;560;15099;4060
282;562;15094;4062
294;565;15072;4069
300;580;15052;4068
310;576;15039;4075
319;585;15036;4060
310;589;15035;4066
327;578;15050;4045
339;589;15040;4032
312;603;15031;4054
328;602;15014;4056
328;606;15006;4060
320;607;15013;4060
327;609;15022;4042
354;621;15012;4013
347;624;15014;4015
360;617;15028;3995
368;632;15022;3978
371;656;15020;3953
357;671;15030;3942
344;693;15009;3954
343;704;15030;3923
347;703;15050;3900
340;722;15056;3882
353;717;15068;3862
359;729;15082;3830
364;717;15101;3818
363;742;15091;3804
379;748;15105;3768
365;763;15121;3751
369;746;15123;3762
360;735;15149;3756
378;717;15180;3725
368;738;15171;3723
385;748;15190;3677
364;771;15181;3684
335;769;15199;3697
353;752;15222;3673
356;732;15254;3658
342;748;15258;3652
352;737;15276;3635
359;713;15300;3628
354;732;15311;3603
344;748;15320;3588
362;752;15294;3592
357;749;15304;3590
389;730;15323;3558
362;751;15314;3573
375;763;15292;3570
365;770;15303;3562
366;771;15301;3562
402;764;15309;3525
392;759;15331;3518
370;769;15368;3493
378;760;15380;3482
363;751;15396;3490
371;751;15401;3477
381;757;15379;3483
354;779;15369;3498
340;782;15362;3516
350;767;15375;3508
344;741;15381;3534
341;736;15378;3545
339;735;15379;3547
322;724;15388;3566
356;735;15366;3543
370;737;15348;3545
366;742;15338;3554
353;738;15352;3557
337;742;15348;3573
344;742;15348;3566
352;730;15375;3543
351;729;15387;3533
351;755;15385;3509
348;764;15380;3508
346;755;15392;3507
341;722;15422;3515
350;717;15426;3507
323;745;15405;3527
337;714;15414;3535
341;723;15420;3516
334;723;15435;3508
336;693;15456;3515
331;690;15472;3507
315;694;15485;3506
312;681;15491;3516
327;648;15500;3525
325;647;15490;3538
327;656;15465;3552
337;669;15451;3543
330;680;15454;3536
315;679;15467;3539
328;690;15464;3518
330;668;15490;3512
331;663;15472;3534
312;674;15467;3547
306;659;15461;3574
284;677;15415;3624
318;646;15420;3616
330;630;15433;3607
339;611;15437;3613
307;640;15407;3646
303;620;15411;3666
322;624;15395;3659
315;618;15395;3672
316;624;15386;3674
320;646;15370;3664
321;645;15383;3651
295;646;15396;3663
287;653;15376;3684
287;644;15371;3698
285;644;15349;3722
332;631;15333;3704
329;634;15341;3696
344;632;15349;3675
354;638;15340;3668
356;645;15340;3659
357;638;15344;3661
338;659;15324;3679
333;674;15329;3664
348;677;15301;3674
334;696;15304;3666
338;694;15298;3670
336;691;15289;3684
353;684;15284;3679
324;705;15272;3699
317;711;15279;3693
340;692;15297;3671
331;710;15297;3662
350;680;15300;3670
346;671;15307;3676
340;674;15307;3679
325;696;15288;3691
340;689;15280;3691
347;681;15298;3674
349;689;15288;3674
344;687;15285;3684
331;704;15291;3674
329;708;15287;3676
341;699;15297;3663
327;710;15294;3669
331;706;15292;3671
342;697;15294;3667
342;699;15309;3650
357;693;15327;3623
345;695;15344;3616
324;694;15352;3630
321;708;15357;3614
355;703;15363;3579
343;693;15406;3558
325;695;15407;3573
332;688;15410;3570
317;693;15414;3576
326;658;15423;3593
357;653;15435;3555
345;650;15443;3562
326;666;15452;3556
338;683;15426;3553
342;681;15438;3539
339;696;15438;3527
326;683;15461;3530
312;679;15478;3531
296;679;15471;3554
330;674;15459;3537
321;703;15442;3534
332;688;15438;3542
337;702;15439;3522
341;688;15464;3507
340;675;15466;3519
317;687;15468;3528
303;679;15462;3556
306;671;15482;3541
293;696;15468;3543
318;683;15465;3534
295;673;15476;3556
310;631;15482;3577
298;640;15468;3594
300;625;15468;3607
310;601;15473;3616
286;621;15444;3649
294;600;15458;3648
274;613;15436;3677
283;612;15419;3686
271;632;15385;3712
303;603;15402;3692
298;608;15377;3717
304;601;15364;3731
302;588;15348;3762
297;595;15341;3767
302;588;15332;3778
297;591;15327;3785
297;586;15321;3796
303;584;15293;3820
308;595;15278;3819
308;601;15258;3833
283;625;15245;3847
306;614;15224;3856
320;608;15209;3863
314;601;15215;3870
305;615;15199;3881
323;622;15192;3863
343;628;15189;3840
354;629;15183;3834
353;641;15178;3828
350;650;15179;3821
346;663;15180;3811
349;690;15174;3787
344;698;15201;3757
319;727;15203;3751
320;710;15211;3759
350;728;15191;3731
368;726;15211;3695
359;707;15243;3691
370;703;15241;3686
362;707;15244;3687
363;713;15259;3665
357;710;15250;3683
379;722;15240;3659
353;750;15259;3638
355;737;15293;3615
367;705;15319;3609
330;732;15326;3612
342;714;15342;3602
342;706;15352;3600
338;708;15358;3596
324;688;15365;3623
320;680;15342;3658
314;684;15346;3656
353;656;15343;3648
347;686;15314;3653
348;716;15310;3626
348;730;15303;3619
372;716;15325;3587
375;730;15314;3581
378;732;15324;3566
368;723;15346;3563
361;726;15367;3546
348;716;15381;3555
336;720;15373;3571
354;711;15355;3580
332;734;15341;3593
335;733;15349;3583
359;705;15351;3585
339;719;15373;3569
343;732;15342;3583
321;720;15344;3615
326;703;15363;3608
346;687;15387;3580
358;684;15371;3587
348;698;15350;3604
311;716;15346;3627
320;694;15355;3631
333;687;15335;3645
332;666;15343;3659
337;667;15336;3660
351;658;15317;3674
356;654;15299;3691
349;657;15303;3691
359;668;15291;3682
341;692;15259;3708
324;724;15254;3698
334;734;15241;3691
334;749;15234;3683
350;754;15231;3665
385;743;15254;3618
378;752;15256;3614
383;751;15254;3612
373;763;15246;3618
362;762;15258;3618
392;756;15243;3609
375;776;15237;3612
370;770;15268;3592
376;732;15286;3606
375;773;15268;3584
370;743;15276;3611
367;758;15287;3588
379;769;15272;3580
388;780;15257;3575
377;779;15259;3585
375;778;15282;3565
350;770;15309;3571
364;746;15325;3565
363;752;15330;3555
340;776;15303;3581
348;757;15310;3585
370;742;15295;3593
365;752;15299;3584
344;758;15311;3587
338;750;15334;3578
336;745;15322;3597
346;747;15316;3591
349;733;15344;3574
353;734;15355;3558
360;734;15342;3564
369;734;15333;3564
377;729;15343;3551
364;732;15338;3566
359;736;15335;3570
327;733;15341;3599
323;723;15358;3596
325;735;15345;3595
353;711;15341;3595
342;711;15340;3607
326;712;15342;3620
316;729;15329;3626
328;711;15326;3635
305;728;15321;3646
330;727;15300;3643
347;710;15321;3622
340;725;15292;3643
337;726;15291;3646
349;703;15325;3623
334;701;15337;3628
347;682;15354;3617
354;680;15345;3621
346;677;15368;3609
329;688;15365;3618
336;681;15356;3627
336;687;15345;3632
353;673;15334;3640
349;675;15318;3658
363;677;15327;3633
365;674;15343;3618
353;677;15345;3625
349;686;15349;3616
354;689;15340;3617
346;685;15350;3619
324;703;15328;3645
348;689;15319;3644
340;712;15311;3637
342;716;15302;3640
348;687;15325;3640
349;698;15322;3631
351;722;15304;3623
358;704;15318;3620
346;728;15284;3642
332;735;15288;3645
337;730;15304;3629
339;733;15292;3636
343;706;15298;3653
321;725;15295;3659
326;733;15291;3650
326;740;15287;3647
339;722;15309;3630
344;730;15321;3605
368;724;15318;3590
354;726;15306;3614
337;716;15326;3621
340;707;15335;3618
334;692;15339;3635
335;675;15326;3664
341;679;15314;3666
371;663;15314;3652
352;694;15306;3648
363;679;15323;3635
355;695;15322;3628
358;704;15308;3630
356;719;15310;3615
379;709;15311;3601
363;711;15312;3614
346;714;15314;3626
355;718;15292;3635
338;732;15294;3636
321;724;15310;3645
326;705;15329;3640
324;721;15312;3643
321;744;15291;3644
328;752;15283;3637
339;751;15283;3627
345;734;15298;3623
354;732;15299;3615
346;725;15304;3625
347;738;15319;3596
348;729;15302;3621
328;745;15293;3634
348;715;15308;3629
339;740;15290;3631
353;720;15306;3621
373;697;15321;3609
381;693;15311;3615
351;712;15305;3632
349;714;15297;3640
352;719;15310;3619
340;743;15322;3595
309;743;15335;3613
328;726;15358;3588
340;726;15352;3582
317;723;15382;3578
314;705;15386;3595
327;694;15391;3588
349;678;15389;3584
342;693;15377;3588
344;683;15394;3579
321;696;15378;3605
340;687;15381;3592
325;693;15388;3594
341;706;15393;3560
333;721;15395;3551
357;718;15403;3522
365;730;15390;3515
356;725;15388;3531
369;690;15406;3535
355;692;15425;3528
342;717;15413;3528
344;716;15417;3523
340;699;15425;3536
315;711;15424;3550
322;699;15415;3564
323;708;15399;3570
326;705;15393;3576
314;704;15401;3581
323;675;15406;3596
323;682;15392;3603
327;664;15397;3612
315;671;15379;3635
325;666;15368;3641
310;680;15350;3660
326;691;15314;3669
330;697;15307;3666
356;691;15306;3647
353;704;15311;3632
