0;20;0;19980
14;20;0;19966
23;22;2;19953
36;26;4;19934
49;31;6;19914
61;39;13;19887
74;56;17;19853
84;66;22;19828
116;78;30;19776
140;102;39;19719
164;141;50;19645
230;174;65;19531
323;213;83;19381
406;289;111;19194
563;369;150;18918
692;487;199;18622
924;628;249;18199
1181;788;333;17698
1499;1045;432;17024
1800;1340;574;16286
2274;1680;753;15293
2760;2072;964;14204
3249;2584;1226;12941
3642;3134;1560;11664
4068;3761;1926;10245
4351;4399;2421;8829
4557;5043;3003;7397
4545;5746;3630;6079
4505;6278;4348;4869
4238;6744;5182;3836
3931;7034;6092;2943
3502;7227;6973;2298
3088;7212;7927;1773
2659;7097;8864;1380
2216;6884;9795;1105
1782;6689;10626;903
1481;6334;11473;712
1173;5936;12291;600
942;5558;12970;530
780;5069;13691;460
643;4616;14315;426
527;4197;14870;406
421;3792;15393;394
346;3414;15842;398
298;3053;16254;395
240;2737;16613;410
214;2417;16941;428
174;2185;17177;464
150;1943;17411;496
134;1722;17610;534
120;1514;17802;564
103;1329;17952;616
97;1170;18090;643
86;1035;18199;680
74;940;18255;731
64;846;18306;784
70;746;18350;834
59;680;18374;887
66;608;18397;929
67;536;18423;974
66;476;18427;1031
61;423;18436;1080
47;387;18437;1129
47;357;18416;1180
41;313;18415;1231
46;272;18379;1303
44;244;18355;1357
45;229;18336;1390
33;201;18325;1441
42;177;18289;1492
42;154;18252;1552
37;143;18214;1606
31;127;18185;1657
36;109;18149;1706
40;103;18087;1770
45;101;18037;1817
37;99;17999;1865
37;95;17956;1912
37;87;17921;1955
30;87;17879;2004
26;88;17842;2044
20;82;17796;2102
21;72;17753;2154
21;62;17713;2204
19;52;17672;2257
16;49;17623;2312
15;44;17571;2370
17;44;17521;2418
16;43;17484;2457
15;34;17429;2522
12;38;17368;2582
16;31;17323;2630
12;34;17267;2687
13;35;17213;2739
15;33;17173;2779
16;31;17120;2833
16;29;17074;2881
19;27;17025;2929
16;31;16974;2979
9;34;16920;3037
12;32;16880;3076
10;30;16835;3125
9;32;16794;3165
11;33;16737;3219
13;34;16695;3258
14;29;16649;3308
10;31;16596;3363
10;30;16553;3407
7;28;16518;3447
8;25;16475;3492
10;24;16432;3534
12;24;16388;3576
8;22;16348;3622
12;20;16298;3670
9;21;16246;3724
18;20;16205;3757
12;24;16160;3804
11;26;16108;3855
15;25;16062;3898
18;26;16014;3942
17;26;15981;3976
17;24;15946;4013
16;24;15904;4056
14;28;15861;4097
13;32;15810;4145
16;27;15778;4179
16;28;15716;4240
12;31;15677;4280
11;26;15654;4309
15;19;15614;4352
13;21;15573;4393
11;24;15528;4437
12;21;15488;4479
14;20;15454;4512
17;22;15411;4550
21;24;15361;4594
18;29;15324;4629
19;26;15286;4669
15;30;15246;4709
27;30;15190;4753
23;37;15140;4800
29;37;15100;4834
26;37;15056;4881
17;44;15008;4931
20;43;14970;4967
23;40;14934;5003
18;44;14896;5042
24;50;14856;5070
33;47;14818;5102
41;44;14774;5141
42;53;14746;5159
43;56;14707;5194
49;64;14669;5218
46;70;14632;5252
48;72;14612;5268
54;71;14579;5296
52;75;14550;5323
57;76;14522;5345
55;80;14483;5382
61;85;14455;5399
71;89;14425;5415
81;97;14398;5424
83;104;14371;5442
87;115;14344;5454
96;127;14307;5470
97;135;14267;5501
106;138;14254;5502
109;149;14226;5516
118;157;14206;5519
119;165;14195;5521
116;181;14168;5535
127;192;14155;5526
131;203;14151;5515
150;207;14141;5502
148;208;14129;5515
143;231;14116;5510
137;246;14107;5510
159;251;14096;5494
185;252;14081;5482
190;291;14058;5461
206;299;14059;5436
207;308;14040;5445
248;307;14033;5412
251;326;14035;5388
234;369;14024;5373
234;387;14037;5342
269;388;14054;5289
257;416;14073;5254
255;441;14092;5212
282;449;14103;5166
283;484;14125;5108
295;503;14139;5063
318;512;14167;5003
313;531;14198;4958
322;552;14216;4910
312;592;14236;4860
341;614;14275;4770
356;630;14320;4694
372;642;14357;4629
367;666;14397;4570
396;667;14438;4499
393;685;14487;4435
397;701;14548;4354
404;693;14602;4301
392;725;14648;4235
416;727;14698;4159
404;763;14742;4091
422;768;14788;4022
430;791;14803;3976
436;780;14863;3921
414;809;14914;3863
412;838;14950;3800
420;823;15012;3745
412;843;15059;3686
422;821;15135;3622
422;827;15174;3577
411;826;15256;3507
390;835;15317;3458
410;839;15367;3384
372;843;15410;3375
382;852;15437;3329
391;822;15513;3274
384;824;15549;3243
363;836;15583;3218
352;821;15639;3188
343;805;15711;3141
320;816;15745;3119
303;801;15785;3111
325;763;15822;3090
307;760;15817;3116
301;755;15865;3079
306;744;15884;3066
308;720;15898;3074
309;722;15908;3061
291;723;15930;3056
287;709;15958;3046
271;714;15980;3035
273;703;15983;3041
273;700;16000;3027
278;680;16009;3033
285;666;16013;3036
292;657;16023;3028
266;649;16038;3047
255;640;16051;3054
268;619;16059;3054
241;624;16068;3067
257;586;16057;3100
240;584;16044;3132
225;593;16041;3141
252;570;16056;3122
241;564;16052;3143
230;578;16027;3165
214;552;16044;3190
213;538;16040;3209
230;510;16042;3218
239;515;15999;3247
246;505;15973;3276
241;508;15962;3289
239;499;15965;3297
243;496;15937;3324
223;496;15924;3357
198;506;15909;3387
203;489;15897;3411
211;466;15888;3435
215;470;15852;3463
214;482;15810;3494
214;472;15810;3504
207;468;15824;3501
203;457;15826;3514
209;449;15801;3541
199;454;15782;3565
208;442;15775;3575
196;434;15750;3620
194;422;15710;3674
183;421;15693;3703
196;423;15668;3713
184;425;15659;3732
191;422;15638;3749
208;419;15617;3756
221;395;15615;3769
218;409;15582;3791
195;445;15520;3840
203;447;15487;3863
203;446;15463;3888
206;454;15439;3901
203;460;15419;3918
198;452;15400;3950
218;439;15377;3966
230;447;15359;3964
229;458;15329;3984
229;467;15309;3995
242;458;15285;4015
240;470;15283;4007
251;477;15263;4009
252;480;15243;4025
255;484;15218;4043
261;478;15194;4067
244;483;15197;4076
258;491;15175;4076
268;492;15171;4069
269;507;15146;4078
266;527;15097;4110
282;555;15063;4100
286;555;15040;4119
285;572;15005;4138
321;575;14997;4107
322;602;14951;4125
332;614;14947;4107
337;620;14925;4118
331;630;14927;4112
348;622;14939;4091
372;615;14914;4099
342;643;14901;4114
345;663;14888;4104
359;655;14900;4086
368;657;14892;4083
349;678;14900;4073
339;695;14906;4060
347;708;14917;4028
335;727;14925;4013
359;711;14927;4003
372;717;14936;3975
364;750;14937;3949
381;754;14954;3911
390;764;14970;3876
391;787;14973;3849
387;801;14993;3819
409;823;14980;3788
427;827;15023;3723
441;821;15072;3666
423;845;15100;3632
392;857;15112;3639
408;849;15134;3609
398;825;15176;3601
405;822;15188;3585
387;822;15224;3567
380;841;15231;3548
397;816;15248;3539
404;826;15254;3516
404;823;15289;3484
388;831;15332;3449
390;832;15351;3427
387;831;15358;3424
369;814;15389;3428
380;810;15399;3411
366;821;15415;3398
369;808;15449;3374
358;795;15458;3389
365;772;15473;3390
358;794;15469;3379
372;777;15470;3381
350;789;15474;3387
345;771;15499;3385
348;761;15516;3375
356;745;15525;3374
356;728;15538;3378
344;758;15512;3386
322;741;15533;3404
303;729;15542;3426
296;728;15545;3431
297;710;15548;3445
296;699;15549;3456
296;690;15546;3468
303;691;15521;3485
284;685;15541;3490
311;659;15526;3504
296;670;15505;3529
305;659;15520;3516
296;648;15514;3542
276;656;15499;3569
292;666;15475;3567
306;673;15462;3559
299;673;15458;3570
287;673;15472;3568
304;652;15474;3570
311;650;15448;3591
294;645;15440;3621
294;649;15428;3629
298;642;15429;3631
313;637;15416;3634
299;649;15391;3661
284;653;15385;3678
284;645;15367;3704
291;650;15344;3715
290;634;15351;3725
308;638;15332;3722
324;652;15309;3715
348;651;15310;3691
343;655;15326;3676
346;640;15346;3668
330;653;15345;3672
315;661;15324;3700
313;667;15321;3699
299;662;15341;3698
326;656;15348;3670
318;678;15328;3676
325;658;15323;3694
319;652;15327;3702
335;638;15330;3697
319;651;15336;3694
333;652;15351;3664
321;656;15383;3640
309;695;15374;3622
348;678;15371;3603
340;681;15373;3606
306;683;15366;3645
313;656;15366;3665
316;648;15355;3681
326;667;15351;3656
339;655;15366;3640
355;666;15360;3619
375;664;15360;3601
344;699;15362;3595
355;705;15366;3574
355;691;15383;3571
344;689;15391;3576
338;680;15424;3558
321;693;15427;3559
329;688;15424;3559
326;684;15422;3568
317;696;15405;3582
325;678;15425;3572
337;673;15427;3563
318;699;15418;3565
318;704;15416;3562
314;701;15391;3594
318;700;15388;3594
302;687;15393;3618
329;671;15394;3606
330;679;15382;3609
320;696;15378;3606
322;716;15344;3618
329;712;15344;3615
355;691;15335;3619
364;694;15321;3621
356;700;15312;3632
336;711;15322;3631
345;717;15319;3619
349;711;15338;3602
345;713;15367;3575
348;717;15347;3588
351;702;15370;3577
339;706;15351;3604
355;689;15364;3592
369;669;15366;3596
375;677;15352;3596
371;669;15361;3599
358;660;15368;3614
349;661;15374;3616
335;691;15352;3622
341;693;15355;3611
324;722;15346;3608
341;733;15339;3587
356;715;15353;3576
342;722;15367;3569
314;739;15365;3582
340;737;15367;3556
337;755;15367;3541
357;755;15374;3514
376;746;15379;3499
349;777;15378;3496
352;786;15378;3484
369;793;15393;3445
374;764;15431;3431
355;767;15441;3437
340;771;15463;3426
347;782;15458;3413
339;786;15476;3399
350;759;15500;3391
367;751;15526;3356
364;733;15536;3367
348;757;15521;3374
358;745;15521;3376
353;755;15521;3371
362;735;15539;3364
372;738;15555;3335
322;767;15543;3368
337;745;15546;3372
360;721;15560;3359
342;725;15556;3377
332;727;15562;3379
349;706;15566;3379
355;702;15566;3377
346;709;15568;3377
335;697;15584;3384
337;704;15578;3381
346;706;15577;3371
327;708;15573;3392
315;678;15607;3400
315;677;15605;3403
319;671;15611;3399
297;682;15593;3428
312;666;15598;3424
294;679;15600;3427
282;673;15594;3451
292;661;15579;3468
298;655;15571;3476
288;687;15537;3488
297;695;15507;3501
306;682;15523;3489
301;680;15513;3506
313;693;15509;3485
313;685;15520;3482
313;661;15530;3496
332;669;15517;3482
333;681;15516;3470
324;687;15502;3487
337;666;15514;3483
330;663;15510;3497
316;676;15512;3496
328;658;15509;3505
304;660;15522;3514
297;657;15501;3545
290;672;15492;3546
299;680;15476;3545
295;684;15470;3551
310;663;15466;3561
305;660;15469;3566
286;659;15471;3584
284;636;15462;3618
309;628;15447;3616
300;635;15423;3642
300;643;15418;3639
288;647;15412;3653
300;629;15421;3650
314;618;15395;3673
320;629;15366;3685
318;627;15346;3709
292;646;15327;3735
296;650;15312;3742
304;630;15319;3747
277;651;15301;3771
311;620;15304;3765
308;616;15280;3796
301;598;15283;3818
307;613;15252;3828
339;633;15226;3802
318;647;15221;3814
336;644;15207;3813
302;659;15222;3817
332;654;15234;3780
352;650;15237;3761
320;679;15218;3783
319;677;15210;3794
318;664;15205;3813
328;673;15190;3809
311;683;15185;3821
319;679;15184;3818
311;671;15177;3841
328;665;15170;3837
319;689;15139;3853
323;683;15145;3849
349;677;15121;3853
351;696;15136;3817
346;715;15135;3804
335;723;15144;3798
334;739;15156;3771
351;731;15171;3747
367;724;15182;3727
369;729;15168;3734
381;727;15185;3707
389;733;15187;3691
349;759;15178;3714
361;740;15178;3721
364;746;15170;3720
369;766;15152;3713
397;751;15146;3706
394;795;15112;3699
404;801;15128;3667
389;809;15122;3680
384;821;15134;3661
399;825;15159;3617
385;827;15188;3600
409;805;15190;3596
413;815;15192;3580
400;823;15238;3539
393;829;15250;3528
401;850;15256;3493
380;851;15283;3486
371;860;15273;3496
352;845;15297;3506
347;821;15325;3507
355;799;15338;3508
358;794;15349;3499
334;804;15357;3505
352;786;15370;3492
362;785;15358;3495
346;768;15378;3508
332;778;15394;3496
314;763;15424;3499
318;742;15430;3510
315;751;15417;3517
321;734;15420;3525
324;727;15410;3539
319;737;15391;3553
335;725;15388;3552
346;709;15420;3525
317;696;15432;3555
321;694;15408;3577
329;696;15393;3582
335;707;15400;3558
357;689;15394;3560
330;698;15387;3585
351;714;15373;3562
350;718;15366;3566
322;724;15371;3583
336;695;15388;3581
322;689;15401;3588
340;683;15379;3598
315;700;15363;3622
351;677;15364;3608
357;674;15355;3614
340;682;15350;3628
345;698;15329;3628
323;701;15339;3637
329;696;15322;3653
330;690;15334;3646
315;708;15327;3650
329;693;15314;3664
317;708;15309;3666
318;705;15316;3661
319;709;15306;3666
315;733;15291;3661
326;723;15289;3662
343;708;15301;3648
343;730;15284;3643
325;731;15295;3649
344;712;15300;3644
347;705;15312;3636
348;707;15303;3642
322;709;15310;3659
339;698;15297;3666
333;702;15288;3677
322;706;15303;3669
295;721;15306;3678
310;706;15301;3683
307;699;15304;3690
326;686;15265;3723
342;702;15243;3713
325;725;15233;3717
333;710;15240;3717
329;692;15256;3723
346;671;15265;3718
332;691;15239;3738
339;690;15236;3735
336;677;15238;3749
344;668;15238;3750
326;694;15225;3755
343;697;15193;3767
339;688;15200;3773
352;689;15188;3771
355;688;15216;3741
362;703;15198;3737
353;714;15169;3764
351;710;15184;3755
359;709;15203;3729
364;721;15210;3705
376;717;15209;3698
350;730;15226;3694
364;730;15241;3665
365;733;15242;3660
385;727;15265;3623
385;745;15265;3605
365;767;15270;3598
366;771;15281;3582
345;781;15301;3573
339;770;15327;3564
350;760;15337;3553
365;738;15361;3536
373;728;15395;3504
375;754;15383;3488
347;772;15370;3511
339;762;15394;3505
356;759;15382;3503
346;733;15423;3498
350;738;15418;3494
348;733;15424;3495
337;722;15428;3513
349;707;15439;3505
324;730;15427;3519
329;701;15452;3518
321;685;15486;3508
312;681;15482;3525
295;673;15478;3554
306;661;15484;3549
319;632;15489;3560
312;639;15478;3571
323;623;15475;3579
292;629;15485;3594
319;610;15485;3586
336;613;15451;3600
344;639;15433;3584
334;653;15422;3591
315;670;15401;3614
311;676;15394;3619
318;679;15413;3590
318;685;15408;3589
308;673;15418;3601
302;676;15410;3612
304;667;15407;3622
295;679;15405;3621
323;686;15369;3622
338;676;15347;3639
339;669;15337;3655
321;675;15331;3673
330;670;15308;3692
317;685;15303;3695
326;677;15302;3695
331;678;15299;3692
329;702;15266;3703
325;705;15268;3702
331;712;15264;3693
333;707;15285;3675
321;704;15278;3697
320;699;15287;3694
329;699;15273;3699
333;708;15273;3686
351;689;15264;3696
349;697;15260;3694
353;689;15267;3691
373;694;15240;3693
345;746;15217;3692
324;754;15222;3700
345;724;15253;3678
334;709;15274;3683
332;693;15295;3680
328;679;15295;3698
308;695;15283;3714
310;672;15286;3732
327;660;15278;3735
