0;20;0;19980
11;20;0;19969
26;24;0;19950
47;26;4;19923
52;42;6;19900
66;45;17;19872
82;66;21;19831
125;85;26;19764
162;104;40;19694
220;146;51;19583
281;213;66;19440
392;264;90;19254
491;345;129;19035
671;435;170;18724
828;586;218;18368
1047;748;295;17910
1325;934;401;17340
1659;1161;527;16653
1996;1507;660;15837
2428;1819;875;14878
2943;2227;1130;13700
3312;2785;1425;12478
3745;3353;1787;11115
4114;3950;2223;9713
4284;4722;2709;8285
4525;5314;3337;6824
4553;5917;4041;5489
4382;6386;4837;4395
4090;6811;5673;3426
3720;7027;6580;2673
3318;7133;7470;2079
2865;7082;8432;1621
2431;7003;9307;1259
2031;6771;10209;989
1664;6494;11052;790
1322;6175;11862;641
1081;5732;12633;554
869;5263;13372;496
712;4826;14011;451
582;4399;14602;417
454;4005;15125;416
371;3596;15626;407
313;3207;16063;417
278;2842;16447;433
231;2561;16752;456
190;2305;17025;480
165;2057;17287;491
154;1806;17521;519
133;1624;17702;541
124;1432;17878;566
114;1269;18009;608
104;1141;18096;659
94;1034;18172;700
97;906;18251;746
90;818;18312;780
83;734;18363;820
73;659;18405;863
75;574;18435;916
72;514;18439;975
67;460;18462;1011
56;419;18468;1057
55;361;18472;1112
49;320;18454;1177
47;290;18439;1224
44;268;18410;1278
45;239;18378;1338
49;208;18367;1376
41;190;18331;1438
49;168;18290;1493
38;159;18247;1556
42;142;18205;1611
38;128;18164;1670
34;116;18132;1718
32;103;18088;1777
23;102;18043;1832
28;86;18009;1877
27;75;17967;1931
31;70;17915;1984
25;75;17867;2033
28;70;17813;2089
25;72;17749;2154
20;67;17693;2220
18;65;17635;2282
19;59;17579;2343
20;56;17530;2394
20;50;17487;2443
17;49;17428;2506
18;44;17372;2566
13;40;17323;2624
14;38;17275;2673
16;35;17203;2746
10;36;17163;2791
8;35;17112;2845
6;39;17053;2902
8;36;17006;2950
13;33;16956;2998
8;37;16906;3049
8;35;16859;3098
9;31;16825;3135
12;26;16776;3186
10;26;16729;3235
10;24;16681;3285
9;25;16626;3340
10;26;16586;3378
7;28;16527;3438
12;23;16482;3483
11;27;16438;3524
15;26;16390;3569
17;24;16341;3618
20;25;16300;3655
18;27;16255;3700
15;29;16220;3736
14;30;16176;3780
15;29;16142;3814
13;30;16097;3860
13;29;16051;3907
12;29;16011;3948
14;31;15972;3983
11;35;15928;4026
14;35;15893;4058
13;40;15842;4105
14;43;15807;4136
17;39;15781;4163
17;41;15749;4193
18;41;15711;4230
15;39;15675;4271
15;40;15624;4321
21;37;15586;4356
24;38;15546;4392
24;37;15519;4420
28;34;15483;4455
31;36;15440;4493
31;46;15399;4524
29;50;15354;4567
27;61;15323;4589
33;62;15279;4626
32;69;15255;4644
38;73;15219;4670
43;72;15183;4702
44;82;15140;4734
46;82;15113;4759
45;82;15090;4783
52;80;15054;4814
55;86;15022;4837
52;92;14980;4876
51;99;14942;4908
45;96;14915;4944
54;94;14887;4965
63;96;14859;4982
63;99;14828;5010
62;107;14804;5027
74;104;14769;5053
74;108;14733;5085
74;121;14701;5104
84;121;14667;5128
74;132;14635;5159
73;140;14607;5180
77;148;14573;5202
76;156;14557;5211
86;148;14544;5222
85;152;14522;5241
96;153;14487;5264
104;160;14461;5275
111;168;14444;5277
123;170;14420;5287
126;168;14413;5293
121;182;14380;5317
137;183;14366;5314
134;202;14348;5316
136;216;14324;5324
152;221;14314;5313
166;236;14292;5306
170;257;14272;5301
168;280;14245;5307
174;287;14240;5299
204;285;14241;5270
201;296;14254;5249
193;315;14251;5241
203;325;14259;5213
212;341;14273;5174
211;347;14273;5169
226;368;14258;5148
246;365;14276;5113
254;391;14276;5079
277;405;14280;5038
292;420;14282;5006
280;449;14292;4979
283;476;14290;4951
279;492;14305;4924
266;516;14323;4895
285;515;14359;4841
275;539;14378;4808
299;537;14405;4759
290;582;14420;4708
316;575;14461;4648
353;580;14484;4583
341;619;14510;4530
366;627;14549;4458
380;655;14564;4401
381;676;14589;4354
399;691;14630;4280
412;718;14671;4199
417;739;14706;4138
444;750;14763;4043
443;776;14804;3977
404;783;14862;3951
416;795;14906;3883
406;815;14941;3838
414;812;14997;3777
414;822;15041;3723
428;832;15089;3651
436;829;15157;3578
405;855;15201;3539
388;844;15272;3496
389;825;15330;3456
379;825;15375;3421
369;817;15424;3390
372;781;15501;3346
347;776;15546;3331
361;771;15578;3290
346;780;15613;3261
341;777;15646;3236
343;771;15666;3220
342;769;15679;3210
326;759;15728;3187
328;745;15754;3173
330;758;15766;3146
347;728;15810;3115
326;743;15821;3110
327;734;15860;3079
329;731;15891;3049
323;718;15912;3047
301;726;15937;3036
306;742;15920;3032
296;722;15952;3030
264;730;15958;3048
265;709;15981;3045
291;674;16004;3031
303;645;16028;3024
280;668;16016;3036
273;640;16043;3044
261;623;16053;3063
267;617;16044;3072
271;608;16049;3072
269;603;16042;3086
253;600;16048;3099
238;596;16046;3120
243;571;16061;3125
232;566;16044;3158
220;552;16050;3178
235;536;16049;3180
234;521;16052;3193
240;518;16036;3206
243;495;16024;3238
226;519;16013;3242
229;516;16003;3252
239;508;15980;3273
230;503;15976;3291
223;489;15967;3321
214;491;15948;3347
208;485;15936;3371
196;485;15926;3393
199;469;15915;3417
181;465;15905;3449
194;436;15892;3478
201;428;15869;3502
196;430;15829;3545
186;438;15802;3574
170;439;15785;3606
181;413;15768;3638
191;392;15753;3664
199;379;15719;3703
207;393;15658;3742
202;395;15620;3783
199;392;15570;3839
203;387;15545;3865
218;377;15531;3874
218;401;15486;3895
226;411;15457;3906
230;423;15428;3919
240;434;15401;3925
238;434;15346;3982
233;448;15333;3986
222;459;15333;3986
221;466;15321;3992
253;457;15309;3981
256;478;15272;3994
254;485;15246;4015
235;498;15241;4026
244;495;15235;4026
253;503;15222;4022
243;508;15179;4070
261;516;15154;4069
263;526;15129;4082
277;540;15114;4069
276;542;15105;4077
276;549;15088;4087
258;578;15072;4092
276;574;15072;4078
292;590;15044;4074
303;597;15038;4062
318;599;15034;4049
310;619;15024;4047
299;618;15045;4038
317;624;15024;4035
312;654;15019;4015
313;653;15005;4029
310;657;14995;4038
309;661;14984;4046
312;660;14994;4034
315;674;14996;4015
315;664;15021;4000
303;654;15048;3995
306;657;15061;3976
290;674;15055;3981
335;642;15076;3947
348;642;15097;3913
359;654;15097;3890
356;651;15087;3906
346;662;15067;3925
367;655;15048;3930
347;665;15049;3939
357;660;15075;3908
371;670;15074;3885
379;680;15084;3857
377;687;15092;3844
381;698;15099;3822
360;712;15112;3816
365;720;15122;3793
350;722;15123;3805
368;689;15134;3809
339;712;15146;3803
345;702;15155;3798
326;703;15153;3818
340;682;15177;3801
331;678;15184;3807
326;673;15193;3808
336;661;15191;3812
339;674;15177;3810
341;683;15173;3803
345;695;15138;3822
344;712;15151;3793
378;695;15134;3793
393;692;15153;3762
392;703;15178;3727
382;731;15156;3731
397;751;15154;3698
408;741;15168;3683
397;763;15171;3669
383;794;15159;3664
397;796;15176;3631
394;803;15201;3602
410;808;15197;3585
378;824;15219;3579
374;838;15231;3557
373;843;15255;3529
360;845;15277;3518
370;827;15299;3504
384;814;15311;3491
389;809;15321;3481
367;821;15354;3458
336;835;15373;3456
331;812;15383;3474
345;787;15422;3446
338;769;15438;3455
337;765;15440;3458
333;751;15450;3466
324;747;15474;3455
336;750;15461;3453
338;760;15448;3454
347;744;15456;3453
354;721;15466;3459
347;735;15422;3496
349;727;15419;3505
365;731;15397;3507
364;724;15405;3507
354;716;15415;3515
326;732;15424;3518
342;722;15432;3504
324;735;15421;3520
319;736;15390;3555
331;735;15383;3551
343;728;15408;3521
318;732;15412;3538
305;716;15440;3539
315;705;15437;3543
299;707;15430;3564
298;723;15413;3566
290;700;15434;3576
301;693;15424;3582
304;690;15414;3592
292;691;15420;3597
302;681;15425;3592
325;645;15416;3614
326;632;15424;3618
333;636;15402;3629
320;634;15408;3638
318;637;15387;3658
305;666;15358;3671
294;695;15343;3668
295;678;15360;3667
310;671;15379;3640
318;658;15394;3630
327;647;15389;3637
303;668;15381;3648
342;636;15395;3627
346;672;15375;3607
335;680;15363;3622
328;675;15368;3629
329;669;15354;3648
310;663;15359;3668
319;662;15363;3656
337;659;15357;3647
320;649;15331;3700
323;654;15318;3705
339;646;15293;3722
326;670;15289;3715
343;654;15298;3705
349;649;15294;3708
342;656;15288;3714
331;669;15286;3714
343;662;15276;3719
341;650;15277;3732
343;654;15260;3743
307;671;15265;3757
303;682;15260;3755
325;669;15252;3754
314;677;15250;3759
318;683;15241;3758
323;694;15227;3756
340;676;15251;3733
343;670;15263;3724
333;655;15282;3730
340;664;15278;3718
338;656;15277;3729
310;670;15252;3768
314;659;15246;3781
325;661;15232;3782
329;661;15223;3787
327;660;15214;3799
324;671;15201;3804
310;697;15187;3806
321;678;15204;3797
325;700;15203;3772
329;682;15235;3754
351;690;15226;3733
377;685;15241;3697
368;711;15261;3660
358;728;15255;3659
355;745;15246;3654
344;750;15267;3639
329;753;15265;3653
342;747;15282;3629
378;732;15274;3616
370;733;15282;3615
368;740;15294;3598
354;750;15282;3614
364;747;15282;3607
384;736;15292;3588
382;769;15271;3578
376;761;15296;3567
403;759;15309;3529
365;783;15325;3527
385;761;15347;3507
383;762;15361;3494
368;761;15395;3476
354;779;15384;3483
344;751;15424;3481
358;743;15418;3481
362;741;15432;3465
344;743;15441;3472
317;747;15443;3493
366;726;15429;3479
378;709;15460;3453
370;735;15456;3439
377;741;15450;3432
357;753;15462;3428
354;744;15456;3446
355;733;15481;3431
353;761;15456;3430
339;747;15489;3425
338;738;15488;3436
338;726;15480;3456
331;713;15493;3463
341;705;15493;3461
314;716;15507;3463
306;717;15499;3478
295;717;15499;3489
288;697;15507;3508
292;680;15508;3520
293;663;15531;3513
285;659;15548;3508
296;655;15553;3496
306;632;15537;3525
292;637;15539;3532
278;629;15525;3568
287;623;15514;3576
323;595;15518;3564
310;597;15508;3585
301;606;15489;3604
309;605;15481;3605
311;607;15458;3624
306;624;15429;3641
316;602;15437;3645
281;623;15429;3667
258;609;15426;3707
257;616;15390;3737
286;607;15372;3735
298;613;15341;3748
313;619;15319;3749
307;620;15328;3745
293;630;15318;3759
291;629;15299;3781
273;623;15292;3812
298;606;15281;3815
292;622;15254;3832
295;634;15251;3820
281;652;15225;3842
296;639;15227;3838
302;647;15206;3845
308;644;15200;3848
295;645;15188;3872
286;649;15177;3888
309;645;15187;3859
307;631;15202;3860
322;630;15196;3852
319;663;15162;3856
330;677;15137;3856
339;678;15138;3845
342;681;15125;3852
354;689;15109;3848
338;701;15117;3844
334;729;15101;3836
355;715;15106;3824
359;716;15118;3807
403;696;15140;3761
423;703;15135;3739
406;733;15123;3738
424;754;15123;3699
395;788;15126;3691
403;798;15125;3674
382;785;15162;3671
373;777;15176;3674
358;779;15172;3691
354;782;15177;3687
365;776;15204;3655
384;751;15232;3633
368;747;15242;3643
379;722;15253;3646
367;745;15247;3641
352;755;15262;3631
355;746;15281;3618
335;760;15273;3632
323;767;15246;3664
334;768;15251;3647
329;771;15254;3646
330;747;15282;3641
331;755;15279;3635
338;734;15293;3635
331;744;15287;3638
341;736;15286;3637
350;732;15276;3642
337;758;15269;3636
348;754;15261;3637
347;765;15271;3617
346;754;15271;3629
342;746;15276;3636
330;738;15285;3647
331;741;15282;3646
343;721;15308;3628
338;709;15314;3639
345;698;15321;3636
347;713;15295;3645
300;751;15285;3664
333;729;15285;3653
348;710;15309;3633
333;709;15297;3661
341;704;15288;3667
356;704;15290;3650
365;694;15307;3634
348;721;15300;3631
344;730;15295;3631
348;727;15305;3620
372;712;15315;3601
374;707;15316;3603
364;736;15300;3600
361;746;15310;3583
362;751;15324;3563
361;745;15347;3547
362;726;15355;3557
366;722;15352;3560
352;725;15354;3569
336;721;15336;3607
331;719;15361;3589
346;713;15366;3575
360;715;15375;3550
375;733;15357;3535
365;741;15365;3529
345;764;15360;3531
339;769;15362;3530
345;754;15377;3524
343;746;15390;3521
367;743;15379;3511
381;738;15376;3505
374;742;15387;3497
364;732;15413;3491
365;743;15417;3475
353;753;15387;3507
344;736;15418;3502
344;731;15413;3512
349;730;15383;3538
340;738;15367;3555
337;744;15376;3543
313;751;15347;3589
332;746;15324;3598
342;739;15313;3606
342;742;15301;3615
352;735;15302;3611
370;733;15289;3608
359;737;15297;3607
341;730;15288;3641
365;714;15316;3605
378;730;15305;3587
360;748;15312;3580
375;759;15292;3574
382;752;15312;3554
389;736;15321;3554
378;746;15310;3566
370;777;15301;3552
358;776;15330;3536
379;743;15341;3537
388;752;15337;3523
384;759;15329;3528
384;761;15319;3536
365;764;15332;3539
377;756;15347;3520
363;765;15361;3511
353;765;15362;3520
335;775;15343;3547
349;764;15357;3530
344;741;15375;3540
354;737;15393;3516
360;722;15399;3519
354;711;15416;3519
349;724;15415;3512
350;732;15391;3527
330;756;15393;3521
341;750;15385;3524
356;766;15373;3505
347;763;15366;3524
329;777;15364;3530
335;763;15362;3540
329;748;15360;3563
366;733;15366;3535
353;745;15369;3533
378;740;15363;3519
384;753;15366;3497
390;755;15378;3477
362;779;15371;3488
352;795;15374;3479
348;797;15373;3482
364;764;15405;3467
365;766;15416;3453
347;786;15412;3455
378;760;15430;3432
375;769;15439;3417
354;778;15441;3427
363;772;15438;3427
371;751;15468;3410
363;754;15458;3425
386;751;15466;3397
377;751;15457;3415
367;747;15452;3434
361;744;15477;3418
354;770;15438;3438
400;751;15451;3398
376;764;15426;3434
379;753;15442;3426
394;731;15457;3418
357;762;15469;3412
362;747;15486;3405
360;751;15499;3390
363;753;15488;3396
372;741;15503;3384
322;764;15501;3413
296;770;15483;3451
309;739;15485;3467
315;737;15477;3471
312;713;15495;3480
332;689;15498;3481
345;678;15485;3492
339;694;15491;3476
323;718;15498;3461
313;717;15504;3466
291;723;15495;3491
287;716;15480;3517
298;692;15487;3523
326;674;15496;3504
350;654;15480;3516
338;666;15462;3534
348;669;15457;3526
327;670;15442;3561
327;661;15443;3569
321;656;15444;3579
303;678;15423;3596
303;677;15404;3616
302;670;15395;3633
296;666;15382;3656
311;644;15357;3688
309;649;15359;3683
290;639;15367;3704
308;630;15377;3685
314;646;15343;3697
315;643;15340;3702
331;639;15348;3682
314;655;15343;3688
306;665;15346;3683
310;653;15324;3713
285;660;15318;3737
274;658;15303;3765
299;645;15287;3769
315;628;15284;3773
331;624;15262;3783
321;614;15252;3813
300;624;15267;3809
319;630;15255;3796
327;621;15268;3784
318;621;15263;3798
299;633;15251;3817
293;645;15222;3840
