0;20;0;19980
19;20;0;19961
32;20;2;19946
40;28;4;19928
49;37;11;19903
76;37;20;19867
91;52;25;19832
123;75;35;19767
142;100;45;19713
211;123;63;19603
270;173;76;19481
354;223;97;19326
437;296;127;19140
594;384;162;18860
772;493;214;18521
948;663;276;18113
1217;852;373;17558
1545;1100;469;16886
1943;1399;601;16057
2403;1763;789;15045
2819;2246;1004;13931
3274;2732;1322;12672
3741;3321;1662;11276
4110;3917;2111;9862
4421;4529;2612;8438
4535;5189;3199;7077
4544;5795;3892;5769
4417;6348;4610;4625
4099;6734;5492;3675
3739;6994;6396;2871
3309;7145;7300;2246
2881;7197;8169;1753
2449;7101;9066;1384
2096;6812;9993;1099
1702;6471;10930;897
1441;6072;11780;707
1183;5601;12595;621
943;5165;13343;549
739;4760;13992;509
611;4319;14597;473
481;3911;15149;459
400;3499;15658;443
329;3145;16094;432
275;2825;16474;426
242;2549;16778;431
203;2271;17072;454
194;2007;17340;459
166;1784;17555;495
151;1592;17727;530
136;1431;17869;564
131;1295;17982;592
127;1155;18085;633
123;1021;18175;681
108;905;18255;732
102;808;18312;778
97;736;18364;803
82;663;18389;866
67;605;18431;897
62;543;18457;938
70;475;18480;975
60;435;18489;1016
56;386;18478;1080
58;331;18485;1126
53;300;18471;1176
50;272;18440;1238
46;255;18401;1298
45;230;18377;1348
43;209;18351;1397
37;193;18310;1460
36;173;18270;1521
33;157;18242;1568
33;150;18181;1636
28;138;18140;1694
24;125;18093;1758
22;111;18060;1807
21;105;18012;1862
28;93;17970;1909
29;95;17916;1960
27;93;17874;2006
25;92;17808;2075
30;79;17761;2130
20;82;17707;2191
16;72;17661;2251
14;64;17602;2320
20;58;17549;2373
14;57;17509;2420
9;58;17453;2480
16;51;17414;2519
13;53;17371;2563
12;48;17333;2607
14;41;17300;2645
16;43;17241;2700
19;35;17193;2753
22;35;17134;2809
18;33;17089;2860
17;29;17046;2908
17;27;16997;2959
16;26;16941;3017
15;21;16903;3061
11;24;16854;3111
8;25;16808;3159
6;23;16763;3208
4;22;16720;3254
8;19;16673;3300
10;19;16622;3349
8;18;16569;3405
8;15;16528;3449
10;15;16478;3497
6;17;16439;3538
6;17;16388;3589
6;16;16335;3643
11;15;16294;3680
9;13;16248;3730
12;13;16208;3767
12;14;16157;3817
8;14;16115;3863
12;13;16068;3907
12;15;16032;3941
13;15;15975;3997
14;16;15932;4038
15;18;15889;4078
14;17;15850;4119
15;15;15814;4156
17;20;15755;4208
14;24;15716;4246
15;29;15667;4289
18;26;15628;4328
17;31;15574;4378
23;28;15534;4415
23;28;15489;4460
23;30;15449;4498
20;34;15419;4527
26;36;15379;4559
24;40;15330;4606
21;46;15287;4646
24;49;15247;4680
24;51;15210;4715
28;48;15178;4746
23;54;15140;4783
33;52;15101;4814
33;52;15064;4851
34;55;15037;4874
30;58;15016;4896
32;61;14982;4925
37;62;14937;4964
31;68;14905;4996
29;67;14884;5020
41;67;14845;5047
41;72;14811;5076
37;79;14779;5105
38;74;14759;5129
34;76;14732;5158
41;73;14700;5186
49;75;14673;5203
53;82;14640;5225
54;86;14610;5250
54;85;14586;5275
56;85;14557;5302
61;94;14529;5316
68;96;14504;5332
62;101;14474;5363
66;106;14443;5385
69;109;14417;5405
71;112;14396;5421
78;113;14369;5440
85;119;14332;5464
92;128;14306;5474
91;136;14276;5497
106;138;14244;5512
110;149;14215;5526
107;155;14205;5533
112;162;14188;5538
130;157;14181;5532
132;177;14166;5525
134;183;14154;5529
129;215;14116;5540
146;218;14101;5535
145;241;14080;5534
149;242;14068;5541
161;247;14061;5531
159;264;14055;5522
171;282;14038;5509
209;288;14041;5462
211;318;14039;5432
207;321;14054;5418
217;341;14041;5401
218;355;14037;5390
251;359;14037;5353
251;390;14043;5316
260;407;14045;5288
265;445;14043;5247
271;468;14067;5194
292;472;14096;5140
307;477;14114;5102
318;496;14120;5066
317;522;14136;5025
330;537;14158;4975
318;577;14178;4927
341;562;14223;4874
345;582;14260;4813
344;612;14292;4752
361;627;14317;4695
378;620;14359;4643
387;646;14381;4586
388;661;14416;4535
375;687;14464;4474
402;688;14505;4405
387;717;14549;4347
385;745;14583;4287
401;769;14621;4209
425;786;14659;4130
435;778;14725;4062
407;814;14775;4004
397;840;14829;3934
419;847;14879;3855
445;841;14932;3782
442;864;15003;3691
415;870;15071;3644
422;829;15154;3595
416;826;15212;3546
418;841;15248;3493
421;857;15287;3435
411;844;15346;3399
405;836;15411;3348
388;839;15478;3295
373;855;15501;3271
370;869;15535;3226
374;832;15612;3182
369;841;15638;3152
377;851;15678;3094
351;849;15744;3056
341;854;15766;3039
331;838;15810;3021
344;818;15861;2977
313;813;15907;2967
318;796;15928;2958
339;789;15947;2925
320;784;15974;2922
319;763;16032;2886
296;731;16070;2903
283;720;16089;2908
266;694;16109;2931
250;693;16111;2946
245;680;16128;2947
276;640;16145;2939
253;642;16167;2938
236;623;16173;2968
248;600;16190;2962
237;569;16204;2990
219;546;16229;3006
233;518;16248;3001
230;518;16233;3019
235;497;16225;3043
206;497;16210;3087
198;495;16179;3128
187;488;16195;3130
185;476;16167;3172
188;473;16152;3187
185;457;16146;3212
201;432;16118;3249
214;415;16097;3274
196;431;16065;3308
175;441;16036;3348
169;444;16000;3387
181;449;15941;3429
188;444;15895;3473
189;438;15861;3512
182;442;15842;3534
193;430;15813;3564
185;440;15805;3570
182;447;15773;3598
186;433;15738;3643
181;422;15724;3673
177;418;15680;3725
184;416;15652;3748
175;406;15629;3790
174;408;15600;3818
187;396;15574;3843
193;385;15567;3855
182;384;15554;3880
166;393;15533;3908
167;385;15514;3934
180;388;15496;3936
177;386;15482;3955
190;382;15450;3978
193;388;15430;3989
196;391;15412;4001
195;380;15387;4038
196;394;15352;4058
216;390;15322;4072
235;386;15306;4073
223;412;15255;4110
216;421;15228;4135
230;409;15195;4166
245;419;15144;4192
240;428;15125;4207
246;432;15102;4220
245;444;15068;4243
264;443;15049;4244
253;440;15029;4278
244;449;15021;4286
236;475;14995;4294
227;490;14989;4294
254;479;14976;4291
260;499;14962;4279
267;481;14972;4280
260;489;14952;4299
259;505;14906;4330
287;511;14888;4314
317;492;14889;4302
320;523;14866;4291
295;551;14859;4295
315;536;14852;4297
319;527;14866;4288
304;547;14844;4305
313;563;14814;4310
309;574;14815;4302
321;604;14801;4274
321;596;14807;4276
321;607;14798;4274
316;621;14778;4285
308;635;14782;4275
329;634;14790;4247
363;632;14794;4211
368;650;14809;4173
378;665;14815;4142
391;680;14831;4098
354;711;14842;4093
343;729;14856;4072
336;741;14859;4064
349;713;14880;4058
364;716;14886;4034
354;736;14884;4026
386;733;14872;4009
361;755;14879;4005
366;768;14872;3994
380;765;14877;3978
398;750;14903;3949
396;751;14911;3942
421;753;14928;3898
388;795;14934;3883
378;791;14946;3885
389;778;14943;3890
394;763;14966;3877
407;759;14988;3846
402;793;14980;3825
398;801;14990;3811
410;783;15038;3769
400;772;15048;3780
411;796;15041;3752
417;805;15046;3732
422;825;15064;3689
405;864;15072;3659
414;847;15116;3623
416;855;15130;3599
412;864;15148;3576
418;861;15183;3538
448;847;15204;3501
448;857;15215;3480
446;843;15259;3452
425;840;15295;3440
407;857;15315;3421
401;835;15367;3397
388;829;15389;3394
361;815;15420;3404
372;806;15445;3377
368;805;15458;3369
383;799;15460;3358
394;783;15468;3355
409;747;15508;3336
379;783;15507;3331
371;786;15514;3329
383;799;15517;3301
373;793;15544;3290
343;782;15585;3290
351;762;15598;3289
359;744;15618;3279
350;752;15621;3277
326;779;15607;3288
320;760;15620;3300
309;741;15635;3315
326;724;15642;3308
348;709;15644;3299
336;712;15648;3304
323;721;15642;3314
315;715;15663;3307
313;722;15660;3305
283;721;15638;3358
298;683;15636;3383
318;680;15626;3376
309;679;15621;3391
295;674;15606;3425
283;673;15598;3446
310;651;15571;3468
305;645;15559;3491
311;656;15543;3490
327;642;15537;3494
300;659;15534;3507
285;650;15546;3519
306;639;15531;3524
317;652;15517;3514
325;642;15515;3518
322;650;15509;3519
312;649;15508;3531
304;669;15466;3561
307;657;15460;3576
313;652;15456;3579
284;670;15454;3592
291;668;15456;3585
304;636;15475;3585
312;652;15419;3617
315;649;15402;3634
323;640;15392;3645
306;653;15355;3686
300;669;15361;3670
321;671;15366;3642
317;684;15362;3637
329;671;15361;3639
336;658;15352;3654
324;659;15352;3665
338;658;15350;3654
314;690;15320;3676
317;700;15307;3676
325;693;15322;3660
331;689;15328;3652
339;676;15314;3671
351;668;15315;3666
344;703;15293;3660
355;699;15303;3643
355;733;15283;3629
367;712;15300;3621
378;729;15296;3597
377;737;15300;3586
375;754;15303;3568
369;758;15311;3562
355;770;15312;3563
367;744;15348;3541
359;769;15344;3528
361;758;15367;3514
355;753;15365;3527
369;746;15381;3504
366;760;15378;3496
367;742;15397;3494
332;750;15398;3520
316;749;15407;3528
319;749;15396;3536
341;744;15411;3504
336;724;15439;3501
338;708;15434;3520
323;710;15451;3516
321;697;15468;3514
303;702;15464;3531
317;683;15471;3529
306;687;15453;3554
310;666;15456;3568
293;648;15481;3578
306;633;15499;3562
299;635;15491;3575
306;639;15454;3601
296;636;15453;3615
306;618;15440;3636
311;629;15424;3636
306;626;15395;3673
311;611;15396;3682
310;600;15404;3686
297;613;15402;3688
297;608;15389;3706
285;618;15372;3725
309;632;15358;3701
297;633;15376;3694
289;621;15378;3712
291;631;15377;3701
287;636;15373;3704
285;631;15359;3725
278;630;15360;3732
306;617;15362;3715
301;630;15363;3706
308;637;15357;3698
299;657;15344;3700
317;653;15354;3676
315;645;15356;3684
300;663;15331;3706
308;659;15337;3696
319;652;15321;3708
338;638;15314;3710
337;641;15304;3718
332;636;15313;3719
346;635;15333;3686
347;623;15350;3680
315;632;15349;3704
320;637;15348;3695
322;621;15348;3709
340;614;15343;3703
335;626;15333;3706
318;647;15314;3721
291;651;15319;3739
284;665;15312;3739
295;662;15309;3734
283;669;15327;3721
287;668;15318;3727
298;654;15325;3723
298;659;15305;3738
305;647;15309;3739
303;651;15289;3757
282;677;15287;3754
285;643;15297;3775
279;652;15286;3783
316;629;15299;3756
299;630;15316;3755
305;627;15314;3754
320;604;15311;3765
304;605;15305;3786
302;611;15291;3796
316;611;15263;3810
313;623;15243;3821
323;627;15221;3829
319;639;15202;3840
314;645;15186;3855
314;656;15186;3844
322;669;15180;3829
332;669;15176;3823
327;690;15166;3817
345;690;15180;3785
347;697;15191;3765
326;707;15197;3770
347;709;15219;3725
360;696;15240;3704
352;691;15261;3696
321;693;15277;3709
305;692;15268;3735
314;691;15279;3716
353;680;15301;3666
336;680;15310;3674
348;690;15309;3653
352;693;15310;3645
340;702;15304;3654
342;719;15285;3654
345;718;15282;3655
377;713;15287;3623
365;733;15289;3613
342;753;15299;3606
334;753;15316;3597
349;734;15336;3581
323;723;15370;3584
350;719;15371;3560
339;717;15383;3561
329;716;15380;3575
327;737;15342;3594
325;724;15369;3582
338;716;15388;3558
363;709;15395;3533
349;726;15402;3523
366;725;15411;3498
389;713;15441;3457
377;729;15444;3450
379;731;15472;3418
352;734;15491;3423
350;741;15467;3442
339;747;15462;3452
349;745;15453;3453
353;735;15464;3448
353;715;15495;3437
338;722;15494;3446
334;722;15499;3445
314;732;15491;3463
344;705;15483;3468
332;703;15510;3455
323;720;15511;3446
344;720;15506;3430
330;716;15516;3438
338;697;15534;3431
343;695;15534;3428
332;695;15532;3441
339;690;15531;3440
340;688;15532;3440
340;693;15515;3452
341;701;15494;3464
340;712;15474;3474
327;730;15453;3490
331;706;15450;3513
325;698;15456;3521
316;708;15442;3534
318;706;15444;3532
327;705;15449;3519
335;681;15458;3526
346;669;15466;3519
341;660;15462;3537
312;662;15454;3572
305;678;15441;3576
321;656;15433;3590
330;667;15411;3592
326;676;15394;3604
315;687;15384;3614
312;674;15391;3623
307;680;15366;3647
297;691;15338;3674
314;674;15315;3697
303;678;15295;3724
317;657;15281;3745
316;651;15282;3751
313;650;15281;3756
298;683;15260;3759
304;669;15250;3777
323;667;15228;3782
337;653;15239;3771
318;659;15239;3784
329;659;15249;3763
331;664;15247;3758
336;675;15233;3756
349;671;15226;3754
371;674;15201;3754
377;693;15169;3761
371;725;15167;3737
366;722;15171;3741
368;734;15177;3721
362;739;15163;3736
383;724;15180;3713
368;722;15201;3709
386;734;15183;3697
372;756;15169;3703
376;763;15179;3682
374;776;15181;3669
373;770;15197;3660
369;760;15211;3660
366;764;15216;3654
388;747;15214;3651
358;761;15211;3670
355;766;15213;3666
352;782;15215;3651
345;791;15207;3657
343;786;15174;3697
351;778;15193;3678
352;780;15208;3660
361;777;15222;3640
376;769;15241;3614
353;773;15250;3624
359;777;15263;3601
360;796;15259;3585
365;772;15264;3599
389;749;15286;3576
389;763;15282;3566
381;775;15286;3558
385;784;15295;3536
353;801;15304;3542
333;829;15284;3554
357;803;15290;3550
358;786;15305;3551
373;763;15302;3562
378;763;15311;3548
359;776;15311;3554
371;776;15303;3550
367;773;15323;3537
362;766;15314;3558
378;763;15337;3522
357;796;15338;3509
366;772;15368;3494
368;773;15362;3497
363;752;15381;3504
329;758;15366;3547
358;746;15364;3532
352;744;15374;3530
347;735;15370;3548
324;746;15373;3557
338;725;15381;3556
352;723;15373;3552
370;705;15388;3537
363;704;15400;3533
366;706;15392;3536
352;737;15374;3537
349;718;15389;3544
351;742;15366;3541
336;746;15373;3545
320;748;15385;3547
321;736;15393;3550
323;747;15375;3555
322;741;15391;3546
323;742;15392;3543
346;715;15403;3536
333;737;15388;3542
361;711;15371;3557
359;723;15350;3568
366;735;15344;3555
355;757;15321;3567
355;751;15319;3575
359;754;15335;3552
366;766;15341;3527
356;750;15356;3538
360;727;15378;3535
350;725;15382;3543
337;716;15411;3536
354;716;15403;3527
333;704;15422;3541
307;719;15402;3572
331;694;15408;3567
321;709;15385;3585
333;693;15405;3569
321;707;15411;3561
325;700;15416;3559
303;698;15437;3562
317;675;15458;3550
307;676;15446;3571
324;648;15443;3585
307;662;15416;3615
305;671;15402;3622
331;662;15414;3593
332;650;15415;3603
342;659;15388;3611
347;667;15389;3597
366;688;15373;3573
342;716;15372;3570
375;693;15391;3541
355;701;15394;3550
345;704;15402;3549
339;687;15421;3553
345;700;15407;3548
340;715;15414;3531
335;728;15398;3539
333;718;15389;3560
343;710;15395;3552
330;732;15376;3562
317;725;15383;3575
313;722;15378;3587
314;723;15373;3590
319;708;15380;3593
358;687;15390;3565
345;693;15399;3563
348;703;15385;3564
355;702;15387;3556
365;707;15392;3536
359;709;15386;3546
